Bagging result of the following models:
['bangqi_results/bangqi_6_9_1_44pm_1/', 'results/8_18_resnet18_l2=1e-5/', 'results/10_5_resnet50/']

probabilities for 2 classes are:
('image name:', 'D14')
('true label:', 1)
('result of model', 0, ': ', [7, 6, 1])
[7, 6, 1]
('result of model', 1, ': ', [0, 13, 1])
[0, 13, 1]
('result of model', 2, ': ', [0, 13, 1])
[0, 13, 1]
('# of model votes positive:', 2, ', # of models vote negative: ', 1)
('image name:', 'J10')
('true label:', 1)
('result of model', 0, ': ', [2, 11, 1])
[2, 11, 1]
('result of model', 1, ': ', [3, 10, 1])
[3, 10, 1]
('result of model', 2, ': ', [2, 11, 1])
[2, 11, 1]
('# of model votes positive:', 3, ', # of models vote negative: ', 0)
('image name:', 'K12')
('true label:', 1)
('result of model', 0, ': ', [0, 10, 1])
[0, 10, 1]
('result of model', 1, ': ', [0, 10, 1])
[0, 10, 1]
('result of model', 2, ': ', [2, 8, 1])
[2, 8, 1]
('# of model votes positive:', 3, ', # of models vote negative: ', 0)
('image name:', 'K11')
('true label:', 1)
('result of model', 0, ': ', [1, 10, 1])
[1, 10, 1]
('result of model', 1, ': ', [1, 10, 1])
[1, 10, 1]
('result of model', 2, ': ', [1, 10, 1])
[1, 10, 1]
('# of model votes positive:', 3, ', # of models vote negative: ', 0)
('image name:', 'K16')
('true label:', 1)
('result of model', 0, ': ', [0, 11, 1])
[0, 11, 1]
('result of model', 1, ': ', [0, 11, 1])
[0, 11, 1]
('result of model', 2, ': ', [0, 11, 1])
[0, 11, 1]
('# of model votes positive:', 3, ', # of models vote negative: ', 0)
('image name:', 'G7')
('true label:', 1)
('result of model', 0, ': ', [16, 10, 1])
[16, 10, 1]
('result of model', 1, ': ', [3, 23, 1])
[3, 23, 1]
('result of model', 2, ': ', [0, 26, 1])
[0, 26, 1]
('# of model votes positive:', 2, ', # of models vote negative: ', 1)
('image name:', 'G6')
('true label:', 0)
('result of model', 0, ': ', [46, 13, 0])
[46, 13, 0]
('result of model', 1, ': ', [40, 19, 0])
[40, 19, 0]
('result of model', 2, ': ', [24, 35, 0])
[24, 35, 0]
('# of model votes positive:', 1, ', # of models vote negative: ', 2)
('image name:', 'G5')
('true label:', 1)
('result of model', 0, ': ', [0, 11, 1])
[0, 11, 1]
('result of model', 1, ': ', [0, 11, 1])
[0, 11, 1]
('result of model', 2, ': ', [0, 11, 1])
[0, 11, 1]
('# of model votes positive:', 3, ', # of models vote negative: ', 0)
('image name:', 'G4')
('true label:', 1)
('result of model', 0, ': ', [0, 10, 1])
[0, 10, 1]
('result of model', 1, ': ', [0, 10, 1])
[0, 10, 1]
('result of model', 2, ': ', [1, 9, 1])
[1, 9, 1]
('# of model votes positive:', 3, ', # of models vote negative: ', 0)
('image name:', 'G3')
('true label:', 1)
('result of model', 0, ': ', [13, 24, 1])
[13, 24, 1]
('result of model', 1, ': ', [2, 35, 1])
[2, 35, 1]
('result of model', 2, ': ', [4, 33, 1])
[4, 33, 1]
('# of model votes positive:', 3, ', # of models vote negative: ', 0)
('image name:', 'G2')
('true label:', 1)
('result of model', 0, ': ', [0, 13, 1])
[0, 13, 1]
('result of model', 1, ': ', [3, 10, 1])
[3, 10, 1]
('result of model', 2, ': ', [0, 13, 1])
[0, 13, 1]
('# of model votes positive:', 3, ', # of models vote negative: ', 0)
('image name:', 'G1')
('true label:', 1)
('result of model', 0, ': ', [1, 12, 1])
[1, 12, 1]
('result of model', 1, ': ', [1, 12, 1])
[1, 12, 1]
('result of model', 2, ': ', [0, 13, 1])
[0, 13, 1]
('# of model votes positive:', 3, ', # of models vote negative: ', 0)
('image name:', 'D13')
('true label:', 1)
('result of model', 0, ': ', [0, 10, 1])
[0, 10, 1]
('result of model', 1, ': ', [2, 8, 1])
[2, 8, 1]
('result of model', 2, ': ', [1, 9, 1])
[1, 9, 1]
('# of model votes positive:', 3, ', # of models vote negative: ', 0)
('image name:', 'G9')
('true label:', 1)
('result of model', 0, ': ', [12, 11, 1])
[12, 11, 1]
('result of model', 1, ': ', [3, 20, 1])
[3, 20, 1]
('result of model', 2, ': ', [2, 21, 1])
[2, 21, 1]
('# of model votes positive:', 2, ', # of models vote negative: ', 1)
('image name:', 'G8')
('true label:', 0)
('result of model', 0, ': ', [45, 24, 0])
[45, 24, 0]
('result of model', 1, ': ', [47, 22, 0])
[47, 22, 0]
('result of model', 2, ': ', [23, 46, 0])
[23, 46, 0]
('# of model votes positive:', 1, ', # of models vote negative: ', 2)
('image name:', 'B16')
('true label:', 1)
('result of model', 0, ': ', [8, 5, 1])
[8, 5, 1]
('result of model', 1, ': ', [1, 12, 1])
[1, 12, 1]
('result of model', 2, ': ', [2, 11, 1])
[2, 11, 1]
('# of model votes positive:', 2, ', # of models vote negative: ', 1)
('image name:', 'J8')
('true label:', 1)
('result of model', 0, ': ', [0, 10, 1])
[0, 10, 1]
('result of model', 1, ': ', [0, 10, 1])
[0, 10, 1]
('result of model', 2, ': ', [0, 10, 1])
[0, 10, 1]
('# of model votes positive:', 3, ', # of models vote negative: ', 0)
('image name:', 'J9')
('true label:', 1)
('result of model', 0, ': ', [1, 10, 1])
[1, 10, 1]
('result of model', 1, ': ', [0, 11, 1])
[0, 11, 1]
('result of model', 2, ': ', [0, 11, 1])
[0, 11, 1]
('# of model votes positive:', 3, ', # of models vote negative: ', 0)
('image name:', 'J4')
('true label:', 1)
('result of model', 0, ': ', [3, 7, 1])
[3, 7, 1]
('result of model', 1, ': ', [1, 9, 1])
[1, 9, 1]
('result of model', 2, ': ', [0, 10, 1])
[0, 10, 1]
('# of model votes positive:', 3, ', # of models vote negative: ', 0)
('image name:', 'J5')
('true label:', 1)
('result of model', 0, ': ', [10, 16, 1])
[10, 16, 1]
('result of model', 1, ': ', [6, 20, 1])
[6, 20, 1]
('result of model', 2, ': ', [1, 25, 1])
[1, 25, 1]
('# of model votes positive:', 3, ', # of models vote negative: ', 0)
('image name:', 'J6')
('true label:', 1)
('result of model', 0, ': ', [0, 13, 1])
[0, 13, 1]
('result of model', 1, ': ', [1, 12, 1])
[1, 12, 1]
('result of model', 2, ': ', [1, 12, 1])
[1, 12, 1]
('# of model votes positive:', 3, ', # of models vote negative: ', 0)
('image name:', 'J7')
('true label:', 1)
('result of model', 0, ': ', [14, 23, 1])
[14, 23, 1]
('result of model', 1, ': ', [4, 33, 1])
[4, 33, 1]
('result of model', 2, ': ', [3, 34, 1])
[3, 34, 1]
('# of model votes positive:', 3, ', # of models vote negative: ', 0)
('image name:', 'J1')
('true label:', 1)
('result of model', 0, ': ', [3, 23, 1])
[3, 23, 1]
('result of model', 1, ': ', [2, 24, 1])
[2, 24, 1]
('result of model', 2, ': ', [4, 22, 1])
[4, 22, 1]
('# of model votes positive:', 3, ', # of models vote negative: ', 0)
('image name:', 'J2')
('true label:', 1)
('result of model', 0, ': ', [5, 32, 1])
[5, 32, 1]
('result of model', 1, ': ', [0, 37, 1])
[0, 37, 1]
('result of model', 2, ': ', [2, 35, 1])
[2, 35, 1]
('# of model votes positive:', 3, ', # of models vote negative: ', 0)
('image name:', 'J3')
('true label:', 1)
('result of model', 0, ': ', [3, 20, 1])
[3, 20, 1]
('result of model', 1, ': ', [2, 21, 1])
[2, 21, 1]
('result of model', 2, ': ', [2, 21, 1])
[2, 21, 1]
('# of model votes positive:', 3, ', # of models vote negative: ', 0)
('image name:', 'B4')
('true label:', 0)
('result of model', 0, ': ', [46, 13, 0])
[46, 13, 0]
('result of model', 1, ': ', [45, 14, 0])
[45, 14, 0]
('result of model', 2, ': ', [24, 35, 0])
[24, 35, 0]
('# of model votes positive:', 1, ', # of models vote negative: ', 2)
('image name:', 'B5')
('true label:', 1)
('result of model', 0, ': ', [14, 12, 1])
[14, 12, 1]
('result of model', 1, ': ', [1, 25, 1])
[1, 25, 1]
('result of model', 2, ': ', [1, 25, 1])
[1, 25, 1]
('# of model votes positive:', 2, ', # of models vote negative: ', 1)
('image name:', 'B6')
('true label:', 1)
('result of model', 0, ': ', [0, 13, 1])
[0, 13, 1]
('result of model', 1, ': ', [1, 12, 1])
[1, 12, 1]
('result of model', 2, ': ', [1, 12, 1])
[1, 12, 1]
('# of model votes positive:', 3, ', # of models vote negative: ', 0)
('image name:', 'B7')
('true label:', 1)
('result of model', 0, ': ', [13, 13, 1])
[13, 13, 1]
('result of model', 1, ': ', [3, 23, 1])
[3, 23, 1]
('result of model', 2, ': ', [4, 22, 1])
[4, 22, 1]
('# of model votes positive:', 3, ', # of models vote negative: ', 0)
('image name:', 'B1')
('true label:', 1)
('result of model', 0, ': ', [0, 13, 1])
[0, 13, 1]
('result of model', 1, ': ', [0, 13, 1])
[0, 13, 1]
('result of model', 2, ': ', [1, 12, 1])
[1, 12, 1]
('# of model votes positive:', 3, ', # of models vote negative: ', 0)
('image name:', 'B2')
('true label:', 1)
('result of model', 0, ': ', [1, 12, 1])
[1, 12, 1]
('result of model', 1, ': ', [3, 10, 1])
[3, 10, 1]
('result of model', 2, ': ', [1, 12, 1])
[1, 12, 1]
('# of model votes positive:', 3, ', # of models vote negative: ', 0)
('image name:', 'B3')
('true label:', 1)
('result of model', 0, ': ', [11, 28, 1])
[11, 28, 1]
('result of model', 1, ': ', [4, 35, 1])
[4, 35, 1]
('result of model', 2, ': ', [2, 37, 1])
[2, 37, 1]
('# of model votes positive:', 3, ', # of models vote negative: ', 0)
('image name:', 'K7')
('true label:', 1)
('result of model', 0, ': ', [0, 11, 1])
[0, 11, 1]
('result of model', 1, ': ', [1, 10, 1])
[1, 10, 1]
('result of model', 2, ': ', [1, 10, 1])
[1, 10, 1]
('# of model votes positive:', 3, ', # of models vote negative: ', 0)
('image name:', 'B8')
('true label:', 0)
('result of model', 0, ': ', [48, 24, 0])
[48, 24, 0]
('result of model', 1, ': ', [49, 23, 0])
[49, 23, 0]
('result of model', 2, ': ', [25, 47, 0])
[25, 47, 0]
('# of model votes positive:', 1, ', # of models vote negative: ', 2)
('image name:', 'B9')
('true label:', 1)
('result of model', 0, ': ', [0, 13, 1])
[0, 13, 1]
('result of model', 1, ': ', [1, 12, 1])
[1, 12, 1]
('result of model', 2, ': ', [0, 13, 1])
[0, 13, 1]
('# of model votes positive:', 3, ', # of models vote negative: ', 0)
('image name:', 'K6')
('true label:', 1)
('result of model', 0, ': ', [0, 10, 1])
[0, 10, 1]
('result of model', 1, ': ', [1, 9, 1])
[1, 9, 1]
('result of model', 2, ': ', [1, 9, 1])
[1, 9, 1]
('# of model votes positive:', 3, ', # of models vote negative: ', 0)
('image name:', 'B10')
('true label:', 1)
('result of model', 0, ': ', [0, 13, 1])
[0, 13, 1]
('result of model', 1, ': ', [2, 11, 1])
[2, 11, 1]
('result of model', 2, ': ', [1, 12, 1])
[1, 12, 1]
('# of model votes positive:', 3, ', # of models vote negative: ', 0)
('image name:', 'L14')
('true label:', 0)
('result of model', 0, ': ', [51, 41, 0])
[51, 41, 0]
('result of model', 1, ': ', [88, 4, 0])
[88, 4, 0]
('result of model', 2, ': ', [48, 44, 0])
[48, 44, 0]
('# of model votes positive:', 0, ', # of models vote negative: ', 3)
('image name:', 'L15')
('true label:', 0)
('result of model', 0, ': ', [37, 9, 0])
[37, 9, 0]
('result of model', 1, ': ', [44, 2, 0])
[44, 2, 0]
('result of model', 2, ': ', [26, 20, 0])
[26, 20, 0]
('# of model votes positive:', 0, ', # of models vote negative: ', 3)
('image name:', 'G12')
('true label:', 1)
('result of model', 0, ': ', [0, 13, 1])
[0, 13, 1]
('result of model', 1, ': ', [2, 11, 1])
[2, 11, 1]
('result of model', 2, ': ', [0, 13, 1])
[0, 13, 1]
('# of model votes positive:', 3, ', # of models vote negative: ', 0)
('image name:', 'L11')
('true label:', 1)
('result of model', 0, ': ', [1, 9, 1])
[1, 9, 1]
('result of model', 1, ': ', [2, 8, 1])
[2, 8, 1]
('result of model', 2, ': ', [1, 9, 1])
[1, 9, 1]
('# of model votes positive:', 3, ', # of models vote negative: ', 0)
('image name:', 'L12')
('true label:', 0)
('result of model', 0, ': ', [23, 34, 0])
[23, 34, 0]
('result of model', 1, ': ', [44, 13, 0])
[44, 13, 0]
('result of model', 2, ': ', [29, 28, 0])
[29, 28, 0]
('# of model votes positive:', 1, ', # of models vote negative: ', 2)
('image name:', 'L13')
('true label:', 0)
('result of model', 0, ': ', [26, 66, 0])
[26, 66, 0]
('result of model', 1, ': ', [87, 5, 0])
[87, 5, 0]
('result of model', 2, ': ', [48, 44, 0])
[48, 44, 0]
('# of model votes positive:', 1, ', # of models vote negative: ', 2)
('image name:', 'M4')
('true label:', 0)
('result of model', 0, ': ', [32, 14, 0])
[32, 14, 0]
('result of model', 1, ': ', [44, 2, 0])
[44, 2, 0]
('result of model', 2, ': ', [27, 19, 0])
[27, 19, 0]
('# of model votes positive:', 0, ', # of models vote negative: ', 3)
('image name:', 'M7')
('true label:', 0)
('result of model', 0, ': ', [8, 38, 0])
[8, 38, 0]
('result of model', 1, ': ', [42, 4, 0])
[42, 4, 0]
('result of model', 2, ': ', [22, 24, 0])
[22, 24, 0]
('# of model votes positive:', 2, ', # of models vote negative: ', 1)
+++++++++++++++++++++++++++++++++++++++++++++++++++++++++++++++++=
Wrong!
('image name:', 'M3')
('true label:', 0)
('result of model', 0, ': ', [13, 33, 0])
[13, 33, 0]
('result of model', 1, ': ', [44, 2, 0])
[44, 2, 0]
('result of model', 2, ': ', [22, 24, 0])
[22, 24, 0]
('# of model votes positive:', 2, ', # of models vote negative: ', 1)
+++++++++++++++++++++++++++++++++++++++++++++++++++++++++++++++++=
Wrong!
('image name:', 'M2')
('true label:', 0)
('result of model', 0, ': ', [21, 25, 0])
[21, 25, 0]
('result of model', 1, ': ', [44, 2, 0])
[44, 2, 0]
('result of model', 2, ': ', [28, 18, 0])
[28, 18, 0]
('# of model votes positive:', 1, ', # of models vote negative: ', 2)
('image name:', 'M9')
('true label:', 0)
('result of model', 0, ': ', [21, 25, 0])
[21, 25, 0]
('result of model', 1, ': ', [42, 4, 0])
[42, 4, 0]
('result of model', 2, ': ', [17, 29, 0])
[17, 29, 0]
('# of model votes positive:', 2, ', # of models vote negative: ', 1)
+++++++++++++++++++++++++++++++++++++++++++++++++++++++++++++++++=
Wrong!
('image name:', 'M8')
('true label:', 0)
('result of model', 0, ': ', [24, 22, 0])
[24, 22, 0]
('result of model', 1, ': ', [42, 4, 0])
[42, 4, 0]
('result of model', 2, ': ', [27, 19, 0])
[27, 19, 0]
('# of model votes positive:', 0, ', # of models vote negative: ', 3)
('image name:', 'E9')
('true label:', 1)
('result of model', 0, ': ', [2, 11, 1])
[2, 11, 1]
('result of model', 1, ': ', [0, 13, 1])
[0, 13, 1]
('result of model', 2, ': ', [2, 11, 1])
[2, 11, 1]
('# of model votes positive:', 3, ', # of models vote negative: ', 0)
('image name:', 'E8')
('true label:', 1)
('result of model', 0, ': ', [0, 13, 1])
[0, 13, 1]
('result of model', 1, ': ', [1, 12, 1])
[1, 12, 1]
('result of model', 2, ': ', [1, 12, 1])
[1, 12, 1]
('# of model votes positive:', 3, ', # of models vote negative: ', 0)
('image name:', 'E5')
('true label:', 1)
('result of model', 0, ': ', [4, 20, 1])
[4, 20, 1]
('result of model', 1, ': ', [0, 24, 1])
[0, 24, 1]
('result of model', 2, ': ', [0, 24, 1])
[0, 24, 1]
('# of model votes positive:', 3, ', # of models vote negative: ', 0)
('image name:', 'E4')
('true label:', 1)
('result of model', 0, ': ', [1, 12, 1])
[1, 12, 1]
('result of model', 1, ': ', [0, 13, 1])
[0, 13, 1]
('result of model', 2, ': ', [0, 13, 1])
[0, 13, 1]
('# of model votes positive:', 3, ', # of models vote negative: ', 0)
('image name:', 'E7')
('true label:', 1)
('result of model', 0, ': ', [5, 5, 1])
[5, 5, 1]
('result of model', 1, ': ', [0, 10, 1])
[0, 10, 1]
('result of model', 2, ': ', [1, 9, 1])
[1, 9, 1]
('# of model votes positive:', 3, ', # of models vote negative: ', 0)
('image name:', 'E6')
('true label:', 0)
('result of model', 0, ': ', [47, 9, 0])
[47, 9, 0]
('result of model', 1, ': ', [42, 14, 0])
[42, 14, 0]
('result of model', 2, ': ', [23, 33, 0])
[23, 33, 0]
('# of model votes positive:', 1, ', # of models vote negative: ', 2)
('image name:', 'E1')
('true label:', 1)
('result of model', 0, ': ', [0, 11, 1])
[0, 11, 1]
('result of model', 1, ': ', [1, 10, 1])
[1, 10, 1]
('result of model', 2, ': ', [0, 11, 1])
[0, 11, 1]
('# of model votes positive:', 3, ', # of models vote negative: ', 0)
('image name:', 'E3')
('true label:', 1)
('result of model', 0, ': ', [6, 7, 1])
[6, 7, 1]
('result of model', 1, ': ', [0, 13, 1])
[0, 13, 1]
('result of model', 2, ': ', [2, 11, 1])
[2, 11, 1]
('# of model votes positive:', 3, ', # of models vote negative: ', 0)
('image name:', 'E2')
('true label:', 1)
('result of model', 0, ': ', [0, 10, 1])
[0, 10, 1]
('result of model', 1, ': ', [0, 10, 1])
[0, 10, 1]
('result of model', 2, ': ', [0, 10, 1])
[0, 10, 1]
('# of model votes positive:', 3, ', # of models vote negative: ', 0)
('image name:', 'H18')
('true label:', 0)
('result of model', 0, ': ', [46, 0, 0])
[46, 0, 0]
('result of model', 1, ': ', [45, 1, 0])
[45, 1, 0]
('result of model', 2, ': ', [20, 26, 0])
[20, 26, 0]
('# of model votes positive:', 1, ', # of models vote negative: ', 2)
('image name:', 'H10')
('true label:', 0)
('result of model', 0, ': ', [48, 8, 0])
[48, 8, 0]
('result of model', 1, ': ', [45, 11, 0])
[45, 11, 0]
('result of model', 2, ': ', [25, 31, 0])
[25, 31, 0]
('# of model votes positive:', 1, ', # of models vote negative: ', 2)
('image name:', 'H12')
('true label:', 0)
('result of model', 0, ': ', [48, 11, 0])
[48, 11, 0]
('result of model', 1, ': ', [45, 14, 0])
[45, 14, 0]
('result of model', 2, ': ', [26, 33, 0])
[26, 33, 0]
('# of model votes positive:', 1, ', # of models vote negative: ', 2)
('image name:', 'H13')
('true label:', 1)
('result of model', 0, ': ', [20, 17, 1])
[20, 17, 1]
('result of model', 1, ': ', [3, 34, 1])
[3, 34, 1]
('result of model', 2, ': ', [3, 34, 1])
[3, 34, 1]
('# of model votes positive:', 2, ', # of models vote negative: ', 1)
('image name:', 'H14')
('true label:', 0)
('result of model', 0, ': ', [48, 11, 0])
[48, 11, 0]
('result of model', 1, ': ', [44, 15, 0])
[44, 15, 0]
('result of model', 2, ': ', [28, 31, 0])
[28, 31, 0]
('# of model votes positive:', 1, ', # of models vote negative: ', 2)
('image name:', 'H15')
('true label:', 1)
('result of model', 0, ': ', [13, 10, 1])
[13, 10, 1]
('result of model', 1, ': ', [0, 23, 1])
[0, 23, 1]
('result of model', 2, ': ', [1, 22, 1])
[1, 22, 1]
('# of model votes positive:', 2, ', # of models vote negative: ', 1)
('image name:', 'H16')
('true label:', 1)
('result of model', 0, ': ', [0, 11, 1])
[0, 11, 1]
('result of model', 1, ': ', [0, 11, 1])
[0, 11, 1]
('result of model', 2, ': ', [0, 11, 1])
[0, 11, 1]
('# of model votes positive:', 3, ', # of models vote negative: ', 0)
('image name:', 'H17')
('true label:', 1)
('result of model', 0, ': ', [12, 1, 1])
[12, 1, 1]
('result of model', 1, ': ', [2, 11, 1])
[2, 11, 1]
('result of model', 2, ': ', [0, 13, 1])
[0, 13, 1]
('# of model votes positive:', 2, ', # of models vote negative: ', 1)
('image name:', 'F12')
('true label:', 1)
('result of model', 0, ': ', [0, 13, 1])
[0, 13, 1]
('result of model', 1, ': ', [0, 13, 1])
[0, 13, 1]
('result of model', 2, ': ', [1, 12, 1])
[1, 12, 1]
('# of model votes positive:', 3, ', # of models vote negative: ', 0)
('image name:', 'F13')
('true label:', 1)
('result of model', 0, ': ', [13, 13, 1])
[13, 13, 1]
('result of model', 1, ': ', [4, 22, 1])
[4, 22, 1]
('result of model', 2, ': ', [1, 25, 1])
[1, 25, 1]
('# of model votes positive:', 3, ', # of models vote negative: ', 0)
('image name:', 'F10')
('true label:', 0)
('result of model', 0, ': ', [47, 9, 0])
[47, 9, 0]
('result of model', 1, ': ', [44, 12, 0])
[44, 12, 0]
('result of model', 2, ': ', [22, 34, 0])
[22, 34, 0]
('# of model votes positive:', 1, ', # of models vote negative: ', 2)
('image name:', 'F11')
('true label:', 1)
('result of model', 0, ': ', [18, 5, 1])
[18, 5, 1]
('result of model', 1, ': ', [1, 22, 1])
[1, 22, 1]
('result of model', 2, ': ', [1, 22, 1])
[1, 22, 1]
('# of model votes positive:', 2, ', # of models vote negative: ', 1)
('image name:', 'F16')
('true label:', 0)
('result of model', 0, ': ', [46, 10, 0])
[46, 10, 0]
('result of model', 1, ': ', [44, 12, 0])
[44, 12, 0]
('result of model', 2, ': ', [25, 31, 0])
[25, 31, 0]
('# of model votes positive:', 1, ', # of models vote negative: ', 2)
('image name:', 'F14')
('true label:', 0)
('result of model', 0, ': ', [46, 24, 0])
[46, 24, 0]
('result of model', 1, ': ', [45, 25, 0])
[45, 25, 0]
('result of model', 2, ': ', [25, 45, 0])
[25, 45, 0]
('# of model votes positive:', 1, ', # of models vote negative: ', 2)
('image name:', 'F15')
('true label:', 1)
('result of model', 0, ': ', [12, 11, 1])
[12, 11, 1]
('result of model', 1, ': ', [2, 21, 1])
[2, 21, 1]
('result of model', 2, ': ', [1, 22, 1])
[1, 22, 1]
('# of model votes positive:', 2, ', # of models vote negative: ', 1)
('image name:', 'H8')
('true label:', 1)
('result of model', 0, ': ', [6, 7, 1])
[6, 7, 1]
('result of model', 1, ': ', [0, 13, 1])
[0, 13, 1]
('result of model', 2, ': ', [0, 13, 1])
[0, 13, 1]
('# of model votes positive:', 3, ', # of models vote negative: ', 0)
('image name:', 'H9')
('true label:', 1)
('result of model', 0, ': ', [14, 22, 1])
[14, 22, 1]
('result of model', 1, ': ', [4, 32, 1])
[4, 32, 1]
('result of model', 2, ': ', [4, 32, 1])
[4, 32, 1]
('# of model votes positive:', 3, ', # of models vote negative: ', 0)
('image name:', 'H2')
('true label:', 0)
('result of model', 0, ': ', [39, 30, 0])
[39, 30, 0]
('result of model', 1, ': ', [43, 26, 0])
[43, 26, 0]
('result of model', 2, ': ', [23, 46, 0])
[23, 46, 0]
('# of model votes positive:', 1, ', # of models vote negative: ', 2)
('image name:', 'H3')
('true label:', 1)
('result of model', 0, ': ', [9, 28, 1])
[9, 28, 1]
('result of model', 1, ': ', [2, 35, 1])
[2, 35, 1]
('result of model', 2, ': ', [3, 34, 1])
[3, 34, 1]
('# of model votes positive:', 3, ', # of models vote negative: ', 0)
('image name:', 'H1')
('true label:', 1)
('result of model', 0, ': ', [2, 24, 1])
[2, 24, 1]
('result of model', 1, ': ', [2, 24, 1])
[2, 24, 1]
('result of model', 2, ': ', [1, 25, 1])
[1, 25, 1]
('# of model votes positive:', 3, ', # of models vote negative: ', 0)
('image name:', 'H6')
('true label:', 1)
('result of model', 0, ': ', [1, 12, 1])
[1, 12, 1]
('result of model', 1, ': ', [1, 12, 1])
[1, 12, 1]
('result of model', 2, ': ', [0, 13, 1])
[0, 13, 1]
('# of model votes positive:', 3, ', # of models vote negative: ', 0)
('image name:', 'H7')
('true label:', 1)
('result of model', 0, ': ', [14, 10, 1])
[14, 10, 1]
('result of model', 1, ': ', [2, 22, 1])
[2, 22, 1]
('result of model', 2, ': ', [2, 22, 1])
[2, 22, 1]
('# of model votes positive:', 2, ', # of models vote negative: ', 1)
('image name:', 'H4')
('true label:', 0)
('result of model', 0, ': ', [93, 9, 0])
[93, 9, 0]
('result of model', 1, ': ', [90, 12, 0])
[90, 12, 0]
('result of model', 2, ': ', [47, 55, 0])
[47, 55, 0]
('# of model votes positive:', 1, ', # of models vote negative: ', 2)
('image name:', 'B11')
('true label:', 1)
('result of model', 0, ': ', [0, 13, 1])
[0, 13, 1]
('result of model', 1, ': ', [0, 13, 1])
[0, 13, 1]
('result of model', 2, ': ', [1, 12, 1])
[1, 12, 1]
('# of model votes positive:', 3, ', # of models vote negative: ', 0)
('image name:', 'K13')
('true label:', 0)
('result of model', 0, ': ', [27, 29, 0])
[27, 29, 0]
('result of model', 1, ': ', [46, 10, 0])
[46, 10, 0]
('result of model', 2, ': ', [25, 31, 0])
[25, 31, 0]
('# of model votes positive:', 2, ', # of models vote negative: ', 1)
+++++++++++++++++++++++++++++++++++++++++++++++++++++++++++++++++=
Wrong!
('image name:', 'D15')
('true label:', 1)
('result of model', 0, ': ', [1, 25, 1])
[1, 25, 1]
('result of model', 1, ': ', [1, 25, 1])
[1, 25, 1]
('result of model', 2, ': ', [1, 25, 1])
[1, 25, 1]
('# of model votes positive:', 3, ', # of models vote negative: ', 0)
('image name:', 'D16')
('true label:', 1)
('result of model', 0, ': ', [6, 17, 1])
[6, 17, 1]
('result of model', 1, ': ', [4, 19, 1])
[4, 19, 1]
('result of model', 2, ': ', [1, 22, 1])
[1, 22, 1]
('# of model votes positive:', 3, ', # of models vote negative: ', 0)
('image name:', 'K10')
('true label:', 0)
('result of model', 0, ': ', [33, 13, 0])
[33, 13, 0]
('result of model', 1, ': ', [46, 0, 0])
[46, 0, 0]
('result of model', 2, ': ', [27, 19, 0])
[27, 19, 0]
('# of model votes positive:', 0, ', # of models vote negative: ', 3)
('image name:', 'D10')
('true label:', 1)
('result of model', 0, ': ', [1, 12, 1])
[1, 12, 1]
('result of model', 1, ': ', [1, 12, 1])
[1, 12, 1]
('result of model', 2, ': ', [1, 12, 1])
[1, 12, 1]
('# of model votes positive:', 3, ', # of models vote negative: ', 0)
('image name:', 'D11')
('true label:', 1)
('result of model', 0, ': ', [3, 20, 1])
[3, 20, 1]
('result of model', 1, ': ', [5, 18, 1])
[5, 18, 1]
('result of model', 2, ': ', [4, 19, 1])
[4, 19, 1]
('# of model votes positive:', 3, ', # of models vote negative: ', 0)
('image name:', 'K15')
('true label:', 0)
('result of model', 0, ': ', [1, 45, 0])
[1, 45, 0]
('result of model', 1, ': ', [44, 2, 0])
[44, 2, 0]
('result of model', 2, ': ', [20, 26, 0])
[20, 26, 0]
('# of model votes positive:', 2, ', # of models vote negative: ', 1)
+++++++++++++++++++++++++++++++++++++++++++++++++++++++++++++++++=
Wrong!
('image name:', 'K14')
('true label:', 0)
('result of model', 0, ': ', [28, 18, 0])
[28, 18, 0]
('result of model', 1, ': ', [44, 2, 0])
[44, 2, 0]
('result of model', 2, ': ', [27, 19, 0])
[27, 19, 0]
('# of model votes positive:', 0, ', # of models vote negative: ', 3)
('image name:', 'K3')
('true label:', 0)
('result of model', 0, ': ', [21, 35, 0])
[21, 35, 0]
('result of model', 1, ': ', [45, 11, 0])
[45, 11, 0]
('result of model', 2, ': ', [20, 36, 0])
[20, 36, 0]
('# of model votes positive:', 2, ', # of models vote negative: ', 1)
+++++++++++++++++++++++++++++++++++++++++++++++++++++++++++++++++=
Wrong!
('image name:', 'K2')
('true label:', 1)
('result of model', 0, ': ', [0, 11, 1])
[0, 11, 1]
('result of model', 1, ': ', [1, 10, 1])
[1, 10, 1]
('result of model', 2, ': ', [0, 11, 1])
[0, 11, 1]
('# of model votes positive:', 3, ', # of models vote negative: ', 0)
('image name:', 'B14')
('true label:', 1)
('result of model', 0, ': ', [0, 13, 1])
[0, 13, 1]
('result of model', 1, ': ', [0, 13, 1])
[0, 13, 1]
('result of model', 2, ': ', [0, 13, 1])
[0, 13, 1]
('# of model votes positive:', 3, ', # of models vote negative: ', 0)
('image name:', 'B15')
('true label:', 1)
('result of model', 0, ': ', [13, 13, 1])
[13, 13, 1]
('result of model', 1, ': ', [4, 22, 1])
[4, 22, 1]
('result of model', 2, ': ', [1, 25, 1])
[1, 25, 1]
('# of model votes positive:', 3, ', # of models vote negative: ', 0)
('image name:', 'B12')
('true label:', 0)
('result of model', 0, ': ', [46, 13, 0])
[46, 13, 0]
('result of model', 1, ': ', [40, 19, 0])
[40, 19, 0]
('result of model', 2, ': ', [24, 35, 0])
[24, 35, 0]
('# of model votes positive:', 1, ', # of models vote negative: ', 2)
('image name:', 'B13')
('true label:', 1)
('result of model', 0, ': ', [14, 25, 1])
[14, 25, 1]
('result of model', 1, ': ', [3, 36, 1])
[3, 36, 1]
('result of model', 2, ': ', [1, 38, 1])
[1, 38, 1]
('# of model votes positive:', 3, ', # of models vote negative: ', 0)
('image name:', 'K5')
('true label:', 0)
('result of model', 0, ': ', [25, 21, 0])
[25, 21, 0]
('result of model', 1, ': ', [39, 7, 0])
[39, 7, 0]
('result of model', 2, ': ', [18, 28, 0])
[18, 28, 0]
('# of model votes positive:', 1, ', # of models vote negative: ', 2)
('image name:', 'K4')
('true label:', 0)
('result of model', 0, ': ', [43, 3, 0])
[43, 3, 0]
('result of model', 1, ': ', [43, 3, 0])
[43, 3, 0]
('result of model', 2, ': ', [27, 19, 0])
[27, 19, 0]
('# of model votes positive:', 0, ', # of models vote negative: ', 3)
('image name:', 'K9')
('true label:', 0)
('result of model', 0, ': ', [9, 37, 0])
[9, 37, 0]
('result of model', 1, ': ', [43, 3, 0])
[43, 3, 0]
('result of model', 2, ': ', [28, 18, 0])
[28, 18, 0]
('# of model votes positive:', 1, ', # of models vote negative: ', 2)
('image name:', 'K8')
('true label:', 0)
('result of model', 0, ': ', [8, 48, 0])
[8, 48, 0]
('result of model', 1, ': ', [42, 14, 0])
[42, 14, 0]
('result of model', 2, ': ', [29, 27, 0])
[29, 27, 0]
('# of model votes positive:', 1, ', # of models vote negative: ', 2)
('image name:', 'F9')
('true label:', 1)
('result of model', 0, ': ', [2, 22, 1])
[2, 22, 1]
('result of model', 1, ': ', [4, 20, 1])
[4, 20, 1]
('result of model', 2, ': ', [3, 21, 1])
[3, 21, 1]
('# of model votes positive:', 3, ', # of models vote negative: ', 0)
('image name:', 'C9')
('true label:', 1)
('result of model', 0, ': ', [0, 13, 1])
[0, 13, 1]
('result of model', 1, ': ', [2, 11, 1])
[2, 11, 1]
('result of model', 2, ': ', [0, 13, 1])
[0, 13, 1]
('# of model votes positive:', 3, ', # of models vote negative: ', 0)
('image name:', 'C8')
('true label:', 0)
('result of model', 0, ': ', [49, 10, 0])
[49, 10, 0]
('result of model', 1, ': ', [46, 13, 0])
[46, 13, 0]
('result of model', 2, ': ', [26, 33, 0])
[26, 33, 0]
('# of model votes positive:', 1, ', # of models vote negative: ', 2)
('image name:', 'J18')
('true label:', 0)
('result of model', 0, ': ', [46, 0, 0])
[46, 0, 0]
('result of model', 1, ': ', [43, 3, 0])
[43, 3, 0]
('result of model', 2, ': ', [27, 19, 0])
[27, 19, 0]
('# of model votes positive:', 0, ', # of models vote negative: ', 3)
('image name:', 'C3')
('true label:', 1)
('result of model', 0, ': ', [0, 13, 1])
[0, 13, 1]
('result of model', 1, ': ', [1, 12, 1])
[1, 12, 1]
('result of model', 2, ': ', [3, 10, 1])
[3, 10, 1]
('# of model votes positive:', 3, ', # of models vote negative: ', 0)
('image name:', 'C2')
('true label:', 1)
('result of model', 0, ': ', [6, 20, 1])
[6, 20, 1]
('result of model', 1, ': ', [2, 24, 1])
[2, 24, 1]
('result of model', 2, ': ', [4, 22, 1])
[4, 22, 1]
('# of model votes positive:', 3, ', # of models vote negative: ', 0)
('image name:', 'J14')
('true label:', 0)
('result of model', 0, ': ', [34, 23, 0])
[34, 23, 0]
('result of model', 1, ': ', [40, 17, 0])
[40, 17, 0]
('result of model', 2, ': ', [26, 31, 0])
[26, 31, 0]
('# of model votes positive:', 1, ', # of models vote negative: ', 2)
('image name:', 'J15')
('true label:', 1)
('result of model', 0, ': ', [0, 13, 1])
[0, 13, 1]
('result of model', 1, ': ', [0, 13, 1])
[0, 13, 1]
('result of model', 2, ': ', [0, 13, 1])
[0, 13, 1]
('# of model votes positive:', 3, ', # of models vote negative: ', 0)
('image name:', 'J12')
('true label:', 1)
('result of model', 0, ': ', [9, 27, 1])
[9, 27, 1]
('result of model', 1, ': ', [3, 33, 1])
[3, 33, 1]
('result of model', 2, ': ', [3, 33, 1])
[3, 33, 1]
('# of model votes positive:', 3, ', # of models vote negative: ', 0)
('image name:', 'C6')
('true label:', 1)
('result of model', 0, ': ', [2, 10, 1])
[2, 10, 1]
('result of model', 1, ': ', [1, 11, 1])
[1, 11, 1]
('result of model', 2, ': ', [1, 11, 1])
[1, 11, 1]
('# of model votes positive:', 3, ', # of models vote negative: ', 0)
('image name:', 'C5')
('true label:', 1)
('result of model', 0, ': ', [14, 12, 1])
[14, 12, 1]
('result of model', 1, ': ', [3, 23, 1])
[3, 23, 1]
('result of model', 2, ': ', [4, 22, 1])
[4, 22, 1]
('# of model votes positive:', 2, ', # of models vote negative: ', 1)
('image name:', 'C4')
('true label:', 0)
('result of model', 0, ': ', [46, 12, 0])
[46, 12, 0]
('result of model', 1, ': ', [44, 14, 0])
[44, 14, 0]
('result of model', 2, ': ', [17, 41, 0])
[17, 41, 0]
('# of model votes positive:', 1, ', # of models vote negative: ', 2)
('image name:', 'I15')
('true label:', 1)
('result of model', 0, ': ', [3, 7, 1])
[3, 7, 1]
('result of model', 1, ': ', [0, 10, 1])
[0, 10, 1]
('result of model', 2, ': ', [2, 8, 1])
[2, 8, 1]
('# of model votes positive:', 3, ', # of models vote negative: ', 0)
('image name:', 'I14')
('true label:', 1)
('result of model', 0, ': ', [0, 11, 1])
[0, 11, 1]
('result of model', 1, ': ', [4, 7, 1])
[4, 7, 1]
('result of model', 2, ': ', [0, 11, 1])
[0, 11, 1]
('# of model votes positive:', 3, ', # of models vote negative: ', 0)
('image name:', 'I17')
('true label:', 1)
('result of model', 0, ': ', [13, 0, 1])
[13, 0, 1]
('result of model', 1, ': ', [2, 11, 1])
[2, 11, 1]
('result of model', 2, ': ', [0, 13, 1])
[0, 13, 1]
('# of model votes positive:', 2, ', # of models vote negative: ', 1)
('image name:', 'I16')
('true label:', 0)
('result of model', 0, ': ', [45, 14, 0])
[45, 14, 0]
('result of model', 1, ': ', [46, 13, 0])
[46, 13, 0]
('result of model', 2, ': ', [19, 40, 0])
[19, 40, 0]
('# of model votes positive:', 1, ', # of models vote negative: ', 2)
('image name:', 'I11')
('true label:', 1)
('result of model', 0, ': ', [1, 12, 1])
[1, 12, 1]
('result of model', 1, ': ', [0, 13, 1])
[0, 13, 1]
('result of model', 2, ': ', [1, 12, 1])
[1, 12, 1]
('# of model votes positive:', 3, ', # of models vote negative: ', 0)
('image name:', 'I10')
('true label:', 0)
('result of model', 0, ': ', [46, 10, 0])
[46, 10, 0]
('result of model', 1, ': ', [44, 12, 0])
[44, 12, 0]
('result of model', 2, ': ', [20, 36, 0])
[20, 36, 0]
('# of model votes positive:', 1, ', # of models vote negative: ', 2)
('image name:', 'I13')
('true label:', 1)
('result of model', 0, ': ', [11, 12, 1])
[11, 12, 1]
('result of model', 1, ': ', [3, 20, 1])
[3, 20, 1]
('result of model', 2, ': ', [1, 22, 1])
[1, 22, 1]
('# of model votes positive:', 3, ', # of models vote negative: ', 0)
('image name:', 'I12')
('true label:', 1)
('result of model', 0, ': ', [0, 13, 1])
[0, 13, 1]
('result of model', 1, ': ', [0, 13, 1])
[0, 13, 1]
('result of model', 2, ': ', [1, 12, 1])
[1, 12, 1]
('# of model votes positive:', 3, ', # of models vote negative: ', 0)
('image name:', 'J16')
('true label:', 1)
('result of model', 0, ': ', [1, 12, 1])
[1, 12, 1]
('result of model', 1, ': ', [4, 9, 1])
[4, 9, 1]
('result of model', 2, ': ', [0, 13, 1])
[0, 13, 1]
('# of model votes positive:', 3, ', # of models vote negative: ', 0)
('image name:', 'G15')
('true label:', 1)
('result of model', 0, ': ', [2, 8, 1])
[2, 8, 1]
('result of model', 1, ': ', [1, 9, 1])
[1, 9, 1]
('result of model', 2, ': ', [0, 10, 1])
[0, 10, 1]
('# of model votes positive:', 3, ', # of models vote negative: ', 0)
('image name:', 'G14')
('true label:', 1)
('result of model', 0, ': ', [0, 11, 1])
[0, 11, 1]
('result of model', 1, ': ', [1, 10, 1])
[1, 10, 1]
('result of model', 2, ': ', [0, 11, 1])
[0, 11, 1]
('# of model votes positive:', 3, ', # of models vote negative: ', 0)
('image name:', 'G13')
('true label:', 1)
('result of model', 0, ': ', [1, 22, 1])
[1, 22, 1]
('result of model', 1, ': ', [2, 21, 1])
[2, 21, 1]
('result of model', 2, ': ', [3, 20, 1])
[3, 20, 1]
('# of model votes positive:', 3, ', # of models vote negative: ', 0)
('image name:', 'C1')
('true label:', 1)
('result of model', 0, ': ', [0, 13, 1])
[0, 13, 1]
('result of model', 1, ': ', [1, 12, 1])
[1, 12, 1]
('result of model', 2, ': ', [2, 11, 1])
[2, 11, 1]
('# of model votes positive:', 3, ', # of models vote negative: ', 0)
('image name:', 'G11')
('true label:', 1)
('result of model', 0, ': ', [1, 12, 1])
[1, 12, 1]
('result of model', 1, ': ', [0, 13, 1])
[0, 13, 1]
('result of model', 2, ': ', [0, 13, 1])
[0, 13, 1]
('# of model votes positive:', 3, ', # of models vote negative: ', 0)
('image name:', 'G10')
('true label:', 0)
('result of model', 0, ': ', [46, 11, 0])
[46, 11, 0]
('result of model', 1, ': ', [48, 9, 0])
[48, 9, 0]
('result of model', 2, ': ', [30, 27, 0])
[30, 27, 0]
('# of model votes positive:', 0, ', # of models vote negative: ', 3)
('image name:', 'F1')
('true label:', 1)
('result of model', 0, ': ', [1, 10, 1])
[1, 10, 1]
('result of model', 1, ': ', [2, 9, 1])
[2, 9, 1]
('result of model', 2, ': ', [2, 9, 1])
[2, 9, 1]
('# of model votes positive:', 3, ', # of models vote negative: ', 0)
('image name:', 'F2')
('true label:', 0)
('result of model', 0, ': ', [46, 13, 0])
[46, 13, 0]
('result of model', 1, ': ', [43, 16, 0])
[43, 16, 0]
('result of model', 2, ': ', [28, 31, 0])
[28, 31, 0]
('# of model votes positive:', 1, ', # of models vote negative: ', 2)
('image name:', 'F3')
('true label:', 1)
('result of model', 0, ': ', [13, 13, 1])
[13, 13, 1]
('result of model', 1, ': ', [2, 24, 1])
[2, 24, 1]
('result of model', 2, ': ', [4, 22, 1])
[4, 22, 1]
('# of model votes positive:', 3, ', # of models vote negative: ', 0)
('image name:', 'F4')
('true label:', 1)
('result of model', 0, ': ', [10, 14, 1])
[10, 14, 1]
('result of model', 1, ': ', [4, 20, 1])
[4, 20, 1]
('result of model', 2, ': ', [1, 23, 1])
[1, 23, 1]
('# of model votes positive:', 3, ', # of models vote negative: ', 0)
('image name:', 'F5')
('true label:', 1)
('result of model', 0, ': ', [1, 9, 1])
[1, 9, 1]
('result of model', 1, ': ', [3, 7, 1])
[3, 7, 1]
('result of model', 2, ': ', [0, 10, 1])
[0, 10, 1]
('# of model votes positive:', 3, ', # of models vote negative: ', 0)
('image name:', 'F6')
('true label:', 1)
('result of model', 0, ': ', [3, 7, 1])
[3, 7, 1]
('result of model', 1, ': ', [2, 8, 1])
[2, 8, 1]
('result of model', 2, ': ', [1, 9, 1])
[1, 9, 1]
('# of model votes positive:', 3, ', # of models vote negative: ', 0)
('image name:', 'F7')
('true label:', 1)
('result of model', 0, ': ', [0, 13, 1])
[0, 13, 1]
('result of model', 1, ': ', [0, 13, 1])
[0, 13, 1]
('result of model', 2, ': ', [0, 13, 1])
[0, 13, 1]
('# of model votes positive:', 3, ', # of models vote negative: ', 0)
('image name:', 'F8')
('true label:', 1)
('result of model', 0, ': ', [0, 13, 1])
[0, 13, 1]
('result of model', 1, ': ', [3, 10, 1])
[3, 10, 1]
('result of model', 2, ': ', [2, 11, 1])
[2, 11, 1]
('# of model votes positive:', 3, ', # of models vote negative: ', 0)
('image name:', 'C7')
('true label:', 1)
('result of model', 0, ': ', [1, 25, 1])
[1, 25, 1]
('result of model', 1, ': ', [5, 21, 1])
[5, 21, 1]
('result of model', 2, ': ', [2, 24, 1])
[2, 24, 1]
('# of model votes positive:', 3, ', # of models vote negative: ', 0)
('image name:', 'J13')
('true label:', 1)
('result of model', 0, ': ', [6, 17, 1])
[6, 17, 1]
('result of model', 1, ': ', [6, 17, 1])
[6, 17, 1]
('result of model', 2, ': ', [1, 22, 1])
[1, 22, 1]
('# of model votes positive:', 3, ', # of models vote negative: ', 0)
('image name:', 'M13')
('true label:', 0)
('result of model', 0, ': ', [6, 40, 0])
[6, 40, 0]
('result of model', 1, ': ', [42, 4, 0])
[42, 4, 0]
('result of model', 2, ': ', [26, 20, 0])
[26, 20, 0]
('# of model votes positive:', 1, ', # of models vote negative: ', 2)
('image name:', 'M12')
('true label:', 0)
('result of model', 0, ': ', [5, 41, 0])
[5, 41, 0]
('result of model', 1, ': ', [39, 7, 0])
[39, 7, 0]
('result of model', 2, ': ', [23, 23, 0])
[23, 23, 0]
('# of model votes positive:', 2, ', # of models vote negative: ', 1)
+++++++++++++++++++++++++++++++++++++++++++++++++++++++++++++++++=
Wrong!
('image name:', 'M15')
('true label:', 0)
('result of model', 0, ': ', [1, 9, 0])
[1, 9, 0]
('result of model', 1, ': ', [10, 0, 0])
[10, 0, 0]
('result of model', 2, ': ', [4, 6, 0])
[4, 6, 0]
('# of model votes positive:', 2, ', # of models vote negative: ', 1)
+++++++++++++++++++++++++++++++++++++++++++++++++++++++++++++++++=
Wrong!
('image name:', 'M14')
('true label:', 0)
('result of model', 0, ': ', [3, 43, 0])
[3, 43, 0]
('result of model', 1, ': ', [43, 3, 0])
[43, 3, 0]
('result of model', 2, ': ', [27, 19, 0])
[27, 19, 0]
('# of model votes positive:', 1, ', # of models vote negative: ', 2)
('image name:', 'J11')
('true label:', 1)
('result of model', 0, ': ', [1, 25, 1])
[1, 25, 1]
('result of model', 1, ': ', [1, 25, 1])
[1, 25, 1]
('result of model', 2, ': ', [1, 25, 1])
[1, 25, 1]
('# of model votes positive:', 3, ', # of models vote negative: ', 0)
('image name:', 'E11')
('true label:', 1)
('result of model', 0, ': ', [1, 9, 1])
[1, 9, 1]
('result of model', 1, ': ', [0, 10, 1])
[0, 10, 1]
('result of model', 2, ': ', [0, 10, 1])
[0, 10, 1]
('# of model votes positive:', 3, ', # of models vote negative: ', 0)
('image name:', 'E10')
('true label:', 1)
('result of model', 0, ': ', [3, 21, 1])
[3, 21, 1]
('result of model', 1, ': ', [2, 22, 1])
[2, 22, 1]
('result of model', 2, ': ', [2, 22, 1])
[2, 22, 1]
('# of model votes positive:', 3, ', # of models vote negative: ', 0)
('image name:', 'E13')
('true label:', 1)
('result of model', 0, ': ', [18, 8, 1])
[18, 8, 1]
('result of model', 1, ': ', [3, 23, 1])
[3, 23, 1]
('result of model', 2, ': ', [1, 25, 1])
[1, 25, 1]
('# of model votes positive:', 2, ', # of models vote negative: ', 1)
('image name:', 'E12')
('true label:', 1)
('result of model', 0, ': ', [5, 5, 1])
[5, 5, 1]
('result of model', 1, ': ', [1, 9, 1])
[1, 9, 1]
('result of model', 2, ': ', [0, 10, 1])
[0, 10, 1]
('# of model votes positive:', 3, ', # of models vote negative: ', 0)
('image name:', 'E15')
('true label:', 1)
('result of model', 0, ': ', [11, 26, 1])
[11, 26, 1]
('result of model', 1, ': ', [5, 32, 1])
[5, 32, 1]
('result of model', 2, ': ', [3, 34, 1])
[3, 34, 1]
('# of model votes positive:', 3, ', # of models vote negative: ', 0)
('image name:', 'E14')
('true label:', 0)
('result of model', 0, ': ', [14, 45, 0])
[14, 45, 0]
('result of model', 1, ': ', [43, 16, 0])
[43, 16, 0]
('result of model', 2, ': ', [27, 32, 0])
[27, 32, 0]
('# of model votes positive:', 2, ', # of models vote negative: ', 1)
+++++++++++++++++++++++++++++++++++++++++++++++++++++++++++++++++=
Wrong!
('image name:', 'E16')
('true label:', 1)
('result of model', 0, ': ', [0, 10, 1])
[0, 10, 1]
('result of model', 1, ': ', [0, 10, 1])
[0, 10, 1]
('result of model', 2, ': ', [2, 8, 1])
[2, 8, 1]
('# of model votes positive:', 3, ', # of models vote negative: ', 0)
('image name:', 'C18')
('true label:', 0)
('result of model', 0, ': ', [29, 17, 0])
[29, 17, 0]
('result of model', 1, ': ', [43, 3, 0])
[43, 3, 0]
('result of model', 2, ': ', [26, 20, 0])
[26, 20, 0]
('# of model votes positive:', 0, ', # of models vote negative: ', 3)
('image name:', 'C13')
('true label:', 1)
('result of model', 0, ': ', [14, 12, 1])
[14, 12, 1]
('result of model', 1, ': ', [5, 21, 1])
[5, 21, 1]
('result of model', 2, ': ', [3, 23, 1])
[3, 23, 1]
('# of model votes positive:', 2, ', # of models vote negative: ', 1)
('image name:', 'C12')
('true label:', 1)
('result of model', 0, ': ', [0, 26, 1])
[0, 26, 1]
('result of model', 1, ': ', [2, 24, 1])
[2, 24, 1]
('result of model', 2, ': ', [1, 25, 1])
[1, 25, 1]
('# of model votes positive:', 3, ', # of models vote negative: ', 0)
('image name:', 'C11')
('true label:', 1)
('result of model', 0, ': ', [6, 7, 1])
[6, 7, 1]
('result of model', 1, ': ', [0, 13, 1])
[0, 13, 1]
('result of model', 2, ': ', [1, 12, 1])
[1, 12, 1]
('# of model votes positive:', 3, ', # of models vote negative: ', 0)
('image name:', 'C10')
('true label:', 0)
('result of model', 0, ': ', [46, 13, 0])
[46, 13, 0]
('result of model', 1, ': ', [43, 16, 0])
[43, 16, 0]
('result of model', 2, ': ', [26, 33, 0])
[26, 33, 0]
('# of model votes positive:', 1, ', # of models vote negative: ', 2)
('image name:', 'C17')
('true label:', 1)
('result of model', 0, ': ', [4, 8, 1])
[4, 8, 1]
('result of model', 1, ': ', [1, 11, 1])
[1, 11, 1]
('result of model', 2, ': ', [0, 12, 1])
[0, 12, 1]
('# of model votes positive:', 3, ', # of models vote negative: ', 0)
('image name:', 'C16')
('true label:', 1)
('result of model', 0, ': ', [0, 12, 1])
[0, 12, 1]
('result of model', 1, ': ', [0, 12, 1])
[0, 12, 1]
('result of model', 2, ': ', [1, 11, 1])
[1, 11, 1]
('# of model votes positive:', 3, ', # of models vote negative: ', 0)
('image name:', 'C15')
('true label:', 1)
('result of model', 0, ': ', [7, 19, 1])
[7, 19, 1]
('result of model', 1, ': ', [2, 24, 1])
[2, 24, 1]
('result of model', 2, ': ', [1, 25, 1])
[1, 25, 1]
('# of model votes positive:', 3, ', # of models vote negative: ', 0)
('image name:', 'C14')
('true label:', 1)
('result of model', 0, ': ', [10, 3, 1])
[10, 3, 1]
('result of model', 1, ': ', [0, 13, 1])
[0, 13, 1]
('result of model', 2, ': ', [2, 11, 1])
[2, 11, 1]
('# of model votes positive:', 2, ', # of models vote negative: ', 1)
('image name:', 'I9')
('true label:', 1)
('result of model', 0, ': ', [0, 11, 1])
[0, 11, 1]
('result of model', 1, ': ', [0, 11, 1])
[0, 11, 1]
('result of model', 2, ': ', [1, 10, 1])
[1, 10, 1]
('# of model votes positive:', 3, ', # of models vote negative: ', 0)
('image name:', 'I8')
('true label:', 0)
('result of model', 0, ': ', [51, 18, 0])
[51, 18, 0]
('result of model', 1, ': ', [42, 27, 0])
[42, 27, 0]
('result of model', 2, ': ', [29, 40, 0])
[29, 40, 0]
('# of model votes positive:', 1, ', # of models vote negative: ', 2)
('image name:', 'D12')
('true label:', 1)
('result of model', 0, ': ', [0, 11, 1])
[0, 11, 1]
('result of model', 1, ': ', [1, 10, 1])
[1, 10, 1]
('result of model', 2, ': ', [1, 10, 1])
[1, 10, 1]
('# of model votes positive:', 3, ', # of models vote negative: ', 0)
('image name:', 'A16')
('true label:', 1)
('result of model', 0, ': ', [0, 13, 1])
[0, 13, 1]
('result of model', 1, ': ', [1, 12, 1])
[1, 12, 1]
('result of model', 2, ': ', [0, 13, 1])
[0, 13, 1]
('# of model votes positive:', 3, ', # of models vote negative: ', 0)
('image name:', 'A11')
('true label:', 1)
('result of model', 0, ': ', [0, 13, 1])
[0, 13, 1]
('result of model', 1, ': ', [2, 11, 1])
[2, 11, 1]
('result of model', 2, ': ', [0, 13, 1])
[0, 13, 1]
('# of model votes positive:', 3, ', # of models vote negative: ', 0)
('image name:', 'A10')
('true label:', 0)
('result of model', 0, ': ', [7, 52, 0])
[7, 52, 0]
('result of model', 1, ': ', [47, 12, 0])
[47, 12, 0]
('result of model', 2, ': ', [27, 32, 0])
[27, 32, 0]
('# of model votes positive:', 2, ', # of models vote negative: ', 1)
+++++++++++++++++++++++++++++++++++++++++++++++++++++++++++++++++=
Wrong!
('image name:', 'A13')
('true label:', 1)
('result of model', 0, ': ', [2, 11, 1])
[2, 11, 1]
('result of model', 1, ': ', [1, 12, 1])
[1, 12, 1]
('result of model', 2, ': ', [0, 13, 1])
[0, 13, 1]
('# of model votes positive:', 3, ', # of models vote negative: ', 0)
('image name:', 'A12')
('true label:', 1)
('result of model', 0, ': ', [1, 12, 1])
[1, 12, 1]
('result of model', 1, ': ', [0, 13, 1])
[0, 13, 1]
('result of model', 2, ': ', [0, 13, 1])
[0, 13, 1]
('# of model votes positive:', 3, ', # of models vote negative: ', 0)
('image name:', 'I1')
('true label:', 1)
('result of model', 0, ': ', [2, 11, 1])
[2, 11, 1]
('result of model', 1, ': ', [0, 13, 1])
[0, 13, 1]
('result of model', 2, ': ', [2, 11, 1])
[2, 11, 1]
('# of model votes positive:', 3, ', # of models vote negative: ', 0)
('image name:', 'I3')
('true label:', 1)
('result of model', 0, ': ', [0, 23, 1])
[0, 23, 1]
('result of model', 1, ': ', [2, 21, 1])
[2, 21, 1]
('result of model', 2, ': ', [2, 21, 1])
[2, 21, 1]
('# of model votes positive:', 3, ', # of models vote negative: ', 0)
('image name:', 'I2')
('true label:', 0)
('result of model', 0, ': ', [47, 12, 0])
[47, 12, 0]
('result of model', 1, ': ', [42, 17, 0])
[42, 17, 0]
('result of model', 2, ': ', [26, 33, 0])
[26, 33, 0]
('# of model votes positive:', 1, ', # of models vote negative: ', 2)
('image name:', 'I5')
('true label:', 1)
('result of model', 0, ': ', [12, 12, 1])
[12, 12, 1]
('result of model', 1, ': ', [4, 20, 1])
[4, 20, 1]
('result of model', 2, ': ', [4, 20, 1])
[4, 20, 1]
('# of model votes positive:', 3, ', # of models vote negative: ', 0)
('image name:', 'I4')
('true label:', 1)
('result of model', 0, ': ', [1, 9, 1])
[1, 9, 1]
('result of model', 1, ': ', [2, 8, 1])
[2, 8, 1]
('result of model', 2, ': ', [1, 9, 1])
[1, 9, 1]
('# of model votes positive:', 3, ', # of models vote negative: ', 0)
('image name:', 'I7')
('true label:', 1)
('result of model', 0, ': ', [8, 5, 1])
[8, 5, 1]
('result of model', 1, ': ', [1, 12, 1])
[1, 12, 1]
('result of model', 2, ': ', [3, 10, 1])
[3, 10, 1]
('# of model votes positive:', 2, ', # of models vote negative: ', 1)
('image name:', 'I6')
('true label:', 0)
('result of model', 0, ': ', [47, 12, 0])
[47, 12, 0]
('result of model', 1, ': ', [47, 12, 0])
[47, 12, 0]
('result of model', 2, ': ', [29, 30, 0])
[29, 30, 0]
('# of model votes positive:', 1, ', # of models vote negative: ', 2)
('image name:', 'A1')
('true label:', 1)
('result of model', 0, ': ', [0, 13, 1])
[0, 13, 1]
('result of model', 1, ': ', [1, 12, 1])
[1, 12, 1]
('result of model', 2, ': ', [0, 13, 1])
[0, 13, 1]
('# of model votes positive:', 3, ', # of models vote negative: ', 0)
('image name:', 'A3')
('true label:', 1)
('result of model', 0, ': ', [13, 13, 1])
[13, 13, 1]
('result of model', 1, ': ', [3, 23, 1])
[3, 23, 1]
('result of model', 2, ': ', [2, 24, 1])
[2, 24, 1]
('# of model votes positive:', 3, ', # of models vote negative: ', 0)
('image name:', 'A2')
('true label:', 1)
('result of model', 0, ': ', [0, 13, 1])
[0, 13, 1]
('result of model', 1, ': ', [2, 11, 1])
[2, 11, 1]
('result of model', 2, ': ', [1, 12, 1])
[1, 12, 1]
('# of model votes positive:', 3, ', # of models vote negative: ', 0)
('image name:', 'A5')
('true label:', 1)
('result of model', 0, ': ', [9, 17, 1])
[9, 17, 1]
('result of model', 1, ': ', [2, 24, 1])
[2, 24, 1]
('result of model', 2, ': ', [2, 24, 1])
[2, 24, 1]
('# of model votes positive:', 3, ', # of models vote negative: ', 0)
('image name:', 'A4')
('true label:', 1)
('result of model', 0, ': ', [0, 26, 1])
[0, 26, 1]
('result of model', 1, ': ', [2, 24, 1])
[2, 24, 1]
('result of model', 2, ': ', [2, 24, 1])
[2, 24, 1]
('# of model votes positive:', 3, ', # of models vote negative: ', 0)
('image name:', 'A7')
('true label:', 1)
('result of model', 0, ': ', [12, 14, 1])
[12, 14, 1]
('result of model', 1, ': ', [5, 21, 1])
[5, 21, 1]
('result of model', 2, ': ', [3, 23, 1])
[3, 23, 1]
('# of model votes positive:', 3, ', # of models vote negative: ', 0)
('image name:', 'A6')
('true label:', 0)
('result of model', 0, ': ', [42, 17, 0])
[42, 17, 0]
('result of model', 1, ': ', [44, 15, 0])
[44, 15, 0]
('result of model', 2, ': ', [23, 36, 0])
[23, 36, 0]
('# of model votes positive:', 1, ', # of models vote negative: ', 2)
('image name:', 'A9')
('true label:', 1)
('result of model', 0, ': ', [2, 24, 1])
[2, 24, 1]
('result of model', 1, ': ', [1, 25, 1])
[1, 25, 1]
('result of model', 2, ': ', [1, 25, 1])
[1, 25, 1]
('# of model votes positive:', 3, ', # of models vote negative: ', 0)
('image name:', 'A8')
('true label:', 0)
('result of model', 0, ': ', [45, 14, 0])
[45, 14, 0]
('result of model', 1, ': ', [42, 17, 0])
[42, 17, 0]
('result of model', 2, ': ', [25, 34, 0])
[25, 34, 0]
('# of model votes positive:', 1, ', # of models vote negative: ', 2)
('image name:', 'A15')
('true label:', 1)
('result of model', 0, ': ', [0, 13, 1])
[0, 13, 1]
('result of model', 1, ': ', [1, 12, 1])
[1, 12, 1]
('result of model', 2, ': ', [1, 12, 1])
[1, 12, 1]
('# of model votes positive:', 3, ', # of models vote negative: ', 0)
('image name:', 'A14')
('true label:', 1)
('result of model', 0, ': ', [4, 22, 1])
[4, 22, 1]
('result of model', 1, ': ', [4, 22, 1])
[4, 22, 1]
('result of model', 2, ': ', [0, 26, 1])
[0, 26, 1]
('# of model votes positive:', 3, ', # of models vote negative: ', 0)
('image name:', 'L6')
('true label:', 1)
('result of model', 0, ': ', [0, 10, 1])
[0, 10, 1]
('result of model', 1, ': ', [0, 10, 1])
[0, 10, 1]
('result of model', 2, ': ', [0, 10, 1])
[0, 10, 1]
('# of model votes positive:', 3, ', # of models vote negative: ', 0)
('image name:', 'L7')
('true label:', 0)
('result of model', 0, ': ', [42, 15, 0])
[42, 15, 0]
('result of model', 1, ': ', [47, 10, 0])
[47, 10, 0]
('result of model', 2, ': ', [22, 35, 0])
[22, 35, 0]
('# of model votes positive:', 1, ', # of models vote negative: ', 2)
('image name:', 'L4')
('true label:', 0)
('result of model', 0, ': ', [35, 11, 0])
[35, 11, 0]
('result of model', 1, ': ', [41, 5, 0])
[41, 5, 0]
('result of model', 2, ': ', [25, 21, 0])
[25, 21, 0]
('# of model votes positive:', 0, ', # of models vote negative: ', 3)
('image name:', 'L5')
('true label:', 1)
('result of model', 0, ': ', [0, 10, 1])
[0, 10, 1]
('result of model', 1, ': ', [1, 9, 1])
[1, 9, 1]
('result of model', 2, ': ', [1, 9, 1])
[1, 9, 1]
('# of model votes positive:', 3, ', # of models vote negative: ', 0)
('image name:', 'L2')
('true label:', 0)
('result of model', 0, ': ', [6, 51, 0])
[6, 51, 0]
('result of model', 1, ': ', [45, 12, 0])
[45, 12, 0]
('result of model', 2, ': ', [25, 32, 0])
[25, 32, 0]
('# of model votes positive:', 2, ', # of models vote negative: ', 1)
+++++++++++++++++++++++++++++++++++++++++++++++++++++++++++++++++=
Wrong!
('image name:', 'L3')
('true label:', 0)
('result of model', 0, ': ', [34, 12, 0])
[34, 12, 0]
('result of model', 1, ': ', [44, 2, 0])
[44, 2, 0]
('result of model', 2, ': ', [25, 21, 0])
[25, 21, 0]
('# of model votes positive:', 0, ', # of models vote negative: ', 3)
('image name:', 'L1')
('true label:', 1)
('result of model', 0, ': ', [0, 10, 1])
[0, 10, 1]
('result of model', 1, ': ', [2, 8, 1])
[2, 8, 1]
('result of model', 2, ': ', [0, 10, 1])
[0, 10, 1]
('# of model votes positive:', 3, ', # of models vote negative: ', 0)
('image name:', 'D4')
('true label:', 1)
('result of model', 0, ': ', [0, 13, 1])
[0, 13, 1]
('result of model', 1, ': ', [4, 9, 1])
[4, 9, 1]
('result of model', 2, ': ', [1, 12, 1])
[1, 12, 1]
('# of model votes positive:', 3, ', # of models vote negative: ', 0)
('image name:', 'L8')
('true label:', 0)
('result of model', 0, ': ', [36, 10, 0])
[36, 10, 0]
('result of model', 1, ': ', [42, 4, 0])
[42, 4, 0]
('result of model', 2, ': ', [22, 24, 0])
[22, 24, 0]
('# of model votes positive:', 1, ', # of models vote negative: ', 2)
('image name:', 'L9')
('true label:', 0)
('result of model', 0, ': ', [5, 41, 0])
[5, 41, 0]
('result of model', 1, ': ', [42, 4, 0])
[42, 4, 0]
('result of model', 2, ': ', [23, 23, 0])
[23, 23, 0]
('# of model votes positive:', 2, ', # of models vote negative: ', 1)
+++++++++++++++++++++++++++++++++++++++++++++++++++++++++++++++++=
Wrong!
('image name:', 'D8')
('true label:', 1)
('result of model', 0, ': ', [0, 11, 1])
[0, 11, 1]
('result of model', 1, ': ', [0, 11, 1])
[0, 11, 1]
('result of model', 2, ': ', [1, 10, 1])
[1, 10, 1]
('# of model votes positive:', 3, ', # of models vote negative: ', 0)
('image name:', 'D9')
('true label:', 1)
('result of model', 0, ': ', [3, 10, 1])
[3, 10, 1]
('result of model', 1, ': ', [1, 12, 1])
[1, 12, 1]
('result of model', 2, ': ', [4, 9, 1])
[4, 9, 1]
('# of model votes positive:', 3, ', # of models vote negative: ', 0)
('image name:', 'D6')
('true label:', 0)
('result of model', 0, ': ', [48, 22, 0])
[48, 22, 0]
('result of model', 1, ': ', [44, 26, 0])
[44, 26, 0]
('result of model', 2, ': ', [23, 47, 0])
[23, 47, 0]
('# of model votes positive:', 1, ', # of models vote negative: ', 2)
('image name:', 'D7')
('true label:', 1)
('result of model', 0, ': ', [10, 13, 1])
[10, 13, 1]
('result of model', 1, ': ', [0, 23, 1])
[0, 23, 1]
('result of model', 2, ': ', [1, 22, 1])
[1, 22, 1]
('# of model votes positive:', 3, ', # of models vote negative: ', 0)
('image name:', 'K1')
('true label:', 1)
('result of model', 0, ': ', [1, 9, 1])
[1, 9, 1]
('result of model', 1, ': ', [1, 9, 1])
[1, 9, 1]
('result of model', 2, ': ', [0, 10, 1])
[0, 10, 1]
('# of model votes positive:', 3, ', # of models vote negative: ', 0)
('image name:', 'D5')
('true label:', 1)
('result of model', 0, ': ', [11, 15, 1])
[11, 15, 1]
('result of model', 1, ': ', [5, 21, 1])
[5, 21, 1]
('result of model', 2, ': ', [8, 18, 1])
[8, 18, 1]
('# of model votes positive:', 3, ', # of models vote negative: ', 0)
('image name:', 'D2')
('true label:', 0)
('result of model', 0, ': ', [47, 12, 0])
[47, 12, 0]
('result of model', 1, ': ', [46, 13, 0])
[46, 13, 0]
('result of model', 2, ': ', [29, 30, 0])
[29, 30, 0]
('# of model votes positive:', 1, ', # of models vote negative: ', 2)
('image name:', 'D3')
('true label:', 1)
('result of model', 0, ': ', [0, 13, 1])
[0, 13, 1]
('result of model', 1, ': ', [0, 13, 1])
[0, 13, 1]
('result of model', 2, ': ', [1, 12, 1])
[1, 12, 1]
('# of model votes positive:', 3, ', # of models vote negative: ', 0)
('image name:', 'D1')
('true label:', 1)
('result of model', 0, ': ', [0, 26, 1])
[0, 26, 1]
('result of model', 1, ': ', [3, 23, 1])
[3, 23, 1]
('result of model', 2, ': ', [1, 25, 1])
[1, 25, 1]
('# of model votes positive:', 3, ', # of models vote negative: ', 0)
Average Patch-wide accuracy is: 0.798222222222
Average Image-wide accuracy given by majority vote is: 0.868637110016
('correct_bagging:', 191)
Bagging accuracy given by input models is: 0.940886699507
