Bagging result of the following models:
['bangqi_results/bangqi_6_9_1_44pm_1/', 'results/8_18_resnet18_l2=1e-5/', 'results/10_5_resnet50/']

probabilities for 2 classes are:
('image name:', 'BV2')
('true label:', 1)
('result of model', 0, ': ', [86, 14, 1])
[86, 14, 1]
('result of model', 1, ': ', [37, 63, 1])
[37, 63, 1]
('result of model', 2, ': ', [12, 88, 1])
[12, 88, 1]
('# of model votes positive:', 2, ', # of models vote negative: ', 1)
('image name:', 'BV1')
('true label:', 1)
('result of model', 0, ': ', [100, 0, 1])
[100, 0, 1]
('result of model', 1, ': ', [37, 63, 1])
[37, 63, 1]
('result of model', 2, ': ', [9, 91, 1])
[9, 91, 1]
('# of model votes positive:', 2, ', # of models vote negative: ', 1)
('image name:', 'J4')
('true label:', 1)
('result of model', 0, ': ', [98, 2, 1])
[98, 2, 1]
('result of model', 1, ': ', [36, 64, 1])
[36, 64, 1]
('result of model', 2, ': ', [6, 94, 1])
[6, 94, 1]
('# of model votes positive:', 2, ', # of models vote negative: ', 1)
('image name:', 'BK2')
('true label:', 1)
('result of model', 0, ': ', [95, 5, 1])
[95, 5, 1]
('result of model', 1, ': ', [43, 57, 1])
[43, 57, 1]
('result of model', 2, ': ', [7, 93, 1])
[7, 93, 1]
('# of model votes positive:', 2, ', # of models vote negative: ', 1)
('image name:', 'AX3')
('true label:', 1)
('result of model', 0, ': ', [99, 1, 1])
[99, 1, 1]
('result of model', 1, ': ', [34, 66, 1])
[34, 66, 1]
('result of model', 2, ': ', [9, 91, 1])
[9, 91, 1]
('# of model votes positive:', 2, ', # of models vote negative: ', 1)
('image name:', 'D3')
('true label:', 1)
('result of model', 0, ': ', [100, 0, 1])
[100, 0, 1]
('result of model', 1, ': ', [34, 66, 1])
[34, 66, 1]
('result of model', 2, ': ', [4, 96, 1])
[4, 96, 1]
('# of model votes positive:', 2, ', # of models vote negative: ', 1)
('image name:', 'AP6')
('true label:', 0)
('result of model', 0, ': ', [100, 0, 0])
[100, 0, 0]
('result of model', 1, ': ', [50, 50, 0])
[50, 50, 0]
('result of model', 2, ': ', [10, 90, 0])
[10, 90, 0]
('# of model votes positive:', 2, ', # of models vote negative: ', 1)
+++++++++++++++++++++++++++++++++++++++++++++++++++++++++++++++++=
Wrong!
('image name:', 'AZ4')
('true label:', 1)
('result of model', 0, ': ', [97, 3, 1])
[97, 3, 1]
('result of model', 1, ': ', [39, 61, 1])
[39, 61, 1]
('result of model', 2, ': ', [7, 93, 1])
[7, 93, 1]
('# of model votes positive:', 2, ', # of models vote negative: ', 1)
('image name:', 'AP4')
('true label:', 1)
('result of model', 0, ': ', [96, 4, 1])
[96, 4, 1]
('result of model', 1, ': ', [37, 63, 1])
[37, 63, 1]
('result of model', 2, ': ', [10, 90, 1])
[10, 90, 1]
('# of model votes positive:', 2, ', # of models vote negative: ', 1)
('image name:', 'I4')
('true label:', 1)
('result of model', 0, ': ', [99, 1, 1])
[99, 1, 1]
('result of model', 1, ': ', [36, 64, 1])
[36, 64, 1]
('result of model', 2, ': ', [10, 90, 1])
[10, 90, 1]
('# of model votes positive:', 2, ', # of models vote negative: ', 1)
('image name:', 'BM2')
('true label:', 1)
('result of model', 0, ': ', [97, 3, 1])
[97, 3, 1]
('result of model', 1, ': ', [46, 54, 1])
[46, 54, 1]
('result of model', 2, ': ', [11, 89, 1])
[11, 89, 1]
('# of model votes positive:', 2, ', # of models vote negative: ', 1)
('image name:', 'BG3')
('true label:', 1)
('result of model', 0, ': ', [65, 35, 1])
[65, 35, 1]
('result of model', 1, ': ', [42, 58, 1])
[42, 58, 1]
('result of model', 2, ': ', [8, 92, 1])
[8, 92, 1]
('# of model votes positive:', 2, ', # of models vote negative: ', 1)
('image name:', 'O4')
('true label:', 1)
('result of model', 0, ': ', [100, 0, 1])
[100, 0, 1]
('result of model', 1, ': ', [41, 59, 1])
[41, 59, 1]
('result of model', 2, ': ', [10, 90, 1])
[10, 90, 1]
('# of model votes positive:', 2, ', # of models vote negative: ', 1)
('image name:', 'CF4')
('true label:', 1)
('result of model', 0, ': ', [94, 6, 1])
[94, 6, 1]
('result of model', 1, ': ', [28, 72, 1])
[28, 72, 1]
('result of model', 2, ': ', [7, 93, 1])
[7, 93, 1]
('# of model votes positive:', 2, ', # of models vote negative: ', 1)
('image name:', 'G5')
('true label:', 0)
('result of model', 0, ': ', [86, 14, 0])
[86, 14, 0]
('result of model', 1, ': ', [38, 62, 0])
[38, 62, 0]
('result of model', 2, ': ', [11, 89, 0])
[11, 89, 0]
('# of model votes positive:', 2, ', # of models vote negative: ', 1)
+++++++++++++++++++++++++++++++++++++++++++++++++++++++++++++++++=
Wrong!
('image name:', 'BN8')
('true label:', 0)
('result of model', 0, ': ', [64, 36, 0])
[64, 36, 0]
('result of model', 1, ': ', [45, 55, 0])
[45, 55, 0]
('result of model', 2, ': ', [15, 85, 0])
[15, 85, 0]
('# of model votes positive:', 2, ', # of models vote negative: ', 1)
+++++++++++++++++++++++++++++++++++++++++++++++++++++++++++++++++=
Wrong!
('image name:', 'G2')
('true label:', 1)
('result of model', 0, ': ', [94, 6, 1])
[94, 6, 1]
('result of model', 1, ': ', [32, 68, 1])
[32, 68, 1]
('result of model', 2, ': ', [6, 94, 1])
[6, 94, 1]
('# of model votes positive:', 2, ', # of models vote negative: ', 1)
('image name:', 'G1')
('true label:', 1)
('result of model', 0, ': ', [100, 0, 1])
[100, 0, 1]
('result of model', 1, ': ', [28, 72, 1])
[28, 72, 1]
('result of model', 2, ': ', [6, 94, 1])
[6, 94, 1]
('# of model votes positive:', 2, ', # of models vote negative: ', 1)
('image name:', 'BN2')
('true label:', 1)
('result of model', 0, ': ', [73, 27, 1])
[73, 27, 1]
('result of model', 1, ': ', [29, 71, 1])
[29, 71, 1]
('result of model', 2, ': ', [10, 90, 1])
[10, 90, 1]
('# of model votes positive:', 2, ', # of models vote negative: ', 1)
('image name:', 'BN1')
('true label:', 1)
('result of model', 0, ': ', [19, 81, 1])
[19, 81, 1]
('result of model', 1, ': ', [38, 62, 1])
[38, 62, 1]
('result of model', 2, ': ', [11, 89, 1])
[11, 89, 1]
('# of model votes positive:', 3, ', # of models vote negative: ', 0)
('image name:', 'BN5')
('true label:', 0)
('result of model', 0, ': ', [90, 10, 0])
[90, 10, 0]
('result of model', 1, ': ', [36, 64, 0])
[36, 64, 0]
('result of model', 2, ': ', [11, 89, 0])
[11, 89, 0]
('# of model votes positive:', 2, ', # of models vote negative: ', 1)
+++++++++++++++++++++++++++++++++++++++++++++++++++++++++++++++++=
Wrong!
('image name:', 'BN4')
('true label:', 1)
('result of model', 0, ': ', [23, 77, 1])
[23, 77, 1]
('result of model', 1, ': ', [38, 62, 1])
[38, 62, 1]
('result of model', 2, ': ', [7, 93, 1])
[7, 93, 1]
('# of model votes positive:', 3, ', # of models vote negative: ', 0)
('image name:', 'BF3')
('true label:', 1)
('result of model', 0, ': ', [100, 0, 1])
[100, 0, 1]
('result of model', 1, ': ', [30, 70, 1])
[30, 70, 1]
('result of model', 2, ': ', [15, 85, 1])
[15, 85, 1]
('# of model votes positive:', 2, ', # of models vote negative: ', 1)
('image name:', 'BF2')
('true label:', 1)
('result of model', 0, ': ', [100, 0, 1])
[100, 0, 1]
('result of model', 1, ': ', [37, 63, 1])
[37, 63, 1]
('result of model', 2, ': ', [6, 94, 1])
[6, 94, 1]
('# of model votes positive:', 2, ', # of models vote negative: ', 1)
('image name:', 'BQ4')
('true label:', 1)
('result of model', 0, ': ', [98, 2, 1])
[98, 2, 1]
('result of model', 1, ': ', [22, 78, 1])
[22, 78, 1]
('result of model', 2, ': ', [6, 94, 1])
[6, 94, 1]
('# of model votes positive:', 2, ', # of models vote negative: ', 1)
('image name:', 'BQ5')
('true label:', 0)
('result of model', 0, ': ', [97, 3, 0])
[97, 3, 0]
('result of model', 1, ': ', [33, 67, 0])
[33, 67, 0]
('result of model', 2, ': ', [12, 88, 0])
[12, 88, 0]
('# of model votes positive:', 2, ', # of models vote negative: ', 1)
+++++++++++++++++++++++++++++++++++++++++++++++++++++++++++++++++=
Wrong!
('image name:', 'BQ2')
('true label:', 1)
('result of model', 0, ': ', [94, 6, 1])
[94, 6, 1]
('result of model', 1, ': ', [32, 68, 1])
[32, 68, 1]
('result of model', 2, ': ', [13, 87, 1])
[13, 87, 1]
('# of model votes positive:', 2, ', # of models vote negative: ', 1)
('image name:', 'BQ3')
('true label:', 1)
('result of model', 0, ': ', [96, 4, 1])
[96, 4, 1]
('result of model', 1, ': ', [28, 72, 1])
[28, 72, 1]
('result of model', 2, ': ', [7, 93, 1])
[7, 93, 1]
('# of model votes positive:', 2, ', # of models vote negative: ', 1)
('image name:', 'BF5')
('true label:', 0)
('result of model', 0, ': ', [100, 0, 0])
[100, 0, 0]
('result of model', 1, ': ', [44, 56, 0])
[44, 56, 0]
('result of model', 2, ': ', [10, 90, 0])
[10, 90, 0]
('# of model votes positive:', 2, ', # of models vote negative: ', 1)
+++++++++++++++++++++++++++++++++++++++++++++++++++++++++++++++++=
Wrong!
('image name:', 'BQ1')
('true label:', 1)
('result of model', 0, ': ', [79, 21, 1])
[79, 21, 1]
('result of model', 1, ': ', [36, 64, 1])
[36, 64, 1]
('result of model', 2, ': ', [6, 94, 1])
[6, 94, 1]
('# of model votes positive:', 2, ', # of models vote negative: ', 1)
('image name:', 'AF8')
('true label:', 0)
('result of model', 0, ': ', [94, 6, 0])
[94, 6, 0]
('result of model', 1, ': ', [42, 58, 0])
[42, 58, 0]
('result of model', 2, ': ', [8, 92, 0])
[8, 92, 0]
('# of model votes positive:', 2, ', # of models vote negative: ', 1)
+++++++++++++++++++++++++++++++++++++++++++++++++++++++++++++++++=
Wrong!
('image name:', 'BF8')
('true label:', 0)
('result of model', 0, ': ', [100, 0, 0])
[100, 0, 0]
('result of model', 1, ': ', [32, 68, 0])
[32, 68, 0]
('result of model', 2, ': ', [14, 86, 0])
[14, 86, 0]
('# of model votes positive:', 2, ', # of models vote negative: ', 1)
+++++++++++++++++++++++++++++++++++++++++++++++++++++++++++++++++=
Wrong!
('image name:', 'BO3')
('true label:', 1)
('result of model', 0, ': ', [56, 44, 1])
[56, 44, 1]
('result of model', 1, ': ', [27, 73, 1])
[27, 73, 1]
('result of model', 2, ': ', [5, 95, 1])
[5, 95, 1]
('# of model votes positive:', 2, ', # of models vote negative: ', 1)
('image name:', 'BQ8')
('true label:', 0)
('result of model', 0, ': ', [55, 45, 0])
[55, 45, 0]
('result of model', 1, ': ', [43, 57, 0])
[43, 57, 0]
('result of model', 2, ': ', [9, 91, 0])
[9, 91, 0]
('# of model votes positive:', 2, ', # of models vote negative: ', 1)
+++++++++++++++++++++++++++++++++++++++++++++++++++++++++++++++++=
Wrong!
('image name:', 'A4')
('true label:', 1)
('result of model', 0, ': ', [100, 0, 1])
[100, 0, 1]
('result of model', 1, ': ', [32, 68, 1])
[32, 68, 1]
('result of model', 2, ': ', [9, 91, 1])
[9, 91, 1]
('# of model votes positive:', 2, ', # of models vote negative: ', 1)
('image name:', 'AZ3')
('true label:', 1)
('result of model', 0, ': ', [95, 5, 1])
[95, 5, 1]
('result of model', 1, ': ', [40, 60, 1])
[40, 60, 1]
('result of model', 2, ': ', [13, 87, 1])
[13, 87, 1]
('# of model votes positive:', 2, ', # of models vote negative: ', 1)
('image name:', 'BW1')
('true label:', 1)
('result of model', 0, ': ', [97, 3, 1])
[97, 3, 1]
('result of model', 1, ': ', [30, 70, 1])
[30, 70, 1]
('result of model', 2, ': ', [11, 89, 1])
[11, 89, 1]
('# of model votes positive:', 2, ', # of models vote negative: ', 1)
('image name:', 'BW3')
('true label:', 1)
('result of model', 0, ': ', [89, 11, 1])
[89, 11, 1]
('result of model', 1, ': ', [41, 59, 1])
[41, 59, 1]
('result of model', 2, ': ', [11, 89, 1])
[11, 89, 1]
('# of model votes positive:', 2, ', # of models vote negative: ', 1)
('image name:', 'BW4')
('true label:', 1)
('result of model', 0, ': ', [93, 7, 1])
[93, 7, 1]
('result of model', 1, ': ', [27, 73, 1])
[27, 73, 1]
('result of model', 2, ': ', [7, 93, 1])
[7, 93, 1]
('# of model votes positive:', 2, ', # of models vote negative: ', 1)
('image name:', 'BW5')
('true label:', 0)
('result of model', 0, ': ', [95, 5, 0])
[95, 5, 0]
('result of model', 1, ': ', [36, 64, 0])
[36, 64, 0]
('result of model', 2, ': ', [11, 89, 0])
[11, 89, 0]
('# of model votes positive:', 2, ', # of models vote negative: ', 1)
+++++++++++++++++++++++++++++++++++++++++++++++++++++++++++++++++=
Wrong!
('image name:', 'AW8')
('true label:', 0)
('result of model', 0, ': ', [99, 1, 0])
[99, 1, 0]
('result of model', 1, ': ', [43, 57, 0])
[43, 57, 0]
('result of model', 2, ': ', [13, 87, 0])
[13, 87, 0]
('# of model votes positive:', 2, ', # of models vote negative: ', 1)
+++++++++++++++++++++++++++++++++++++++++++++++++++++++++++++++++=
Wrong!
('image name:', 'AW6')
('true label:', 0)
('result of model', 0, ': ', [100, 0, 0])
[100, 0, 0]
('result of model', 1, ': ', [28, 72, 0])
[28, 72, 0]
('result of model', 2, ': ', [16, 84, 0])
[16, 84, 0]
('# of model votes positive:', 2, ', # of models vote negative: ', 1)
+++++++++++++++++++++++++++++++++++++++++++++++++++++++++++++++++=
Wrong!
('image name:', 'AW5')
('true label:', 0)
('result of model', 0, ': ', [100, 0, 0])
[100, 0, 0]
('result of model', 1, ': ', [33, 67, 0])
[33, 67, 0]
('result of model', 2, ': ', [14, 86, 0])
[14, 86, 0]
('# of model votes positive:', 2, ', # of models vote negative: ', 1)
+++++++++++++++++++++++++++++++++++++++++++++++++++++++++++++++++=
Wrong!
('image name:', 'A6')
('true label:', 0)
('result of model', 0, ': ', [99, 1, 0])
[99, 1, 0]
('result of model', 1, ': ', [36, 64, 0])
[36, 64, 0]
('result of model', 2, ': ', [9, 91, 0])
[9, 91, 0]
('# of model votes positive:', 2, ', # of models vote negative: ', 1)
+++++++++++++++++++++++++++++++++++++++++++++++++++++++++++++++++=
Wrong!
('image name:', 'AW1')
('true label:', 1)
('result of model', 0, ': ', [81, 19, 1])
[81, 19, 1]
('result of model', 1, ': ', [36, 64, 1])
[36, 64, 1]
('result of model', 2, ': ', [8, 92, 1])
[8, 92, 1]
('# of model votes positive:', 2, ', # of models vote negative: ', 1)
('image name:', 'AO7')
('true label:', 0)
('result of model', 0, ': ', [49, 51, 0])
[49, 51, 0]
('result of model', 1, ': ', [40, 60, 0])
[40, 60, 0]
('result of model', 2, ': ', [7, 93, 0])
[7, 93, 0]
('# of model votes positive:', 3, ', # of models vote negative: ', 0)
+++++++++++++++++++++++++++++++++++++++++++++++++++++++++++++++++=
Wrong!
('image name:', 'AX1')
('true label:', 1)
('result of model', 0, ': ', [90, 10, 1])
[90, 10, 1]
('result of model', 1, ': ', [33, 67, 1])
[33, 67, 1]
('result of model', 2, ': ', [9, 91, 1])
[9, 91, 1]
('# of model votes positive:', 2, ', # of models vote negative: ', 1)
('image name:', 'E4')
('true label:', 1)
('result of model', 0, ': ', [82, 18, 1])
[82, 18, 1]
('result of model', 1, ': ', [44, 56, 1])
[44, 56, 1]
('result of model', 2, ': ', [14, 86, 1])
[14, 86, 1]
('# of model votes positive:', 2, ', # of models vote negative: ', 1)
('image name:', 'BZ3')
('true label:', 1)
('result of model', 0, ': ', [90, 10, 1])
[90, 10, 1]
('result of model', 1, ': ', [40, 60, 1])
[40, 60, 1]
('result of model', 2, ': ', [7, 93, 1])
[7, 93, 1]
('# of model votes positive:', 2, ', # of models vote negative: ', 1)
('image name:', 'BZ2')
('true label:', 1)
('result of model', 0, ': ', [95, 5, 1])
[95, 5, 1]
('result of model', 1, ': ', [37, 63, 1])
[37, 63, 1]
('result of model', 2, ': ', [9, 91, 1])
[9, 91, 1]
('# of model votes positive:', 2, ', # of models vote negative: ', 1)
('image name:', 'AX2')
('true label:', 1)
('result of model', 0, ': ', [89, 11, 1])
[89, 11, 1]
('result of model', 1, ': ', [33, 67, 1])
[33, 67, 1]
('result of model', 2, ': ', [9, 91, 1])
[9, 91, 1]
('# of model votes positive:', 2, ', # of models vote negative: ', 1)
('image name:', 'CC1')
('true label:', 1)
('result of model', 0, ': ', [98, 2, 1])
[98, 2, 1]
('result of model', 1, ': ', [38, 62, 1])
[38, 62, 1]
('result of model', 2, ': ', [8, 92, 1])
[8, 92, 1]
('# of model votes positive:', 2, ', # of models vote negative: ', 1)
('image name:', 'Z7')
('true label:', 0)
('result of model', 0, ': ', [96, 4, 0])
[96, 4, 0]
('result of model', 1, ': ', [31, 69, 0])
[31, 69, 0]
('result of model', 2, ': ', [12, 88, 0])
[12, 88, 0]
('# of model votes positive:', 2, ', # of models vote negative: ', 1)
+++++++++++++++++++++++++++++++++++++++++++++++++++++++++++++++++=
Wrong!
('image name:', 'AX4')
('true label:', 1)
('result of model', 0, ': ', [100, 0, 1])
[100, 0, 1]
('result of model', 1, ': ', [39, 61, 1])
[39, 61, 1]
('result of model', 2, ': ', [6, 94, 1])
[6, 94, 1]
('# of model votes positive:', 2, ', # of models vote negative: ', 1)
('image name:', 'CC5')
('true label:', 0)
('result of model', 0, ': ', [87, 13, 0])
[87, 13, 0]
('result of model', 1, ': ', [39, 61, 0])
[39, 61, 0]
('result of model', 2, ': ', [16, 84, 0])
[16, 84, 0]
('# of model votes positive:', 2, ', # of models vote negative: ', 1)
+++++++++++++++++++++++++++++++++++++++++++++++++++++++++++++++++=
Wrong!
('image name:', 'CC4')
('true label:', 1)
('result of model', 0, ': ', [45, 55, 1])
[45, 55, 1]
('result of model', 1, ': ', [31, 69, 1])
[31, 69, 1]
('result of model', 2, ': ', [10, 90, 1])
[10, 90, 1]
('# of model votes positive:', 3, ', # of models vote negative: ', 0)
('image name:', 'CC7')
('true label:', 0)
('result of model', 0, ': ', [95, 5, 0])
[95, 5, 0]
('result of model', 1, ': ', [49, 51, 0])
[49, 51, 0]
('result of model', 2, ': ', [8, 92, 0])
[8, 92, 0]
('# of model votes positive:', 2, ', # of models vote negative: ', 1)
+++++++++++++++++++++++++++++++++++++++++++++++++++++++++++++++++=
Wrong!
('image name:', 'CC6')
('true label:', 0)
('result of model', 0, ': ', [92, 8, 0])
[92, 8, 0]
('result of model', 1, ': ', [34, 66, 0])
[34, 66, 0]
('result of model', 2, ': ', [12, 88, 0])
[12, 88, 0]
('# of model votes positive:', 2, ', # of models vote negative: ', 1)
+++++++++++++++++++++++++++++++++++++++++++++++++++++++++++++++++=
Wrong!
('image name:', 'BO4')
('true label:', 1)
('result of model', 0, ': ', [56, 44, 1])
[56, 44, 1]
('result of model', 1, ': ', [40, 60, 1])
[40, 60, 1]
('result of model', 2, ': ', [13, 87, 1])
[13, 87, 1]
('# of model votes positive:', 2, ', # of models vote negative: ', 1)
('image name:', 'BJ5')
('true label:', 0)
('result of model', 0, ': ', [100, 0, 0])
[100, 0, 0]
('result of model', 1, ': ', [20, 80, 0])
[20, 80, 0]
('result of model', 2, ': ', [8, 92, 0])
[8, 92, 0]
('# of model votes positive:', 2, ', # of models vote negative: ', 1)
+++++++++++++++++++++++++++++++++++++++++++++++++++++++++++++++++=
Wrong!
('image name:', 'J2')
('true label:', 1)
('result of model', 0, ': ', [100, 0, 1])
[100, 0, 1]
('result of model', 1, ': ', [37, 63, 1])
[37, 63, 1]
('result of model', 2, ': ', [8, 92, 1])
[8, 92, 1]
('# of model votes positive:', 2, ', # of models vote negative: ', 1)
('image name:', 'B5')
('true label:', 0)
('result of model', 0, ': ', [87, 13, 0])
[87, 13, 0]
('result of model', 1, ': ', [38, 62, 0])
[38, 62, 0]
('result of model', 2, ': ', [12, 88, 0])
[12, 88, 0]
('# of model votes positive:', 2, ', # of models vote negative: ', 1)
+++++++++++++++++++++++++++++++++++++++++++++++++++++++++++++++++=
Wrong!
('image name:', 'BG2')
('true label:', 1)
('result of model', 0, ': ', [74, 26, 1])
[74, 26, 1]
('result of model', 1, ': ', [38, 62, 1])
[38, 62, 1]
('result of model', 2, ': ', [7, 93, 1])
[7, 93, 1]
('# of model votes positive:', 2, ', # of models vote negative: ', 1)
('image name:', 'B7')
('true label:', 0)
('result of model', 0, ': ', [100, 0, 0])
[100, 0, 0]
('result of model', 1, ': ', [40, 60, 0])
[40, 60, 0]
('result of model', 2, ': ', [13, 87, 0])
[13, 87, 0]
('# of model votes positive:', 2, ', # of models vote negative: ', 1)
+++++++++++++++++++++++++++++++++++++++++++++++++++++++++++++++++=
Wrong!
('image name:', 'BG4')
('true label:', 1)
('result of model', 0, ': ', [96, 4, 1])
[96, 4, 1]
('result of model', 1, ': ', [39, 61, 1])
[39, 61, 1]
('result of model', 2, ': ', [7, 93, 1])
[7, 93, 1]
('# of model votes positive:', 2, ', # of models vote negative: ', 1)
('image name:', 'AG8')
('true label:', 0)
('result of model', 0, ': ', [99, 1, 0])
[99, 1, 0]
('result of model', 1, ': ', [37, 63, 0])
[37, 63, 0]
('result of model', 2, ': ', [11, 89, 0])
[11, 89, 0]
('# of model votes positive:', 2, ', # of models vote negative: ', 1)
+++++++++++++++++++++++++++++++++++++++++++++++++++++++++++++++++=
Wrong!
('image name:', 'BG8')
('true label:', 0)
('result of model', 0, ': ', [100, 0, 0])
[100, 0, 0]
('result of model', 1, ': ', [44, 56, 0])
[44, 56, 0]
('result of model', 2, ': ', [7, 93, 0])
[7, 93, 0]
('# of model votes positive:', 2, ', # of models vote negative: ', 1)
+++++++++++++++++++++++++++++++++++++++++++++++++++++++++++++++++=
Wrong!
('image name:', 'AG6')
('true label:', 0)
('result of model', 0, ': ', [93, 7, 0])
[93, 7, 0]
('result of model', 1, ': ', [39, 61, 0])
[39, 61, 0]
('result of model', 2, ': ', [9, 91, 0])
[9, 91, 0]
('# of model votes positive:', 2, ', # of models vote negative: ', 1)
+++++++++++++++++++++++++++++++++++++++++++++++++++++++++++++++++=
Wrong!
('image name:', 'B8')
('true label:', 0)
('result of model', 0, ': ', [100, 0, 0])
[100, 0, 0]
('result of model', 1, ': ', [45, 55, 0])
[45, 55, 0]
('result of model', 2, ': ', [15, 85, 0])
[15, 85, 0]
('# of model votes positive:', 2, ', # of models vote negative: ', 1)
+++++++++++++++++++++++++++++++++++++++++++++++++++++++++++++++++=
Wrong!
('image name:', 'J7')
('true label:', 0)
('result of model', 0, ': ', [88, 12, 0])
[88, 12, 0]
('result of model', 1, ': ', [39, 61, 0])
[39, 61, 0]
('result of model', 2, ': ', [7, 93, 0])
[7, 93, 0]
('# of model votes positive:', 2, ', # of models vote negative: ', 1)
+++++++++++++++++++++++++++++++++++++++++++++++++++++++++++++++++=
Wrong!
('image name:', 'BT6')
('true label:', 0)
('result of model', 0, ': ', [99, 1, 0])
[99, 1, 0]
('result of model', 1, ': ', [37, 63, 0])
[37, 63, 0]
('result of model', 2, ': ', [13, 87, 0])
[13, 87, 0]
('# of model votes positive:', 2, ', # of models vote negative: ', 1)
+++++++++++++++++++++++++++++++++++++++++++++++++++++++++++++++++=
Wrong!
('image name:', 'AV8')
('true label:', 0)
('result of model', 0, ': ', [53, 47, 0])
[53, 47, 0]
('result of model', 1, ': ', [41, 59, 0])
[41, 59, 0]
('result of model', 2, ': ', [8, 92, 0])
[8, 92, 0]
('# of model votes positive:', 2, ', # of models vote negative: ', 1)
+++++++++++++++++++++++++++++++++++++++++++++++++++++++++++++++++=
Wrong!
('image name:', 'BJ1')
('true label:', 1)
('result of model', 0, ': ', [82, 18, 1])
[82, 18, 1]
('result of model', 1, ': ', [37, 63, 1])
[37, 63, 1]
('result of model', 2, ': ', [8, 92, 1])
[8, 92, 1]
('# of model votes positive:', 2, ', # of models vote negative: ', 1)
('image name:', 'BT3')
('true label:', 1)
('result of model', 0, ': ', [84, 16, 1])
[84, 16, 1]
('result of model', 1, ': ', [49, 51, 1])
[49, 51, 1]
('result of model', 2, ': ', [6, 94, 1])
[6, 94, 1]
('# of model votes positive:', 2, ', # of models vote negative: ', 1)
('image name:', 'BT2')
('true label:', 1)
('result of model', 0, ': ', [95, 5, 1])
[95, 5, 1]
('result of model', 1, ': ', [36, 64, 1])
[36, 64, 1]
('result of model', 2, ': ', [10, 90, 1])
[10, 90, 1]
('# of model votes positive:', 2, ', # of models vote negative: ', 1)
('image name:', 'BR4')
('true label:', 1)
('result of model', 0, ': ', [98, 2, 1])
[98, 2, 1]
('result of model', 1, ': ', [35, 65, 1])
[35, 65, 1]
('result of model', 2, ': ', [7, 93, 1])
[7, 93, 1]
('# of model votes positive:', 2, ', # of models vote negative: ', 1)
('image name:', 'AV5')
('true label:', 0)
('result of model', 0, ': ', [100, 0, 0])
[100, 0, 0]
('result of model', 1, ': ', [36, 64, 0])
[36, 64, 0]
('result of model', 2, ': ', [9, 91, 0])
[9, 91, 0]
('# of model votes positive:', 2, ', # of models vote negative: ', 1)
+++++++++++++++++++++++++++++++++++++++++++++++++++++++++++++++++=
Wrong!
('image name:', 'AV6')
('true label:', 0)
('result of model', 0, ': ', [95, 5, 0])
[95, 5, 0]
('result of model', 1, ': ', [38, 62, 0])
[38, 62, 0]
('result of model', 2, ': ', [9, 91, 0])
[9, 91, 0]
('# of model votes positive:', 2, ', # of models vote negative: ', 1)
+++++++++++++++++++++++++++++++++++++++++++++++++++++++++++++++++=
Wrong!
('image name:', 'AV7')
('true label:', 0)
('result of model', 0, ': ', [95, 5, 0])
[95, 5, 0]
('result of model', 1, ': ', [33, 67, 0])
[33, 67, 0]
('result of model', 2, ': ', [12, 88, 0])
[12, 88, 0]
('# of model votes positive:', 2, ', # of models vote negative: ', 1)
+++++++++++++++++++++++++++++++++++++++++++++++++++++++++++++++++=
Wrong!
('image name:', 'BT8')
('true label:', 0)
('result of model', 0, ': ', [93, 7, 0])
[93, 7, 0]
('result of model', 1, ': ', [46, 54, 0])
[46, 54, 0]
('result of model', 2, ': ', [15, 85, 0])
[15, 85, 0]
('# of model votes positive:', 2, ', # of models vote negative: ', 1)
+++++++++++++++++++++++++++++++++++++++++++++++++++++++++++++++++=
Wrong!
('image name:', 'CB2')
('true label:', 1)
('result of model', 0, ': ', [100, 0, 1])
[100, 0, 1]
('result of model', 1, ': ', [37, 63, 1])
[37, 63, 1]
('result of model', 2, ': ', [8, 92, 1])
[8, 92, 1]
('# of model votes positive:', 2, ', # of models vote negative: ', 1)
('image name:', 'BS3')
('true label:', 1)
('result of model', 0, ': ', [100, 0, 1])
[100, 0, 1]
('result of model', 1, ': ', [28, 72, 1])
[28, 72, 1]
('result of model', 2, ': ', [11, 89, 1])
[11, 89, 1]
('# of model votes positive:', 2, ', # of models vote negative: ', 1)
('image name:', 'AN7')
('true label:', 0)
('result of model', 0, ': ', [86, 14, 0])
[86, 14, 0]
('result of model', 1, ': ', [40, 60, 0])
[40, 60, 0]
('result of model', 2, ': ', [9, 91, 0])
[9, 91, 0]
('# of model votes positive:', 2, ', # of models vote negative: ', 1)
+++++++++++++++++++++++++++++++++++++++++++++++++++++++++++++++++=
Wrong!
('image name:', 'CB6')
('true label:', 0)
('result of model', 0, ': ', [99, 1, 0])
[99, 1, 0]
('result of model', 1, ': ', [35, 65, 0])
[35, 65, 0]
('result of model', 2, ': ', [13, 87, 0])
[13, 87, 0]
('# of model votes positive:', 2, ', # of models vote negative: ', 1)
+++++++++++++++++++++++++++++++++++++++++++++++++++++++++++++++++=
Wrong!
('image name:', 'AN1')
('true label:', 1)
('result of model', 0, ': ', [71, 29, 1])
[71, 29, 1]
('result of model', 1, ': ', [39, 61, 1])
[39, 61, 1]
('result of model', 2, ': ', [9, 91, 1])
[9, 91, 1]
('# of model votes positive:', 2, ', # of models vote negative: ', 1)
('image name:', 'M3')
('true label:', 1)
('result of model', 0, ': ', [100, 0, 1])
[100, 0, 1]
('result of model', 1, ': ', [41, 59, 1])
[41, 59, 1]
('result of model', 2, ': ', [8, 92, 1])
[8, 92, 1]
('# of model votes positive:', 2, ', # of models vote negative: ', 1)
('image name:', 'AN3')
('true label:', 1)
('result of model', 0, ': ', [100, 0, 1])
[100, 0, 1]
('result of model', 1, ': ', [35, 65, 1])
[35, 65, 1]
('result of model', 2, ': ', [10, 90, 1])
[10, 90, 1]
('# of model votes positive:', 2, ', # of models vote negative: ', 1)
('image name:', 'CB8')
('true label:', 0)
('result of model', 0, ': ', [66, 34, 0])
[66, 34, 0]
('result of model', 1, ': ', [34, 66, 0])
[34, 66, 0]
('result of model', 2, ': ', [15, 85, 0])
[15, 85, 0]
('# of model votes positive:', 2, ', # of models vote negative: ', 1)
+++++++++++++++++++++++++++++++++++++++++++++++++++++++++++++++++=
Wrong!
('image name:', 'AN8')
('true label:', 0)
('result of model', 0, ': ', [54, 46, 0])
[54, 46, 0]
('result of model', 1, ': ', [28, 72, 0])
[28, 72, 0]
('result of model', 2, ': ', [12, 88, 0])
[12, 88, 0]
('# of model votes positive:', 2, ', # of models vote negative: ', 1)
+++++++++++++++++++++++++++++++++++++++++++++++++++++++++++++++++=
Wrong!
('image name:', 'CE4')
('true label:', 1)
('result of model', 0, ': ', [77, 23, 1])
[77, 23, 1]
('result of model', 1, ': ', [41, 59, 1])
[41, 59, 1]
('result of model', 2, ': ', [11, 89, 1])
[11, 89, 1]
('# of model votes positive:', 2, ', # of models vote negative: ', 1)
('image name:', 'BL8')
('true label:', 0)
('result of model', 0, ': ', [59, 41, 0])
[59, 41, 0]
('result of model', 1, ': ', [44, 56, 0])
[44, 56, 0]
('result of model', 2, ': ', [11, 89, 0])
[11, 89, 0]
('# of model votes positive:', 2, ', # of models vote negative: ', 1)
+++++++++++++++++++++++++++++++++++++++++++++++++++++++++++++++++=
Wrong!
('image name:', 'BG1')
('true label:', 1)
('result of model', 0, ': ', [100, 0, 1])
[100, 0, 1]
('result of model', 1, ': ', [33, 67, 1])
[33, 67, 1]
('result of model', 2, ': ', [9, 91, 1])
[9, 91, 1]
('# of model votes positive:', 2, ', # of models vote negative: ', 1)
('image name:', 'BL5')
('true label:', 0)
('result of model', 0, ': ', [21, 79, 0])
[21, 79, 0]
('result of model', 1, ': ', [33, 67, 0])
[33, 67, 0]
('result of model', 2, ': ', [11, 89, 0])
[11, 89, 0]
('# of model votes positive:', 3, ', # of models vote negative: ', 0)
+++++++++++++++++++++++++++++++++++++++++++++++++++++++++++++++++=
Wrong!
('image name:', 'BL7')
('true label:', 0)
('result of model', 0, ': ', [83, 17, 0])
[83, 17, 0]
('result of model', 1, ': ', [37, 63, 0])
[37, 63, 0]
('result of model', 2, ': ', [10, 90, 0])
[10, 90, 0]
('# of model votes positive:', 2, ', # of models vote negative: ', 1)
+++++++++++++++++++++++++++++++++++++++++++++++++++++++++++++++++=
Wrong!
('image name:', 'BL1')
('true label:', 1)
('result of model', 0, ': ', [52, 48, 1])
[52, 48, 1]
('result of model', 1, ': ', [42, 58, 1])
[42, 58, 1]
('result of model', 2, ': ', [7, 93, 1])
[7, 93, 1]
('# of model votes positive:', 2, ', # of models vote negative: ', 1)
('image name:', 'BD5')
('true label:', 0)
('result of model', 0, ': ', [93, 7, 0])
[93, 7, 0]
('result of model', 1, ': ', [33, 67, 0])
[33, 67, 0]
('result of model', 2, ': ', [16, 84, 0])
[16, 84, 0]
('# of model votes positive:', 2, ', # of models vote negative: ', 1)
+++++++++++++++++++++++++++++++++++++++++++++++++++++++++++++++++=
Wrong!
('image name:', 'BD4')
('true label:', 1)
('result of model', 0, ': ', [96, 4, 1])
[96, 4, 1]
('result of model', 1, ': ', [31, 69, 1])
[31, 69, 1]
('result of model', 2, ': ', [7, 93, 1])
[7, 93, 1]
('# of model votes positive:', 2, ', # of models vote negative: ', 1)
('image name:', 'BD6')
('true label:', 0)
('result of model', 0, ': ', [94, 6, 0])
[94, 6, 0]
('result of model', 1, ': ', [44, 56, 0])
[44, 56, 0]
('result of model', 2, ': ', [13, 87, 0])
[13, 87, 0]
('# of model votes positive:', 2, ', # of models vote negative: ', 1)
+++++++++++++++++++++++++++++++++++++++++++++++++++++++++++++++++=
Wrong!
('image name:', 'Z8')
('true label:', 0)
('result of model', 0, ': ', [82, 18, 0])
[82, 18, 0]
('result of model', 1, ': ', [36, 64, 0])
[36, 64, 0]
('result of model', 2, ': ', [9, 91, 0])
[9, 91, 0]
('# of model votes positive:', 2, ', # of models vote negative: ', 1)
+++++++++++++++++++++++++++++++++++++++++++++++++++++++++++++++++=
Wrong!
('image name:', 'AF5')
('true label:', 0)
('result of model', 0, ': ', [100, 0, 0])
[100, 0, 0]
('result of model', 1, ': ', [35, 65, 0])
[35, 65, 0]
('result of model', 2, ': ', [15, 85, 0])
[15, 85, 0]
('# of model votes positive:', 2, ', # of models vote negative: ', 1)
+++++++++++++++++++++++++++++++++++++++++++++++++++++++++++++++++=
Wrong!
('image name:', 'AF6')
('true label:', 0)
('result of model', 0, ': ', [100, 0, 0])
[100, 0, 0]
('result of model', 1, ': ', [41, 59, 0])
[41, 59, 0]
('result of model', 2, ': ', [12, 88, 0])
[12, 88, 0]
('# of model votes positive:', 2, ', # of models vote negative: ', 1)
+++++++++++++++++++++++++++++++++++++++++++++++++++++++++++++++++=
Wrong!
('image name:', 'AF7')
('true label:', 0)
('result of model', 0, ': ', [100, 0, 0])
[100, 0, 0]
('result of model', 1, ': ', [34, 66, 0])
[34, 66, 0]
('result of model', 2, ': ', [12, 88, 0])
[12, 88, 0]
('# of model votes positive:', 2, ', # of models vote negative: ', 1)
+++++++++++++++++++++++++++++++++++++++++++++++++++++++++++++++++=
Wrong!
('image name:', 'E2')
('true label:', 1)
('result of model', 0, ': ', [95, 5, 1])
[95, 5, 1]
('result of model', 1, ': ', [37, 63, 1])
[37, 63, 1]
('result of model', 2, ': ', [7, 93, 1])
[7, 93, 1]
('# of model votes positive:', 2, ', # of models vote negative: ', 1)
('image name:', 'P2')
('true label:', 1)
('result of model', 0, ': ', [94, 6, 1])
[94, 6, 1]
('result of model', 1, ': ', [35, 65, 1])
[35, 65, 1]
('result of model', 2, ': ', [12, 88, 1])
[12, 88, 1]
('# of model votes positive:', 2, ', # of models vote negative: ', 1)
('image name:', 'BU8')
('true label:', 0)
('result of model', 0, ': ', [60, 40, 0])
[60, 40, 0]
('result of model', 1, ': ', [35, 65, 0])
[35, 65, 0]
('result of model', 2, ': ', [10, 90, 0])
[10, 90, 0]
('# of model votes positive:', 2, ', # of models vote negative: ', 1)
+++++++++++++++++++++++++++++++++++++++++++++++++++++++++++++++++=
Wrong!
('image name:', 'P1')
('true label:', 1)
('result of model', 0, ': ', [73, 27, 1])
[73, 27, 1]
('result of model', 1, ': ', [40, 60, 1])
[40, 60, 1]
('result of model', 2, ': ', [10, 90, 1])
[10, 90, 1]
('# of model votes positive:', 2, ', # of models vote negative: ', 1)
('image name:', 'P4')
('true label:', 1)
('result of model', 0, ': ', [95, 5, 1])
[95, 5, 1]
('result of model', 1, ': ', [38, 62, 1])
[38, 62, 1]
('result of model', 2, ': ', [10, 90, 1])
[10, 90, 1]
('# of model votes positive:', 2, ', # of models vote negative: ', 1)
('image name:', 'BU2')
('true label:', 1)
('result of model', 0, ': ', [15, 85, 1])
[15, 85, 1]
('result of model', 1, ': ', [41, 59, 1])
[41, 59, 1]
('result of model', 2, ': ', [11, 89, 1])
[11, 89, 1]
('# of model votes positive:', 3, ', # of models vote negative: ', 0)
('image name:', 'BU3')
('true label:', 1)
('result of model', 0, ': ', [12, 88, 1])
[12, 88, 1]
('result of model', 1, ': ', [36, 64, 1])
[36, 64, 1]
('result of model', 2, ': ', [12, 88, 1])
[12, 88, 1]
('# of model votes positive:', 3, ', # of models vote negative: ', 0)
('image name:', 'B3')
('true label:', 1)
('result of model', 0, ': ', [95, 5, 1])
[95, 5, 1]
('result of model', 1, ': ', [30, 70, 1])
[30, 70, 1]
('result of model', 2, ': ', [10, 90, 1])
[10, 90, 1]
('# of model votes positive:', 2, ', # of models vote negative: ', 1)
('image name:', 'BU6')
('true label:', 0)
('result of model', 0, ': ', [92, 8, 0])
[92, 8, 0]
('result of model', 1, ': ', [37, 63, 0])
[37, 63, 0]
('result of model', 2, ': ', [15, 85, 0])
[15, 85, 0]
('# of model votes positive:', 2, ', # of models vote negative: ', 1)
+++++++++++++++++++++++++++++++++++++++++++++++++++++++++++++++++=
Wrong!
('image name:', 'BU7')
('true label:', 0)
('result of model', 0, ': ', [100, 0, 0])
[100, 0, 0]
('result of model', 1, ': ', [37, 63, 0])
[37, 63, 0]
('result of model', 2, ': ', [11, 89, 0])
[11, 89, 0]
('# of model votes positive:', 2, ', # of models vote negative: ', 1)
+++++++++++++++++++++++++++++++++++++++++++++++++++++++++++++++++=
Wrong!
('image name:', 'BU4')
('true label:', 1)
('result of model', 0, ': ', [35, 65, 1])
[35, 65, 1]
('result of model', 1, ': ', [29, 71, 1])
[29, 71, 1]
('result of model', 2, ': ', [11, 89, 1])
[11, 89, 1]
('# of model votes positive:', 3, ', # of models vote negative: ', 0)
('image name:', 'CE7')
('true label:', 0)
('result of model', 0, ': ', [77, 23, 0])
[77, 23, 0]
('result of model', 1, ': ', [30, 70, 0])
[30, 70, 0]
('result of model', 2, ': ', [14, 86, 0])
[14, 86, 0]
('# of model votes positive:', 2, ', # of models vote negative: ', 1)
+++++++++++++++++++++++++++++++++++++++++++++++++++++++++++++++++=
Wrong!
('image name:', 'AM8')
('true label:', 0)
('result of model', 0, ': ', [83, 17, 0])
[83, 17, 0]
('result of model', 1, ': ', [35, 65, 0])
[35, 65, 0]
('result of model', 2, ': ', [14, 86, 0])
[14, 86, 0]
('# of model votes positive:', 2, ', # of models vote negative: ', 1)
+++++++++++++++++++++++++++++++++++++++++++++++++++++++++++++++++=
Wrong!
('image name:', 'CE5')
('true label:', 0)
('result of model', 0, ': ', [100, 0, 0])
[100, 0, 0]
('result of model', 1, ': ', [37, 63, 0])
[37, 63, 0]
('result of model', 2, ': ', [9, 91, 0])
[9, 91, 0]
('# of model votes positive:', 2, ', # of models vote negative: ', 1)
+++++++++++++++++++++++++++++++++++++++++++++++++++++++++++++++++=
Wrong!
('image name:', 'BM1')
('true label:', 1)
('result of model', 0, ': ', [72, 28, 1])
[72, 28, 1]
('result of model', 1, ': ', [33, 67, 1])
[33, 67, 1]
('result of model', 2, ': ', [9, 91, 1])
[9, 91, 1]
('# of model votes positive:', 2, ', # of models vote negative: ', 1)
('image name:', 'CE3')
('true label:', 1)
('result of model', 0, ': ', [98, 2, 1])
[98, 2, 1]
('result of model', 1, ': ', [32, 68, 1])
[32, 68, 1]
('result of model', 2, ': ', [8, 92, 1])
[8, 92, 1]
('# of model votes positive:', 2, ', # of models vote negative: ', 1)
('image name:', 'CE2')
('true label:', 1)
('result of model', 0, ': ', [85, 15, 1])
[85, 15, 1]
('result of model', 1, ': ', [32, 68, 1])
[32, 68, 1]
('result of model', 2, ': ', [13, 87, 1])
[13, 87, 1]
('# of model votes positive:', 2, ', # of models vote negative: ', 1)
('image name:', 'BM4')
('true label:', 1)
('result of model', 0, ': ', [100, 0, 1])
[100, 0, 1]
('result of model', 1, ': ', [26, 74, 1])
[26, 74, 1]
('result of model', 2, ': ', [6, 94, 1])
[6, 94, 1]
('# of model votes positive:', 2, ', # of models vote negative: ', 1)
('image name:', 'BM5')
('true label:', 0)
('result of model', 0, ': ', [100, 0, 0])
[100, 0, 0]
('result of model', 1, ': ', [46, 54, 0])
[46, 54, 0]
('result of model', 2, ': ', [7, 93, 0])
[7, 93, 0]
('# of model votes positive:', 2, ', # of models vote negative: ', 1)
+++++++++++++++++++++++++++++++++++++++++++++++++++++++++++++++++=
Wrong!
('image name:', 'AM1')
('true label:', 1)
('result of model', 0, ': ', [100, 0, 1])
[100, 0, 1]
('result of model', 1, ': ', [40, 60, 1])
[40, 60, 1]
('result of model', 2, ': ', [8, 92, 1])
[8, 92, 1]
('# of model votes positive:', 2, ', # of models vote negative: ', 1)
('image name:', 'AM3')
('true label:', 1)
('result of model', 0, ': ', [98, 2, 1])
[98, 2, 1]
('result of model', 1, ': ', [38, 62, 1])
[38, 62, 1]
('result of model', 2, ': ', [6, 94, 1])
[6, 94, 1]
('# of model votes positive:', 2, ', # of models vote negative: ', 1)
('image name:', 'AM2')
('true label:', 1)
('result of model', 0, ': ', [69, 31, 1])
[69, 31, 1]
('result of model', 1, ': ', [37, 63, 1])
[37, 63, 1]
('result of model', 2, ': ', [7, 93, 1])
[7, 93, 1]
('# of model votes positive:', 2, ', # of models vote negative: ', 1)
('image name:', 'AM5')
('true label:', 0)
('result of model', 0, ': ', [86, 14, 0])
[86, 14, 0]
('result of model', 1, ': ', [29, 71, 0])
[29, 71, 0]
('result of model', 2, ': ', [10, 90, 0])
[10, 90, 0]
('# of model votes positive:', 2, ', # of models vote negative: ', 1)
+++++++++++++++++++++++++++++++++++++++++++++++++++++++++++++++++=
Wrong!
('image name:', 'BX7')
('true label:', 0)
('result of model', 0, ': ', [89, 11, 0])
[89, 11, 0]
('result of model', 1, ': ', [33, 67, 0])
[33, 67, 0]
('result of model', 2, ': ', [12, 88, 0])
[12, 88, 0]
('# of model votes positive:', 2, ', # of models vote negative: ', 1)
+++++++++++++++++++++++++++++++++++++++++++++++++++++++++++++++++=
Wrong!
('image name:', 'AM7')
('true label:', 0)
('result of model', 0, ': ', [96, 4, 0])
[96, 4, 0]
('result of model', 1, ': ', [35, 65, 0])
[35, 65, 0]
('result of model', 2, ': ', [10, 90, 0])
[10, 90, 0]
('# of model votes positive:', 2, ', # of models vote negative: ', 1)
+++++++++++++++++++++++++++++++++++++++++++++++++++++++++++++++++=
Wrong!
('image name:', 'AM6')
('true label:', 0)
('result of model', 0, ': ', [96, 4, 0])
[96, 4, 0]
('result of model', 1, ': ', [37, 63, 0])
[37, 63, 0]
('result of model', 2, ': ', [14, 86, 0])
[14, 86, 0]
('# of model votes positive:', 2, ', # of models vote negative: ', 1)
+++++++++++++++++++++++++++++++++++++++++++++++++++++++++++++++++=
Wrong!
('image name:', 'K1')
('true label:', 1)
('result of model', 0, ': ', [98, 2, 1])
[98, 2, 1]
('result of model', 1, ': ', [29, 71, 1])
[29, 71, 1]
('result of model', 2, ': ', [8, 92, 1])
[8, 92, 1]
('# of model votes positive:', 2, ', # of models vote negative: ', 1)
('image name:', 'AE5')
('true label:', 0)
('result of model', 0, ': ', [100, 0, 0])
[100, 0, 0]
('result of model', 1, ': ', [35, 65, 0])
[35, 65, 0]
('result of model', 2, ': ', [17, 83, 0])
[17, 83, 0]
('# of model votes positive:', 2, ', # of models vote negative: ', 1)
+++++++++++++++++++++++++++++++++++++++++++++++++++++++++++++++++=
Wrong!
('image name:', 'H2')
('true label:', 1)
('result of model', 0, ': ', [95, 5, 1])
[95, 5, 1]
('result of model', 1, ': ', [35, 65, 1])
[35, 65, 1]
('result of model', 2, ': ', [8, 92, 1])
[8, 92, 1]
('# of model votes positive:', 2, ', # of models vote negative: ', 1)
('image name:', 'H1')
('true label:', 1)
('result of model', 0, ': ', [74, 26, 1])
[74, 26, 1]
('result of model', 1, ': ', [29, 71, 1])
[29, 71, 1]
('result of model', 2, ': ', [6, 94, 1])
[6, 94, 1]
('# of model votes positive:', 2, ', # of models vote negative: ', 1)
('image name:', 'AI4')
('true label:', 1)
('result of model', 0, ': ', [100, 0, 1])
[100, 0, 1]
('result of model', 1, ': ', [30, 70, 1])
[30, 70, 1]
('result of model', 2, ': ', [11, 89, 1])
[11, 89, 1]
('# of model votes positive:', 2, ', # of models vote negative: ', 1)
('image name:', 'H7')
('true label:', 0)
('result of model', 0, ': ', [100, 0, 0])
[100, 0, 0]
('result of model', 1, ': ', [43, 57, 0])
[43, 57, 0]
('result of model', 2, ': ', [8, 92, 0])
[8, 92, 0]
('# of model votes positive:', 2, ', # of models vote negative: ', 1)
+++++++++++++++++++++++++++++++++++++++++++++++++++++++++++++++++=
Wrong!
('image name:', 'H4')
('true label:', 1)
('result of model', 0, ': ', [100, 0, 1])
[100, 0, 1]
('result of model', 1, ': ', [30, 70, 1])
[30, 70, 1]
('result of model', 2, ': ', [10, 90, 1])
[10, 90, 1]
('# of model votes positive:', 2, ', # of models vote negative: ', 1)
('image name:', 'BY4')
('true label:', 1)
('result of model', 0, ': ', [94, 6, 1])
[94, 6, 1]
('result of model', 1, ': ', [31, 69, 1])
[31, 69, 1]
('result of model', 2, ': ', [7, 93, 1])
[7, 93, 1]
('# of model votes positive:', 2, ', # of models vote negative: ', 1)
('image name:', 'BU1')
('true label:', 1)
('result of model', 0, ': ', [22, 78, 1])
[22, 78, 1]
('result of model', 1, ': ', [27, 73, 1])
[27, 73, 1]
('result of model', 2, ': ', [7, 93, 1])
[7, 93, 1]
('# of model votes positive:', 3, ', # of models vote negative: ', 0)
('image name:', 'BE6')
('true label:', 0)
('result of model', 0, ': ', [100, 0, 0])
[100, 0, 0]
('result of model', 1, ': ', [49, 51, 0])
[49, 51, 0]
('result of model', 2, ': ', [9, 91, 0])
[9, 91, 0]
('# of model votes positive:', 2, ', # of models vote negative: ', 1)
+++++++++++++++++++++++++++++++++++++++++++++++++++++++++++++++++=
Wrong!
('image name:', 'BE7')
('true label:', 0)
('result of model', 0, ': ', [72, 28, 0])
[72, 28, 0]
('result of model', 1, ': ', [36, 64, 0])
[36, 64, 0]
('result of model', 2, ': ', [11, 89, 0])
[11, 89, 0]
('# of model votes positive:', 2, ', # of models vote negative: ', 1)
+++++++++++++++++++++++++++++++++++++++++++++++++++++++++++++++++=
Wrong!
('image name:', 'AZ1')
('true label:', 1)
('result of model', 0, ': ', [100, 0, 1])
[100, 0, 1]
('result of model', 1, ': ', [39, 61, 1])
[39, 61, 1]
('result of model', 2, ': ', [13, 87, 1])
[13, 87, 1]
('# of model votes positive:', 2, ', # of models vote negative: ', 1)
('image name:', 'BJ3')
('true label:', 1)
('result of model', 0, ': ', [63, 37, 1])
[63, 37, 1]
('result of model', 1, ': ', [39, 61, 1])
[39, 61, 1]
('result of model', 2, ': ', [5, 95, 1])
[5, 95, 1]
('# of model votes positive:', 2, ', # of models vote negative: ', 1)
('image name:', 'L1')
('true label:', 1)
('result of model', 0, ': ', [97, 3, 1])
[97, 3, 1]
('result of model', 1, ': ', [43, 57, 1])
[43, 57, 1]
('result of model', 2, ': ', [4, 96, 1])
[4, 96, 1]
('# of model votes positive:', 2, ', # of models vote negative: ', 1)
('image name:', 'BR3')
('true label:', 1)
('result of model', 0, ': ', [100, 0, 1])
[100, 0, 1]
('result of model', 1, ': ', [30, 70, 1])
[30, 70, 1]
('result of model', 2, ': ', [13, 87, 1])
[13, 87, 1]
('# of model votes positive:', 2, ', # of models vote negative: ', 1)
('image name:', 'BR2')
('true label:', 1)
('result of model', 0, ': ', [56, 44, 1])
[56, 44, 1]
('result of model', 1, ': ', [34, 66, 1])
[34, 66, 1]
('result of model', 2, ': ', [6, 94, 1])
[6, 94, 1]
('# of model votes positive:', 2, ', # of models vote negative: ', 1)
('image name:', 'K3')
('true label:', 1)
('result of model', 0, ': ', [100, 0, 1])
[100, 0, 1]
('result of model', 1, ': ', [38, 62, 1])
[38, 62, 1]
('result of model', 2, ': ', [10, 90, 1])
[10, 90, 1]
('# of model votes positive:', 2, ', # of models vote negative: ', 1)
('image name:', 'CD5')
('true label:', 0)
('result of model', 0, ': ', [96, 4, 0])
[96, 4, 0]
('result of model', 1, ': ', [43, 57, 0])
[43, 57, 0]
('result of model', 2, ': ', [11, 89, 0])
[11, 89, 0]
('# of model votes positive:', 2, ', # of models vote negative: ', 1)
+++++++++++++++++++++++++++++++++++++++++++++++++++++++++++++++++=
Wrong!
('image name:', 'CD6')
('true label:', 0)
('result of model', 0, ': ', [84, 16, 0])
[84, 16, 0]
('result of model', 1, ': ', [40, 60, 0])
[40, 60, 0]
('result of model', 2, ': ', [8, 92, 0])
[8, 92, 0]
('# of model votes positive:', 2, ', # of models vote negative: ', 1)
+++++++++++++++++++++++++++++++++++++++++++++++++++++++++++++++++=
Wrong!
('image name:', 'K7')
('true label:', 0)
('result of model', 0, ': ', [99, 1, 0])
[99, 1, 0]
('result of model', 1, ': ', [37, 63, 0])
[37, 63, 0]
('result of model', 2, ': ', [9, 91, 0])
[9, 91, 0]
('# of model votes positive:', 2, ', # of models vote negative: ', 1)
+++++++++++++++++++++++++++++++++++++++++++++++++++++++++++++++++=
Wrong!
('image name:', 'AL8')
('true label:', 0)
('result of model', 0, ': ', [100, 0, 0])
[100, 0, 0]
('result of model', 1, ': ', [37, 63, 0])
[37, 63, 0]
('result of model', 2, ': ', [5, 95, 0])
[5, 95, 0]
('# of model votes positive:', 2, ', # of models vote negative: ', 1)
+++++++++++++++++++++++++++++++++++++++++++++++++++++++++++++++++=
Wrong!
('image name:', 'K4')
('true label:', 1)
('result of model', 0, ': ', [100, 0, 1])
[100, 0, 1]
('result of model', 1, ': ', [43, 57, 1])
[43, 57, 1]
('result of model', 2, ': ', [8, 92, 1])
[8, 92, 1]
('# of model votes positive:', 2, ', # of models vote negative: ', 1)
('image name:', 'AL7')
('true label:', 0)
('result of model', 0, ': ', [96, 4, 0])
[96, 4, 0]
('result of model', 1, ': ', [34, 66, 0])
[34, 66, 0]
('result of model', 2, ': ', [8, 92, 0])
[8, 92, 0]
('# of model votes positive:', 2, ', # of models vote negative: ', 1)
+++++++++++++++++++++++++++++++++++++++++++++++++++++++++++++++++=
Wrong!
('image name:', 'AL5')
('true label:', 0)
('result of model', 0, ': ', [100, 0, 0])
[100, 0, 0]
('result of model', 1, ': ', [25, 75, 0])
[25, 75, 0]
('result of model', 2, ': ', [12, 88, 0])
[12, 88, 0]
('# of model votes positive:', 2, ', # of models vote negative: ', 1)
+++++++++++++++++++++++++++++++++++++++++++++++++++++++++++++++++=
Wrong!
('image name:', 'CD8')
('true label:', 0)
('result of model', 0, ': ', [57, 43, 0])
[57, 43, 0]
('result of model', 1, ': ', [40, 60, 0])
[40, 60, 0]
('result of model', 2, ': ', [12, 88, 0])
[12, 88, 0]
('# of model votes positive:', 2, ', # of models vote negative: ', 1)
+++++++++++++++++++++++++++++++++++++++++++++++++++++++++++++++++=
Wrong!
('image name:', 'AD7')
('true label:', 0)
('result of model', 0, ': ', [100, 0, 0])
[100, 0, 0]
('result of model', 1, ': ', [36, 64, 0])
[36, 64, 0]
('result of model', 2, ': ', [11, 89, 0])
[11, 89, 0]
('# of model votes positive:', 2, ', # of models vote negative: ', 1)
+++++++++++++++++++++++++++++++++++++++++++++++++++++++++++++++++=
Wrong!
('image name:', 'AD5')
('true label:', 0)
('result of model', 0, ': ', [98, 2, 0])
[98, 2, 0]
('result of model', 1, ': ', [34, 66, 0])
[34, 66, 0]
('result of model', 2, ': ', [12, 88, 0])
[12, 88, 0]
('# of model votes positive:', 2, ', # of models vote negative: ', 1)
+++++++++++++++++++++++++++++++++++++++++++++++++++++++++++++++++=
Wrong!
('image name:', 'BF1')
('true label:', 1)
('result of model', 0, ': ', [100, 0, 1])
[100, 0, 1]
('result of model', 1, ': ', [46, 54, 1])
[46, 54, 1]
('result of model', 2, ': ', [7, 93, 1])
[7, 93, 1]
('# of model votes positive:', 2, ', # of models vote negative: ', 1)
('image name:', 'AD8')
('true label:', 0)
('result of model', 0, ': ', [99, 1, 0])
[99, 1, 0]
('result of model', 1, ': ', [39, 61, 0])
[39, 61, 0]
('result of model', 2, ': ', [8, 92, 0])
[8, 92, 0]
('# of model votes positive:', 2, ', # of models vote negative: ', 1)
+++++++++++++++++++++++++++++++++++++++++++++++++++++++++++++++++=
Wrong!
('image name:', 'AM4')
('true label:', 1)
('result of model', 0, ': ', [100, 0, 1])
[100, 0, 1]
('result of model', 1, ': ', [35, 65, 1])
[35, 65, 1]
('result of model', 2, ': ', [10, 90, 1])
[10, 90, 1]
('# of model votes positive:', 2, ', # of models vote negative: ', 1)
('image name:', 'AU7')
('true label:', 0)
('result of model', 0, ': ', [72, 28, 0])
[72, 28, 0]
('result of model', 1, ': ', [40, 60, 0])
[40, 60, 0]
('result of model', 2, ': ', [8, 92, 0])
[8, 92, 0]
('# of model votes positive:', 2, ', # of models vote negative: ', 1)
+++++++++++++++++++++++++++++++++++++++++++++++++++++++++++++++++=
Wrong!
('image name:', 'C3')
('true label:', 1)
('result of model', 0, ': ', [61, 39, 1])
[61, 39, 1]
('result of model', 1, ': ', [33, 67, 1])
[33, 67, 1]
('result of model', 2, ': ', [7, 93, 1])
[7, 93, 1]
('# of model votes positive:', 2, ', # of models vote negative: ', 1)
('image name:', 'C1')
('true label:', 1)
('result of model', 0, ': ', [84, 16, 1])
[84, 16, 1]
('result of model', 1, ': ', [41, 59, 1])
[41, 59, 1]
('result of model', 2, ': ', [11, 89, 1])
[11, 89, 1]
('# of model votes positive:', 2, ', # of models vote negative: ', 1)
('image name:', 'CE8')
('true label:', 0)
('result of model', 0, ': ', [91, 9, 0])
[91, 9, 0]
('result of model', 1, ': ', [39, 61, 0])
[39, 61, 0]
('result of model', 2, ': ', [9, 91, 0])
[9, 91, 0]
('# of model votes positive:', 2, ', # of models vote negative: ', 1)
+++++++++++++++++++++++++++++++++++++++++++++++++++++++++++++++++=
Wrong!
('image name:', 'C4')
('true label:', 1)
('result of model', 0, ': ', [99, 1, 1])
[99, 1, 1]
('result of model', 1, ': ', [31, 69, 1])
[31, 69, 1]
('result of model', 2, ': ', [6, 94, 1])
[6, 94, 1]
('# of model votes positive:', 2, ', # of models vote negative: ', 1)
('image name:', 'AS2')
('true label:', 1)
('result of model', 0, ': ', [95, 5, 1])
[95, 5, 1]
('result of model', 1, ': ', [28, 72, 1])
[28, 72, 1]
('result of model', 2, ': ', [5, 95, 1])
[5, 95, 1]
('# of model votes positive:', 2, ', # of models vote negative: ', 1)
('image name:', 'AS1')
('true label:', 1)
('result of model', 0, ': ', [100, 0, 1])
[100, 0, 1]
('result of model', 1, ': ', [31, 69, 1])
[31, 69, 1]
('result of model', 2, ': ', [18, 82, 1])
[18, 82, 1]
('# of model votes positive:', 2, ', # of models vote negative: ', 1)
('image name:', 'AS4')
('true label:', 1)
('result of model', 0, ': ', [98, 2, 1])
[98, 2, 1]
('result of model', 1, ': ', [36, 64, 1])
[36, 64, 1]
('result of model', 2, ': ', [8, 92, 1])
[8, 92, 1]
('# of model votes positive:', 2, ', # of models vote negative: ', 1)
('image name:', 'N4')
('true label:', 1)
('result of model', 0, ': ', [100, 0, 1])
[100, 0, 1]
('result of model', 1, ': ', [31, 69, 1])
[31, 69, 1]
('result of model', 2, ': ', [7, 93, 1])
[7, 93, 1]
('# of model votes positive:', 2, ', # of models vote negative: ', 1)
('image name:', 'BS5')
('true label:', 0)
('result of model', 0, ': ', [76, 24, 0])
[76, 24, 0]
('result of model', 1, ': ', [39, 61, 0])
[39, 61, 0]
('result of model', 2, ': ', [6, 94, 0])
[6, 94, 0]
('# of model votes positive:', 2, ', # of models vote negative: ', 1)
+++++++++++++++++++++++++++++++++++++++++++++++++++++++++++++++++=
Wrong!
('image name:', 'BS6')
('true label:', 0)
('result of model', 0, ': ', [98, 2, 0])
[98, 2, 0]
('result of model', 1, ': ', [41, 59, 0])
[41, 59, 0]
('result of model', 2, ': ', [7, 93, 0])
[7, 93, 0]
('# of model votes positive:', 2, ', # of models vote negative: ', 1)
+++++++++++++++++++++++++++++++++++++++++++++++++++++++++++++++++=
Wrong!
('image name:', 'AS8')
('true label:', 0)
('result of model', 0, ': ', [99, 1, 0])
[99, 1, 0]
('result of model', 1, ': ', [39, 61, 0])
[39, 61, 0]
('result of model', 2, ': ', [9, 91, 0])
[9, 91, 0]
('# of model votes positive:', 2, ', # of models vote negative: ', 1)
+++++++++++++++++++++++++++++++++++++++++++++++++++++++++++++++++=
Wrong!
('image name:', 'BS1')
('true label:', 1)
('result of model', 0, ': ', [62, 38, 1])
[62, 38, 1]
('result of model', 1, ': ', [33, 67, 1])
[33, 67, 1]
('result of model', 2, ': ', [10, 90, 1])
[10, 90, 1]
('# of model votes positive:', 2, ', # of models vote negative: ', 1)
('image name:', 'BS2')
('true label:', 1)
('result of model', 0, ': ', [64, 36, 1])
[64, 36, 1]
('result of model', 1, ': ', [43, 57, 1])
[43, 57, 1]
('result of model', 2, ': ', [9, 91, 1])
[9, 91, 1]
('# of model votes positive:', 2, ', # of models vote negative: ', 1)
('image name:', 'AV1')
('true label:', 1)
('result of model', 0, ': ', [95, 5, 1])
[95, 5, 1]
('result of model', 1, ': ', [31, 69, 1])
[31, 69, 1]
('result of model', 2, ': ', [9, 91, 1])
[9, 91, 1]
('# of model votes positive:', 2, ', # of models vote negative: ', 1)
('image name:', 'BK4')
('true label:', 1)
('result of model', 0, ': ', [80, 20, 1])
[80, 20, 1]
('result of model', 1, ': ', [39, 61, 1])
[39, 61, 1]
('result of model', 2, ': ', [9, 91, 1])
[9, 91, 1]
('# of model votes positive:', 2, ', # of models vote negative: ', 1)
('image name:', 'BK5')
('true label:', 0)
('result of model', 0, ': ', [100, 0, 0])
[100, 0, 0]
('result of model', 1, ': ', [37, 63, 0])
[37, 63, 0]
('result of model', 2, ': ', [12, 88, 0])
[12, 88, 0]
('# of model votes positive:', 2, ', # of models vote negative: ', 1)
+++++++++++++++++++++++++++++++++++++++++++++++++++++++++++++++++=
Wrong!
('image name:', 'BK6')
('true label:', 0)
('result of model', 0, ': ', [96, 4, 0])
[96, 4, 0]
('result of model', 1, ': ', [40, 60, 0])
[40, 60, 0]
('result of model', 2, ': ', [8, 92, 0])
[8, 92, 0]
('# of model votes positive:', 2, ', # of models vote negative: ', 1)
+++++++++++++++++++++++++++++++++++++++++++++++++++++++++++++++++=
Wrong!
('image name:', 'BK7')
('true label:', 0)
('result of model', 0, ': ', [97, 3, 0])
[97, 3, 0]
('result of model', 1, ': ', [32, 68, 0])
[32, 68, 0]
('result of model', 2, ': ', [15, 85, 0])
[15, 85, 0]
('# of model votes positive:', 2, ', # of models vote negative: ', 1)
+++++++++++++++++++++++++++++++++++++++++++++++++++++++++++++++++=
Wrong!
('image name:', 'BK1')
('true label:', 1)
('result of model', 0, ': ', [92, 8, 1])
[92, 8, 1]
('result of model', 1, ': ', [33, 67, 1])
[33, 67, 1]
('result of model', 2, ': ', [6, 94, 1])
[6, 94, 1]
('# of model votes positive:', 2, ', # of models vote negative: ', 1)
('image name:', 'BF4')
('true label:', 1)
('result of model', 0, ': ', [97, 3, 1])
[97, 3, 1]
('result of model', 1, ': ', [41, 59, 1])
[41, 59, 1]
('result of model', 2, ': ', [11, 89, 1])
[11, 89, 1]
('# of model votes positive:', 2, ', # of models vote negative: ', 1)
('image name:', 'BK3')
('true label:', 1)
('result of model', 0, ': ', [73, 27, 1])
[73, 27, 1]
('result of model', 1, ': ', [39, 61, 1])
[39, 61, 1]
('result of model', 2, ': ', [10, 90, 1])
[10, 90, 1]
('# of model votes positive:', 2, ', # of models vote negative: ', 1)
('image name:', 'N1')
('true label:', 1)
('result of model', 0, ': ', [95, 5, 1])
[95, 5, 1]
('result of model', 1, ': ', [29, 71, 1])
[29, 71, 1]
('result of model', 2, ': ', [11, 89, 1])
[11, 89, 1]
('# of model votes positive:', 2, ', # of models vote negative: ', 1)
('image name:', 'N3')
('true label:', 1)
('result of model', 0, ': ', [100, 0, 1])
[100, 0, 1]
('result of model', 1, ': ', [36, 64, 1])
[36, 64, 1]
('result of model', 2, ': ', [12, 88, 1])
[12, 88, 1]
('# of model votes positive:', 2, ', # of models vote negative: ', 1)
('image name:', 'BK8')
('true label:', 0)
('result of model', 0, ': ', [72, 28, 0])
[72, 28, 0]
('result of model', 1, ': ', [31, 69, 0])
[31, 69, 0]
('result of model', 2, ': ', [14, 86, 0])
[14, 86, 0]
('# of model votes positive:', 2, ', # of models vote negative: ', 1)
+++++++++++++++++++++++++++++++++++++++++++++++++++++++++++++++++=
Wrong!
('image name:', 'BZ7')
('true label:', 0)
('result of model', 0, ': ', [90, 10, 0])
[90, 10, 0]
('result of model', 1, ': ', [43, 57, 0])
[43, 57, 0]
('result of model', 2, ': ', [11, 89, 0])
[11, 89, 0]
('# of model votes positive:', 2, ', # of models vote negative: ', 1)
+++++++++++++++++++++++++++++++++++++++++++++++++++++++++++++++++=
Wrong!
('image name:', 'BZ6')
('true label:', 0)
('result of model', 0, ': ', [96, 4, 0])
[96, 4, 0]
('result of model', 1, ': ', [34, 66, 0])
[34, 66, 0]
('result of model', 2, ': ', [16, 84, 0])
[16, 84, 0]
('# of model votes positive:', 2, ', # of models vote negative: ', 1)
+++++++++++++++++++++++++++++++++++++++++++++++++++++++++++++++++=
Wrong!
('image name:', 'BZ4')
('true label:', 1)
('result of model', 0, ': ', [99, 1, 1])
[99, 1, 1]
('result of model', 1, ': ', [29, 71, 1])
[29, 71, 1]
('result of model', 2, ': ', [11, 89, 1])
[11, 89, 1]
('# of model votes positive:', 2, ', # of models vote negative: ', 1)
('image name:', 'F4')
('true label:', 1)
('result of model', 0, ': ', [97, 3, 1])
[97, 3, 1]
('result of model', 1, ': ', [40, 60, 1])
[40, 60, 1]
('result of model', 2, ': ', [6, 94, 1])
[6, 94, 1]
('# of model votes positive:', 2, ', # of models vote negative: ', 1)
('image name:', 'F5')
('true label:', 0)
('result of model', 0, ': ', [91, 9, 0])
[91, 9, 0]
('result of model', 1, ': ', [34, 66, 0])
[34, 66, 0]
('result of model', 2, ': ', [11, 89, 0])
[11, 89, 0]
('# of model votes positive:', 2, ', # of models vote negative: ', 1)
+++++++++++++++++++++++++++++++++++++++++++++++++++++++++++++++++=
Wrong!
('image name:', 'F8')
('true label:', 0)
('result of model', 0, ': ', [88, 12, 0])
[88, 12, 0]
('result of model', 1, ': ', [33, 67, 0])
[33, 67, 0]
('result of model', 2, ': ', [9, 91, 0])
[9, 91, 0]
('# of model votes positive:', 2, ', # of models vote negative: ', 1)
+++++++++++++++++++++++++++++++++++++++++++++++++++++++++++++++++=
Wrong!
('image name:', 'AK6')
('true label:', 0)
('result of model', 0, ': ', [97, 3, 0])
[97, 3, 0]
('result of model', 1, ': ', [42, 58, 0])
[42, 58, 0]
('result of model', 2, ': ', [6, 94, 0])
[6, 94, 0]
('# of model votes positive:', 2, ', # of models vote negative: ', 1)
+++++++++++++++++++++++++++++++++++++++++++++++++++++++++++++++++=
Wrong!
('image name:', 'AK5')
('true label:', 0)
('result of model', 0, ': ', [100, 0, 0])
[100, 0, 0]
('result of model', 1, ': ', [36, 64, 0])
[36, 64, 0]
('result of model', 2, ': ', [12, 88, 0])
[12, 88, 0]
('# of model votes positive:', 2, ', # of models vote negative: ', 1)
+++++++++++++++++++++++++++++++++++++++++++++++++++++++++++++++++=
Wrong!
('image name:', 'AK4')
('true label:', 1)
('result of model', 0, ': ', [100, 0, 1])
[100, 0, 1]
('result of model', 1, ': ', [30, 70, 1])
[30, 70, 1]
('result of model', 2, ': ', [7, 93, 1])
[7, 93, 1]
('# of model votes positive:', 2, ', # of models vote negative: ', 1)
('image name:', 'AT2')
('true label:', 1)
('result of model', 0, ': ', [99, 1, 1])
[99, 1, 1]
('result of model', 1, ': ', [37, 63, 1])
[37, 63, 1]
('result of model', 2, ': ', [9, 91, 1])
[9, 91, 1]
('# of model votes positive:', 2, ', # of models vote negative: ', 1)
('image name:', 'AT1')
('true label:', 1)
('result of model', 0, ': ', [98, 2, 1])
[98, 2, 1]
('result of model', 1, ': ', [38, 62, 1])
[38, 62, 1]
('result of model', 2, ': ', [12, 88, 1])
[12, 88, 1]
('# of model votes positive:', 2, ', # of models vote negative: ', 1)
('image name:', 'BC4')
('true label:', 1)
('result of model', 0, ': ', [87, 13, 1])
[87, 13, 1]
('result of model', 1, ': ', [41, 59, 1])
[41, 59, 1]
('result of model', 2, ': ', [11, 89, 1])
[11, 89, 1]
('# of model votes positive:', 2, ', # of models vote negative: ', 1)
('image name:', 'M1')
('true label:', 1)
('result of model', 0, ': ', [100, 0, 1])
[100, 0, 1]
('result of model', 1, ': ', [38, 62, 1])
[38, 62, 1]
('result of model', 2, ': ', [3, 97, 1])
[3, 97, 1]
('# of model votes positive:', 2, ', # of models vote negative: ', 1)
('image name:', 'BC3')
('true label:', 1)
('result of model', 0, ': ', [99, 1, 1])
[99, 1, 1]
('result of model', 1, ': ', [29, 71, 1])
[29, 71, 1]
('result of model', 2, ': ', [9, 91, 1])
[9, 91, 1]
('# of model votes positive:', 2, ', # of models vote negative: ', 1)
('image name:', 'Q1')
('true label:', 1)
('result of model', 0, ': ', [99, 1, 1])
[99, 1, 1]
('result of model', 1, ': ', [31, 69, 1])
[31, 69, 1]
('result of model', 2, ': ', [11, 89, 1])
[11, 89, 1]
('# of model votes positive:', 2, ', # of models vote negative: ', 1)
('image name:', 'Q3')
('true label:', 1)
('result of model', 0, ': ', [100, 0, 1])
[100, 0, 1]
('result of model', 1, ': ', [40, 60, 1])
[40, 60, 1]
('result of model', 2, ': ', [12, 88, 1])
[12, 88, 1]
('# of model votes positive:', 2, ', # of models vote negative: ', 1)
('image name:', 'Q4')
('true label:', 1)
('result of model', 0, ': ', [100, 0, 1])
[100, 0, 1]
('result of model', 1, ': ', [30, 70, 1])
[30, 70, 1]
('result of model', 2, ': ', [5, 95, 1])
[5, 95, 1]
('# of model votes positive:', 2, ', # of models vote negative: ', 1)
('image name:', 'AR6')
('true label:', 0)
('result of model', 0, ': ', [100, 0, 0])
[100, 0, 0]
('result of model', 1, ': ', [39, 61, 0])
[39, 61, 0]
('result of model', 2, ': ', [13, 87, 0])
[13, 87, 0]
('# of model votes positive:', 2, ', # of models vote negative: ', 1)
+++++++++++++++++++++++++++++++++++++++++++++++++++++++++++++++++=
Wrong!
('image name:', 'AR8')
('true label:', 0)
('result of model', 0, ': ', [100, 0, 0])
[100, 0, 0]
('result of model', 1, ': ', [35, 65, 0])
[35, 65, 0]
('result of model', 2, ': ', [12, 88, 0])
[12, 88, 0]
('# of model votes positive:', 2, ', # of models vote negative: ', 1)
+++++++++++++++++++++++++++++++++++++++++++++++++++++++++++++++++=
Wrong!
('image name:', 'CA7')
('true label:', 0)
('result of model', 0, ': ', [93, 7, 0])
[93, 7, 0]
('result of model', 1, ': ', [39, 61, 0])
[39, 61, 0]
('result of model', 2, ': ', [8, 92, 0])
[8, 92, 0]
('# of model votes positive:', 2, ', # of models vote negative: ', 1)
+++++++++++++++++++++++++++++++++++++++++++++++++++++++++++++++++=
Wrong!
('image name:', 'BH1')
('true label:', 1)
('result of model', 0, ': ', [84, 16, 1])
[84, 16, 1]
('result of model', 1, ': ', [43, 57, 1])
[43, 57, 1]
('result of model', 2, ': ', [11, 89, 1])
[11, 89, 1]
('# of model votes positive:', 2, ', # of models vote negative: ', 1)
('image name:', 'CA5')
('true label:', 0)
('result of model', 0, ': ', [96, 4, 0])
[96, 4, 0]
('result of model', 1, ': ', [35, 65, 0])
[35, 65, 0]
('result of model', 2, ': ', [10, 90, 0])
[10, 90, 0]
('# of model votes positive:', 2, ', # of models vote negative: ', 1)
+++++++++++++++++++++++++++++++++++++++++++++++++++++++++++++++++=
Wrong!
('image name:', 'CF8')
('true label:', 0)
('result of model', 0, ': ', [93, 7, 0])
[93, 7, 0]
('result of model', 1, ': ', [36, 64, 0])
[36, 64, 0]
('result of model', 2, ': ', [14, 86, 0])
[14, 86, 0]
('# of model votes positive:', 2, ', # of models vote negative: ', 1)
+++++++++++++++++++++++++++++++++++++++++++++++++++++++++++++++++=
Wrong!
('image name:', 'CA4')
('true label:', 1)
('result of model', 0, ': ', [60, 40, 1])
[60, 40, 1]
('result of model', 1, ': ', [32, 68, 1])
[32, 68, 1]
('result of model', 2, ': ', [9, 91, 1])
[9, 91, 1]
('# of model votes positive:', 2, ', # of models vote negative: ', 1)
('image name:', 'CF6')
('true label:', 0)
('result of model', 0, ': ', [100, 0, 0])
[100, 0, 0]
('result of model', 1, ': ', [38, 62, 0])
[38, 62, 0]
('result of model', 2, ': ', [9, 91, 0])
[9, 91, 0]
('# of model votes positive:', 2, ', # of models vote negative: ', 1)
+++++++++++++++++++++++++++++++++++++++++++++++++++++++++++++++++=
Wrong!
('image name:', 'BH3')
('true label:', 1)
('result of model', 0, ': ', [82, 18, 1])
[82, 18, 1]
('result of model', 1, ': ', [37, 63, 1])
[37, 63, 1]
('result of model', 2, ': ', [9, 91, 1])
[9, 91, 1]
('# of model votes positive:', 2, ', # of models vote negative: ', 1)
('image name:', 'BH2')
('true label:', 1)
('result of model', 0, ': ', [100, 0, 1])
[100, 0, 1]
('result of model', 1, ': ', [40, 60, 1])
[40, 60, 1]
('result of model', 2, ': ', [13, 87, 1])
[13, 87, 1]
('# of model votes positive:', 2, ', # of models vote negative: ', 1)
('image name:', 'BH4')
('true label:', 1)
('result of model', 0, ': ', [90, 10, 1])
[90, 10, 1]
('result of model', 1, ': ', [32, 68, 1])
[32, 68, 1]
('result of model', 2, ': ', [9, 91, 1])
[9, 91, 1]
('# of model votes positive:', 2, ', # of models vote negative: ', 1)
('image name:', 'AJ8')
('true label:', 0)
('result of model', 0, ': ', [100, 0, 0])
[100, 0, 0]
('result of model', 1, ': ', [34, 66, 0])
[34, 66, 0]
('result of model', 2, ': ', [14, 86, 0])
[14, 86, 0]
('# of model votes positive:', 2, ', # of models vote negative: ', 1)
+++++++++++++++++++++++++++++++++++++++++++++++++++++++++++++++++=
Wrong!
('image name:', 'I1')
('true label:', 1)
('result of model', 0, ': ', [75, 25, 1])
[75, 25, 1]
('result of model', 1, ': ', [30, 70, 1])
[30, 70, 1]
('result of model', 2, ': ', [6, 94, 1])
[6, 94, 1]
('# of model votes positive:', 2, ', # of models vote negative: ', 1)
('image name:', 'I3')
('true label:', 1)
('result of model', 0, ': ', [86, 14, 1])
[86, 14, 1]
('result of model', 1, ': ', [35, 65, 1])
[35, 65, 1]
('result of model', 2, ': ', [14, 86, 1])
[14, 86, 1]
('# of model votes positive:', 2, ', # of models vote negative: ', 1)
('image name:', 'I2')
('true label:', 1)
('result of model', 0, ': ', [87, 13, 1])
[87, 13, 1]
('result of model', 1, ': ', [33, 67, 1])
[33, 67, 1]
('result of model', 2, ': ', [15, 85, 1])
[15, 85, 1]
('# of model votes positive:', 2, ', # of models vote negative: ', 1)
('image name:', 'AJ4')
('true label:', 1)
('result of model', 0, ': ', [100, 0, 1])
[100, 0, 1]
('result of model', 1, ': ', [31, 69, 1])
[31, 69, 1]
('result of model', 2, ': ', [9, 91, 1])
[9, 91, 1]
('# of model votes positive:', 2, ', # of models vote negative: ', 1)
('image name:', 'AJ5')
('true label:', 0)
('result of model', 0, ': ', [100, 0, 0])
[100, 0, 0]
('result of model', 1, ': ', [37, 63, 0])
[37, 63, 0]
('result of model', 2, ': ', [12, 88, 0])
[12, 88, 0]
('# of model votes positive:', 2, ', # of models vote negative: ', 1)
+++++++++++++++++++++++++++++++++++++++++++++++++++++++++++++++++=
Wrong!
('image name:', 'AJ7')
('true label:', 0)
('result of model', 0, ': ', [94, 6, 0])
[94, 6, 0]
('result of model', 1, ': ', [40, 60, 0])
[40, 60, 0]
('result of model', 2, ': ', [10, 90, 0])
[10, 90, 0]
('# of model votes positive:', 2, ', # of models vote negative: ', 1)
+++++++++++++++++++++++++++++++++++++++++++++++++++++++++++++++++=
Wrong!
('image name:', 'A1')
('true label:', 1)
('result of model', 0, ': ', [96, 4, 1])
[96, 4, 1]
('result of model', 1, ': ', [39, 61, 1])
[39, 61, 1]
('result of model', 2, ': ', [8, 92, 1])
[8, 92, 1]
('# of model votes positive:', 2, ', # of models vote negative: ', 1)
('image name:', 'A2')
('true label:', 1)
('result of model', 0, ': ', [100, 0, 1])
[100, 0, 1]
('result of model', 1, ': ', [35, 65, 1])
[35, 65, 1]
('result of model', 2, ': ', [14, 86, 1])
[14, 86, 1]
('# of model votes positive:', 2, ', # of models vote negative: ', 1)
('image name:', 'A5')
('true label:', 0)
('result of model', 0, ': ', [100, 0, 0])
[100, 0, 0]
('result of model', 1, ': ', [41, 59, 0])
[41, 59, 0]
('result of model', 2, ': ', [6, 94, 0])
[6, 94, 0]
('# of model votes positive:', 2, ', # of models vote negative: ', 1)
+++++++++++++++++++++++++++++++++++++++++++++++++++++++++++++++++=
Wrong!
('image name:', 'AB5')
('true label:', 0)
('result of model', 0, ': ', [100, 0, 0])
[100, 0, 0]
('result of model', 1, ': ', [40, 60, 0])
[40, 60, 0]
('result of model', 2, ': ', [14, 86, 0])
[14, 86, 0]
('# of model votes positive:', 2, ', # of models vote negative: ', 1)
+++++++++++++++++++++++++++++++++++++++++++++++++++++++++++++++++=
Wrong!
('image name:', 'A7')
('true label:', 0)
('result of model', 0, ': ', [100, 0, 0])
[100, 0, 0]
('result of model', 1, ': ', [33, 67, 0])
[33, 67, 0]
('result of model', 2, ': ', [19, 81, 0])
[19, 81, 0]
('# of model votes positive:', 2, ', # of models vote negative: ', 1)
+++++++++++++++++++++++++++++++++++++++++++++++++++++++++++++++++=
Wrong!
('image name:', 'AB7')
('true label:', 0)
('result of model', 0, ': ', [98, 2, 0])
[98, 2, 0]
('result of model', 1, ': ', [35, 65, 0])
[35, 65, 0]
('result of model', 2, ': ', [10, 90, 0])
[10, 90, 0]
('# of model votes positive:', 2, ', # of models vote negative: ', 1)
+++++++++++++++++++++++++++++++++++++++++++++++++++++++++++++++++=
Wrong!
('image name:', 'A8')
('true label:', 0)
('result of model', 0, ': ', [99, 1, 0])
[99, 1, 0]
('result of model', 1, ': ', [40, 60, 0])
[40, 60, 0]
('result of model', 2, ': ', [11, 89, 0])
[11, 89, 0]
('# of model votes positive:', 2, ', # of models vote negative: ', 1)
+++++++++++++++++++++++++++++++++++++++++++++++++++++++++++++++++=
Wrong!
('image name:', 'BP7')
('true label:', 0)
('result of model', 0, ': ', [100, 0, 0])
[100, 0, 0]
('result of model', 1, ': ', [39, 61, 0])
[39, 61, 0]
('result of model', 2, ': ', [13, 87, 0])
[13, 87, 0]
('# of model votes positive:', 2, ', # of models vote negative: ', 1)
+++++++++++++++++++++++++++++++++++++++++++++++++++++++++++++++++=
Wrong!
('image name:', 'AQ3')
('true label:', 1)
('result of model', 0, ': ', [100, 0, 1])
[100, 0, 1]
('result of model', 1, ': ', [36, 64, 1])
[36, 64, 1]
('result of model', 2, ': ', [9, 91, 1])
[9, 91, 1]
('# of model votes positive:', 2, ', # of models vote negative: ', 1)
('image name:', 'AQ8')
('true label:', 0)
('result of model', 0, ': ', [37, 63, 0])
[37, 63, 0]
('result of model', 1, ': ', [36, 64, 0])
[36, 64, 0]
('result of model', 2, ': ', [14, 86, 0])
[14, 86, 0]
('# of model votes positive:', 3, ', # of models vote negative: ', 0)
+++++++++++++++++++++++++++++++++++++++++++++++++++++++++++++++++=
Wrong!
('image name:', 'L7')
('true label:', 0)
('result of model', 0, ': ', [100, 0, 0])
[100, 0, 0]
('result of model', 1, ': ', [39, 61, 0])
[39, 61, 0]
('result of model', 2, ': ', [13, 87, 0])
[13, 87, 0]
('# of model votes positive:', 2, ', # of models vote negative: ', 1)
+++++++++++++++++++++++++++++++++++++++++++++++++++++++++++++++++=
Wrong!
('image name:', 'L4')
('true label:', 1)
('result of model', 0, ': ', [50, 50, 1])
[50, 50, 1]
('result of model', 1, ': ', [35, 65, 1])
[35, 65, 1]
('result of model', 2, ': ', [9, 91, 1])
[9, 91, 1]
('# of model votes positive:', 3, ', # of models vote negative: ', 0)
('image name:', 'L5')
('true label:', 0)
('result of model', 0, ': ', [100, 0, 0])
[100, 0, 0]
('result of model', 1, ': ', [37, 63, 0])
[37, 63, 0]
('result of model', 2, ': ', [12, 88, 0])
[12, 88, 0]
('# of model votes positive:', 2, ', # of models vote negative: ', 1)
+++++++++++++++++++++++++++++++++++++++++++++++++++++++++++++++++=
Wrong!
('image name:', 'L3')
('true label:', 1)
('result of model', 0, ': ', [86, 14, 1])
[86, 14, 1]
('result of model', 1, ': ', [32, 68, 1])
[32, 68, 1]
('result of model', 2, ': ', [15, 85, 1])
[15, 85, 1]
('# of model votes positive:', 2, ', # of models vote negative: ', 1)
('image name:', 'BI8')
('true label:', 0)
('result of model', 0, ': ', [25, 75, 0])
[25, 75, 0]
('result of model', 1, ': ', [42, 58, 0])
[42, 58, 0]
('result of model', 2, ': ', [13, 87, 0])
[13, 87, 0]
('# of model votes positive:', 3, ', # of models vote negative: ', 0)
+++++++++++++++++++++++++++++++++++++++++++++++++++++++++++++++++=
Wrong!
('image name:', 'D7')
('true label:', 0)
('result of model', 0, ': ', [100, 0, 0])
[100, 0, 0]
('result of model', 1, ': ', [36, 64, 0])
[36, 64, 0]
('result of model', 2, ': ', [12, 88, 0])
[12, 88, 0]
('# of model votes positive:', 2, ', # of models vote negative: ', 1)
+++++++++++++++++++++++++++++++++++++++++++++++++++++++++++++++++=
Wrong!
('image name:', 'BI6')
('true label:', 0)
('result of model', 0, ': ', [90, 10, 0])
[90, 10, 0]
('result of model', 1, ': ', [48, 52, 0])
[48, 52, 0]
('result of model', 2, ': ', [11, 89, 0])
[11, 89, 0]
('# of model votes positive:', 2, ', # of models vote negative: ', 1)
+++++++++++++++++++++++++++++++++++++++++++++++++++++++++++++++++=
Wrong!
('image name:', 'BI7')
('true label:', 0)
('result of model', 0, ': ', [83, 17, 0])
[83, 17, 0]
('result of model', 1, ': ', [41, 59, 0])
[41, 59, 0]
('result of model', 2, ': ', [12, 88, 0])
[12, 88, 0]
('# of model votes positive:', 2, ', # of models vote negative: ', 1)
+++++++++++++++++++++++++++++++++++++++++++++++++++++++++++++++++=
Wrong!
('image name:', 'BI5')
('true label:', 0)
('result of model', 0, ': ', [100, 0, 0])
[100, 0, 0]
('result of model', 1, ': ', [43, 57, 0])
[43, 57, 0]
('result of model', 2, ': ', [11, 89, 0])
[11, 89, 0]
('# of model votes positive:', 2, ', # of models vote negative: ', 1)
+++++++++++++++++++++++++++++++++++++++++++++++++++++++++++++++++=
Wrong!
('image name:', 'BI2')
('true label:', 1)
('result of model', 0, ': ', [100, 0, 1])
[100, 0, 1]
('result of model', 1, ': ', [29, 71, 1])
[29, 71, 1]
('result of model', 2, ': ', [6, 94, 1])
[6, 94, 1]
('# of model votes positive:', 2, ', # of models vote negative: ', 1)
('image name:', 'BI3')
('true label:', 1)
('result of model', 0, ': ', [97, 3, 1])
[97, 3, 1]
('result of model', 1, ': ', [37, 63, 1])
[37, 63, 1]
('result of model', 2, ': ', [9, 91, 1])
[9, 91, 1]
('# of model votes positive:', 2, ', # of models vote negative: ', 1)
('image name:', 'BI1')
('true label:', 1)
('result of model', 0, ': ', [100, 0, 1])
[100, 0, 1]
('result of model', 1, ': ', [37, 63, 1])
[37, 63, 1]
('result of model', 2, ': ', [11, 89, 1])
[11, 89, 1]
('# of model votes positive:', 2, ', # of models vote negative: ', 1)
('image name:', 'BA6')
('true label:', 0)
('result of model', 0, ': ', [100, 0, 0])
[100, 0, 0]
('result of model', 1, ': ', [32, 68, 0])
[32, 68, 0]
('result of model', 2, ': ', [9, 91, 0])
[9, 91, 0]
('# of model votes positive:', 2, ', # of models vote negative: ', 1)
+++++++++++++++++++++++++++++++++++++++++++++++++++++++++++++++++=
Wrong!
('image name:', 'BA4')
('true label:', 1)
('result of model', 0, ': ', [90, 10, 1])
[90, 10, 1]
('result of model', 1, ': ', [37, 63, 1])
[37, 63, 1]
('result of model', 2, ': ', [4, 96, 1])
[4, 96, 1]
('# of model votes positive:', 2, ', # of models vote negative: ', 1)
('image name:', 'CA8')
('true label:', 0)
('result of model', 0, ': ', [76, 24, 0])
[76, 24, 0]
('result of model', 1, ': ', [40, 60, 0])
[40, 60, 0]
('result of model', 2, ': ', [14, 86, 0])
[14, 86, 0]
('# of model votes positive:', 2, ', # of models vote negative: ', 1)
+++++++++++++++++++++++++++++++++++++++++++++++++++++++++++++++++=
Wrong!
('image name:', 'BA3')
('true label:', 1)
('result of model', 0, ': ', [85, 15, 1])
[85, 15, 1]
('result of model', 1, ': ', [43, 57, 1])
[43, 57, 1]
('result of model', 2, ': ', [11, 89, 1])
[11, 89, 1]
('# of model votes positive:', 2, ', # of models vote negative: ', 1)
('image name:', 'BA1')
('true label:', 1)
('result of model', 0, ': ', [91, 9, 1])
[91, 9, 1]
('result of model', 1, ': ', [43, 57, 1])
[43, 57, 1]
('result of model', 2, ': ', [3, 97, 1])
[3, 97, 1]
('# of model votes positive:', 2, ', # of models vote negative: ', 1)
('image name:', 'CA3')
('true label:', 1)
('result of model', 0, ': ', [75, 25, 1])
[75, 25, 1]
('result of model', 1, ': ', [37, 63, 1])
[37, 63, 1]
('result of model', 2, ': ', [10, 90, 1])
[10, 90, 1]
('# of model votes positive:', 2, ', # of models vote negative: ', 1)
('image name:', 'CA2')
('true label:', 1)
('result of model', 0, ': ', [45, 55, 1])
[45, 55, 1]
('result of model', 1, ': ', [34, 66, 1])
[34, 66, 1]
('result of model', 2, ': ', [12, 88, 1])
[12, 88, 1]
('# of model votes positive:', 3, ', # of models vote negative: ', 0)
('image name:', 'AI7')
('true label:', 0)
('result of model', 0, ': ', [100, 0, 0])
[100, 0, 0]
('result of model', 1, ': ', [32, 68, 0])
[32, 68, 0]
('result of model', 2, ': ', [9, 91, 0])
[9, 91, 0]
('# of model votes positive:', 2, ', # of models vote negative: ', 1)
+++++++++++++++++++++++++++++++++++++++++++++++++++++++++++++++++=
Wrong!
('image name:', 'AI6')
('true label:', 0)
('result of model', 0, ': ', [100, 0, 0])
[100, 0, 0]
('result of model', 1, ': ', [33, 67, 0])
[33, 67, 0]
('result of model', 2, ': ', [8, 92, 0])
[8, 92, 0]
('# of model votes positive:', 2, ', # of models vote negative: ', 1)
+++++++++++++++++++++++++++++++++++++++++++++++++++++++++++++++++=
Wrong!
('image name:', 'BX5')
('true label:', 0)
('result of model', 0, ': ', [79, 21, 0])
[79, 21, 0]
('result of model', 1, ': ', [39, 61, 0])
[39, 61, 0]
('result of model', 2, ': ', [20, 80, 0])
[20, 80, 0]
('# of model votes positive:', 2, ', # of models vote negative: ', 1)
+++++++++++++++++++++++++++++++++++++++++++++++++++++++++++++++++=
Wrong!
('image name:', 'CA6')
('true label:', 0)
('result of model', 0, ': ', [86, 14, 0])
[86, 14, 0]
('result of model', 1, ': ', [45, 55, 0])
[45, 55, 0]
('result of model', 2, ': ', [6, 94, 0])
[6, 94, 0]
('# of model votes positive:', 2, ', # of models vote negative: ', 1)
+++++++++++++++++++++++++++++++++++++++++++++++++++++++++++++++++=
Wrong!
('image name:', 'BA8')
('true label:', 0)
('result of model', 0, ': ', [93, 7, 0])
[93, 7, 0]
('result of model', 1, ': ', [34, 66, 0])
[34, 66, 0]
('result of model', 2, ': ', [7, 93, 0])
[7, 93, 0]
('# of model votes positive:', 2, ', # of models vote negative: ', 1)
+++++++++++++++++++++++++++++++++++++++++++++++++++++++++++++++++=
Wrong!
('image name:', 'BX6')
('true label:', 0)
('result of model', 0, ': ', [94, 6, 0])
[94, 6, 0]
('result of model', 1, ': ', [43, 57, 0])
[43, 57, 0]
('result of model', 2, ': ', [7, 93, 0])
[7, 93, 0]
('# of model votes positive:', 2, ', # of models vote negative: ', 1)
+++++++++++++++++++++++++++++++++++++++++++++++++++++++++++++++++=
Wrong!
('image name:', 'AZ8')
('true label:', 0)
('result of model', 0, ': ', [91, 9, 0])
[91, 9, 0]
('result of model', 1, ': ', [38, 62, 0])
[38, 62, 0]
('result of model', 2, ': ', [11, 89, 0])
[11, 89, 0]
('# of model votes positive:', 2, ', # of models vote negative: ', 1)
+++++++++++++++++++++++++++++++++++++++++++++++++++++++++++++++++=
Wrong!
('image name:', 'Y8')
('true label:', 0)
('result of model', 0, ': ', [100, 0, 0])
[100, 0, 0]
('result of model', 1, ': ', [37, 63, 0])
[37, 63, 0]
('result of model', 2, ': ', [14, 86, 0])
[14, 86, 0]
('# of model votes positive:', 2, ', # of models vote negative: ', 1)
+++++++++++++++++++++++++++++++++++++++++++++++++++++++++++++++++=
Wrong!
('image name:', 'BP3')
('true label:', 1)
('result of model', 0, ': ', [50, 50, 1])
[50, 50, 1]
('result of model', 1, ': ', [34, 66, 1])
[34, 66, 1]
('result of model', 2, ': ', [12, 88, 1])
[12, 88, 1]
('# of model votes positive:', 3, ', # of models vote negative: ', 0)
('image name:', 'BP5')
('true label:', 0)
('result of model', 0, ': ', [98, 2, 0])
[98, 2, 0]
('result of model', 1, ': ', [33, 67, 0])
[33, 67, 0]
('result of model', 2, ': ', [12, 88, 0])
[12, 88, 0]
('# of model votes positive:', 2, ', # of models vote negative: ', 1)
+++++++++++++++++++++++++++++++++++++++++++++++++++++++++++++++++=
Wrong!
('image name:', 'D8')
('true label:', 0)
('result of model', 0, ': ', [100, 0, 0])
[100, 0, 0]
('result of model', 1, ': ', [39, 61, 0])
[39, 61, 0]
('result of model', 2, ': ', [11, 89, 0])
[11, 89, 0]
('# of model votes positive:', 2, ', # of models vote negative: ', 1)
+++++++++++++++++++++++++++++++++++++++++++++++++++++++++++++++++=
Wrong!
('image name:', 'BP6')
('true label:', 0)
('result of model', 0, ': ', [100, 0, 0])
[100, 0, 0]
('result of model', 1, ': ', [42, 58, 0])
[42, 58, 0]
('result of model', 2, ': ', [13, 87, 0])
[13, 87, 0]
('# of model votes positive:', 2, ', # of models vote negative: ', 1)
+++++++++++++++++++++++++++++++++++++++++++++++++++++++++++++++++=
Wrong!
('image name:', 'BP8')
('true label:', 0)
('result of model', 0, ': ', [100, 0, 0])
[100, 0, 0]
('result of model', 1, ': ', [29, 71, 0])
[29, 71, 0]
('result of model', 2, ': ', [9, 91, 0])
[9, 91, 0]
('# of model votes positive:', 2, ', # of models vote negative: ', 1)
+++++++++++++++++++++++++++++++++++++++++++++++++++++++++++++++++=
Wrong!
('image name:', 'D4')
('true label:', 1)
('result of model', 0, ': ', [100, 0, 1])
[100, 0, 1]
('result of model', 1, ': ', [36, 64, 1])
[36, 64, 1]
('result of model', 2, ': ', [7, 93, 1])
[7, 93, 1]
('# of model votes positive:', 2, ', # of models vote negative: ', 1)
('image name:', 'D5')
('true label:', 0)
('result of model', 0, ': ', [60, 40, 0])
[60, 40, 0]
('result of model', 1, ': ', [45, 55, 0])
[45, 55, 0]
('result of model', 2, ': ', [13, 87, 0])
[13, 87, 0]
('# of model votes positive:', 2, ', # of models vote negative: ', 1)
+++++++++++++++++++++++++++++++++++++++++++++++++++++++++++++++++=
Wrong!
('image name:', 'Y5')
('true label:', 0)
('result of model', 0, ': ', [66, 34, 0])
[66, 34, 0]
('result of model', 1, ': ', [32, 68, 0])
[32, 68, 0]
('result of model', 2, ': ', [6, 94, 0])
[6, 94, 0]
('# of model votes positive:', 2, ', # of models vote negative: ', 1)
+++++++++++++++++++++++++++++++++++++++++++++++++++++++++++++++++=
Wrong!
('image name:', 'AA8')
('true label:', 0)
('result of model', 0, ': ', [67, 33, 0])
[67, 33, 0]
('result of model', 1, ': ', [41, 59, 0])
[41, 59, 0]
('result of model', 2, ': ', [8, 92, 0])
[8, 92, 0]
('# of model votes positive:', 2, ', # of models vote negative: ', 1)
+++++++++++++++++++++++++++++++++++++++++++++++++++++++++++++++++=
Wrong!
('image name:', 'Y7')
('true label:', 0)
('result of model', 0, ': ', [100, 0, 0])
[100, 0, 0]
('result of model', 1, ': ', [39, 61, 0])
[39, 61, 0]
('result of model', 2, ': ', [13, 87, 0])
[13, 87, 0]
('# of model votes positive:', 2, ', # of models vote negative: ', 1)
+++++++++++++++++++++++++++++++++++++++++++++++++++++++++++++++++=
Wrong!
Average Patch-wide accuracy is: 0.514943396226
Average Image-wide accuracy given by majority vote is: 0.514465408805
('correct_bagging:', 138)
Bagging accuracy given by input models is: 0.520754716981
