epoch,loss,acc,val_loss,val_acc
1,1.8935,0.6907,2.1181,0.5050
2,1.8119,0.7522,1.9097,0.6700
3,1.7752,0.7818,1.8321,0.7364
4,1.7546,0.7856,1.8201,0.7387
5,1.7394,0.8008,1.8798,0.7213
6,1.7193,0.8133,1.8771,0.7099
7,1.7055,0.8199,1.9379,0.6874
8,1.6937,0.8310,1.8162,0.7587
9,1.6736,0.8394,1.8148,0.7535
10,1.6683,0.8454,1.8857,0.7267
11,1.6564,0.8476,1.8623,0.7272
12,1.6463,0.8570,1.9235,0.7459
13,1.6353,0.8641,2.3132,0.6681
14,1.6230,0.8713,1.8413,0.7516
15,1.6112,0.8780,1.8734,0.7473
16,1.5901,0.8880,1.8663,0.7520
17,1.5901,0.8952,1.8497,0.7525
18,1.5848,0.8937,1.8894,0.7401
19,1.5731,0.9012,1.8784,0.7445
20,1.5752,0.9044,1.8303,0.7637
21,1.5624,0.9054,1.8454,0.7579
22,1.5683,0.9029,1.8370,0.7646
23,1.5590,0.9118,1.8372,0.7655
24,1.5642,0.9042,1.9410,0.7285
25,1.5570,0.9094,1.8557,0.7545
26,1.5600,0.9064,1.8679,0.7532
27,1.5536,0.9101,1.8497,0.7571
28,1.5591,0.9104,1.8658,0.7532
29,1.5500,0.9159,1.8430,0.7647
30,1.5567,0.9103,1.8578,0.7549
