[ 0.46961749]
[ 0.35809439]
[ 0.41850767]
[ 0.48265398]
[ 0.45971686]
[ 0.45823231]
[ 0.46968168]
[ 0.47766221]
[ 0.45239624]
[ 0.47824135]
[ 0.46187353]
[ 0.4856596]
[ 0.45813683]
[ 0.45560449]
[ 0.43621209]
[ 1.]
[ 0.42819276]
[ 0.3917436]
[ 0.48327219]
[ 0.36680079]
[ 0.44169009]
[ 0.99998939]
[ 0.48593503]
[ 0.42692906]
[ 0.42379078]
[ 0.45654833]
[ 0.37632197]
[ 0.43006426]
[ 0.46114534]
[ 0.46606272]
[ 0.43608293]
[ 0.4868719]
[ 0.5491088]
[ 0.46781933]
[ 0.48621663]
[ 0.45713589]
[ 0.41326922]
[ 0.47650281]
[ 0.33300152]
[ 0.32934231]
[ 0.40241686]
[ 0.45853004]
[ 0.4435581]
[ 0.4309085]
[ 0.42242813]
[ 0.42348579]
[ 0.46895635]
[ 0.45171356]
[ 0.33901826]
[ 0.53155518]
[ 0.44766116]
[ 0.41923919]
[ 0.45480761]
[ 0.48979419]
[ 0.30554327]
[ 0.94707108]
[ 0.40537578]
[ 0.46976906]
[ 0.39976183]
[ 0.46194527]
[ 0.45066506]
[ 0.45237771]
[ 0.45270073]
[ 0.40186736]
[ 0.39543962]
[ 0.44830683]
[ 0.44191998]
[ 0.4606488]
[ 0.45408222]
[ 0.44466344]
[ 0.48109412]
[ 0.47916016]
[ 0.46340704]
[ 0.64227337]
[ 0.45288628]
[ 0.45096087]
[ 0.47062212]
[ 0.48123658]
[ 0.45928463]
[ 0.40267423]
[ 0.43570656]
[ 0.4599869]
[ 0.42257184]
[ 0.45448643]
[ 0.51494932]
[ 0.46511781]
[ 0.4420802]
[ 0.43180221]
[ 0.415638]
[ 0.43222263]
[ 0.50678831]
[ 0.44136268]
[ 0.41089609]
[ 0.50788212]
[ 0.46034282]
[ 0.36881712]
[ 0.51593179]
[ 0.44972625]
[ 0.46213797]
[ 0.43755603]
[ 0.48205626]
[ 0.61293304]
[ 0.45555866]
[ 0.45352319]
[ 0.37515157]
[ 0.43629679]
[ 0.47632942]
[ 0.42054218]
[ 0.68503833]
[ 0.49357149]
[ 0.38963413]
[ 0.45103496]
[ 0.35600597]
[ 0.45625478]
[ 0.4298318]
[ 0.42608517]
[ 0.46308553]
[ 0.48016626]
[ 0.38151765]
[ 0.47150671]
[ 0.47151116]
[ 0.48348734]
[ 0.43823913]
[ 0.37092841]
[ 0.44437236]
[ 0.39711416]
[ 0.46481904]
[ 0.3421447]
[ 0.46231309]
[ 0.43726066]
[ 0.44327262]
[ 0.44508392]
[ 0.34415469]
[ 0.40784159]
[ 0.47996438]
[ 0.41510418]
[ 0.42243055]
[ 0.4588539]
[ 0.45712581]
[ 0.38342249]
[ 0.45408937]
[ 0.54268759]
[ 0.46291164]
[ 0.47858095]
[ 0.50545704]
[ 0.56901467]
[ 0.42856163]
[ 0.52249235]
[ 0.46477801]
[ 0.53720182]
[ 0.50430882]
[ 0.41318241]
[ 0.44680402]
[ 0.47902986]
[ 0.45276931]
[ 0.48663974]
[ 0.49884242]
[ 0.45281065]
[ 0.39727169]
[ 0.45431075]
[ 0.62121463]
[ 0.51781785]
[ 0.4735859]
[ 0.5200184]
[ 0.99998033]
[ 0.44992188]
[ 0.43599376]
[ 0.40161932]
[ 0.57886171]
[ 0.99572206]
[ 0.44981554]
[ 0.45147136]
[ 0.36508501]
[ 0.39338994]
[ 0.41552538]
[ 0.43895867]
[ 0.47829688]
[ 0.45780069]
[ 0.42208019]
[ 0.55467528]
[ 0.47644949]
[ 0.4716244]
[ 0.55378836]
[ 0.49319166]
[ 0.46354383]
[ 0.54319489]
[ 0.45985869]
[ 0.35775128]
[ 0.45491979]
[ 0.43950406]
[ 0.34554356]
[ 0.46572]
[ 0.44444001]
[ 0.44846606]
[ 0.44052652]
[ 0.29380956]
[ 0.38837636]
[ 0.45694125]
[ 0.44715825]
[ 0.45581666]
[ 0.44265434]
[ 0.30451986]
[ 0.39456996]
[ 0.52077645]
[ 0.45700878]
[ 0.46567252]
[ 0.42132366]
[ 0.4368355]
[ 0.47040614]
[ 0.41852745]
[ 0.27712467]
[ 0.46386254]
[ 0.42690408]
[ 0.44232851]
[ 0.43324468]
[ 0.45294526]
[ 0.33145043]
[ 0.45986733]
[ 0.49406621]
[ 0.46581152]
[ 0.48032296]
[ 0.45443243]
[ 0.33826828]
[ 0.47027704]
[ 0.47693339]
[ 0.46092489]
[ 0.4599666]
[ 0.4416486]
[ 0.46006998]
[ 0.42427683]
[ 0.46935782]
[ 0.55514395]
[ 0.44113117]
[ 0.24318635]
[ 0.48810819]
[ 0.51816356]
[ 0.46423918]
[ 0.43957543]
[ 0.38485014]
[ 0.50195062]
[ 0.43807271]
[ 0.47121722]
[ 0.43633825]
[ 0.42934227]
[ 0.44511211]
[ 0.46199009]
[ 0.45532727]
[ 0.49121419]
[ 0.46867839]
[ 0.50366151]
[ 0.52047336]
[ 0.49319676]
[ 0.45287451]
[ 0.47136933]
[ 0.43007615]
[ 0.4845289]
[ 0.46610689]
[ 0.4661383]
[ 0.50866193]
[ 0.47941133]
[ 0.41181132]
[ 0.44115508]
[ 0.39626193]
[ 0.45594355]
[ 0.44149238]
[ 0.45522931]
[ 0.46830484]
[ 0.45366359]
[ 0.50773686]
[ 0.48568636]
[ 0.46511957]
[ 0.48550275]
[ 0.45068225]
[ 0.39282346]
[ 0.47563699]
[ 0.45473957]
[ 0.43753514]
[ 0.47545722]
[ 0.91519612]
[ 0.46060923]
[ 0.6467827]
[ 0.50091761]
[ 0.50017506]
[ 0.28406855]
[ 0.46682552]
[ 0.46596688]
[ 0.45652369]
[ 0.51222533]
[ 0.45349956]
[ 0.35581973]
[ 0.46799511]
[ 1.]
[ 0.34279633]
[ 1.]
[ 0.45264083]
[ 0.33826798]
[ 0.52164006]
[ 0.4481003]
[ 0.40066758]
[ 0.38143158]
[ 0.45560074]
[ 0.42146429]
[ 0.45726791]
[ 0.5048064]
[ 0.38182199]
[ 0.44555336]
[ 0.44507354]
[ 0.38543156]
[ 0.45088902]
[ 0.46986338]
[ 0.49759376]
[ 0.47830966]
[ 0.99999988]
[ 0.44108605]
[ 0.5873071]
[ 0.46381068]
[ 0.36403683]
[ 0.6132983]
[ 0.46471378]
[ 0.52300066]
[ 0.44435066]
[ 0.40650493]
[ 0.44525501]
[ 0.51563364]
[ 0.51105833]
[ 0.45476422]
[ 0.44224951]
[ 0.26475096]
[ 0.48374978]
[ 0.48886225]
[ 0.42948905]
[ 0.49366194]
[ 0.30567062]
[ 0.23293485]
[ 0.36699462]
[ 0.41977319]
[ 0.4753525]
[ 0.45426714]
[ 0.37297308]
[ 0.4635596]
[ 0.55095989]
[ 0.41536427]
[ 0.31425449]
[ 0.44807455]
[ 0.44846109]
[ 0.37973261]
[ 0.45644259]
[ 0.46580791]
[ 0.44318494]
[ 0.54361516]
[ 0.52526957]
[ 0.47641972]
[ 0.42517564]
[ 0.47555405]
[ 0.43476364]
[ 0.45967242]
[ 0.45094812]
[ 0.46623954]
[ 0.45892665]
[ 0.4964124]
[ 0.42244428]
[ 0.50133401]
[ 0.49242532]
[ 0.46427286]
[ 0.48191401]
[ 0.47402468]
[ 0.46662676]
[ 0.46847191]
[ 0.47561342]
[ 0.43396959]
[ 0.44931236]
[ 0.30001292]
[ 0.43507916]
[ 0.4152995]
[ 0.31734213]
[ 0.31642315]
[ 0.44262895]
[ 0.31922665]
[ 0.42503464]
[ 0.45081171]
[ 0.40092191]
[ 0.45431292]
[ 0.46203375]
[ 0.40983951]
[ 0.51900125]
[ 0.51307184]
[ 0.31997135]
[ 0.31825092]
[ 0.40736845]
[ 0.4616093]
[ 0.48104683]
[ 0.42100278]
[ 0.423639]
[ 0.46867597]
[ 0.49098089]
[ 0.45601761]
[ 0.45207763]
[ 0.27045271]
[ 0.4224456]
[ 0.46006277]
[ 0.50835103]
[ 0.46444342]
[ 0.373243]
[ 0.47778583]
[ 0.48006633]
[ 0.45397538]
[ 0.46425146]
[ 0.42712945]
[ 0.40687805]
[ 0.48013029]
[ 0.41966012]
[ 0.53761858]
[ 0.45922872]
[ 0.4705385]
[ 0.46653545]
[ 0.46879363]
[ 0.47221029]
[ 0.42063275]
[ 0.4265964]
[ 0.48071039]
[ 0.42539856]
[ 0.44574997]
[ 0.42288476]
[ 0.47686878]
[ 0.43036857]
[ 0.42357022]
[ 1.]
[ 0.48207754]
[ 0.45300055]
[ 0.46142161]
[ 0.4221471]
[ 0.4440411]
[ 0.45300612]
[ 0.52381659]
[ 0.36092371]
[ 0.28436172]
[ 0.5778442]
[ 0.50500292]
[ 0.46302167]
[ 0.45689416]
[ 0.42906159]
[ 0.5160839]
[ 0.44767731]
[ 0.41384524]
[ 0.48282525]
[ 0.43873188]
[ 0.48443589]
[ 0.48829332]
[ 0.42881042]
[ 0.41215369]
[ 0.44080725]
[ 0.44423163]
[ 0.46659723]
[ 0.44927782]
[ 0.50698519]
[ 0.48197716]
[ 0.41228366]
[ 0.44276863]
[ 0.47000337]
[ 0.48626065]
[ 0.48465979]
[ 0.47243911]
[ 0.43372503]
[ 0.29884923]
[ 0.47541758]
[ 1.]
[ 0.47986069]
[ 0.43079105]
[ 0.45166558]
[ 0.46888021]
[ 0.44035104]
[ 0.42642617]
[ 0.45044789]
[ 0.42151666]
[ 0.41815981]
[ 0.41725227]
[ 0.53104222]
[ 0.46975014]
[ 0.5183351]
[ 0.50260049]
[ 0.43581831]
[ 0.46321937]
[ 0.44418901]
[ 0.99987149]
[ 0.46362233]
[ 0.4292905]
[ 0.55331308]
[ 0.45897323]
[ 0.44815394]
[ 0.4411369]
[ 0.48676166]
[ 0.41572765]
[ 0.48536399]
[ 0.48491469]
[ 0.65375537]
[ 0.44590873]
[ 0.45792788]
[ 0.44893101]
[ 0.51624179]
[ 0.57969767]
[ 0.43500701]
[ 0.44972804]
[ 0.29537162]
[ 0.46753961]
[ 0.44703037]
[ 0.52394539]
[ 0.48664081]
[ 0.44056264]
[ 0.50367707]
[ 0.45231527]
[ 0.44796932]
[ 0.44610584]
[ 0.46505201]
[ 0.41260675]
[ 0.44853243]
[ 0.48249856]
[ 0.39021122]
[ 0.49769321]
[ 0.63135463]
[ 0.41490081]
[ 0.44258574]
[ 0.52789265]
[ 0.76225245]
[ 0.49590018]
[ 0.46370873]
[ 1.]
[ 0.4538132]
[ 0.47075975]
[ 0.44711125]
[ 0.49639073]
[ 0.46336132]
[ 0.4703494]
[ 0.31899729]
[ 0.46932694]
[ 0.46942264]
[ 0.4809252]
[ 0.44172972]
[ 0.4406088]
[ 0.37185049]
[ 0.36079431]
[ 0.45431378]
[ 0.48555723]
[ 0.44049126]
[ 0.4078607]
[ 0.54847544]
[ 0.41380003]
[ 0.46732974]
[ 0.36726663]
[ 0.50577515]
[ 0.42615557]
[ 0.4746002]
[ 0.39554322]
[ 0.43412688]
[ 0.47610557]
[ 0.46986285]
[ 0.46692249]
[ 0.50012326]
[ 0.4363918]
[ 0.4739213]
[ 0.4172079]
[ 0.5512237]
[ 0.59908652]
[ 0.44575432]
[ 0.46061954]
[ 0.44868714]
[ 0.4669933]
[ 0.46731192]
[ 0.47750124]
[ 0.4785631]
[ 0.44621709]
[ 0.46601442]
[ 0.4223581]
[ 0.38523531]
[ 0.536273]
[ 0.4508045]
[ 0.51485735]
[ 0.45559746]
[ 0.45656034]
[ 0.38436657]
[ 0.49850222]
[ 0.46274459]
[ 0.44757584]
[ 0.40880579]
[ 0.55972564]
[ 0.39568853]
[ 0.48369899]
[ 0.54155838]
[ 0.50972301]
[ 0.37396741]
[ 0.52790183]
[ 0.45112413]
[ 0.42351949]
[ 0.17520854]
[ 0.43161365]
[ 0.45217696]
[ 0.47794977]
[ 0.43844488]
[ 0.46568638]
[ 0.37614343]
[ 0.89664233]
[ 0.42399311]
[ 0.32918096]
[ 0.49592653]
[ 0.45536789]
[ 0.47549695]
[ 0.47121653]
[ 0.44920322]
[ 0.41934308]
[ 0.43433315]
[ 0.58988208]
[ 0.48272568]
[ 0.30312818]
[ 0.43643522]
[ 0.43963164]
[ 0.42080155]
[ 0.45673278]
[ 0.47392115]
[ 0.44310492]
[ 0.39635369]
[ 0.45626712]
[ 0.46557957]
[ 0.41585922]
[ 0.47574905]
[ 0.38618594]
[ 0.45809779]
[ 0.46857062]
[ 0.45435745]
[ 0.37071666]
[ 0.44090644]
[ 0.49040702]
[ 0.4648923]
[ 0.39289212]
[ 0.47433805]
[ 0.4976576]
[ 0.3949368]
[ 0.97647971]
[ 0.49325341]
[ 0.46262428]
[ 0.53606665]
[ 0.47254542]
[ 0.49204445]
[ 0.50433666]
[ 0.99999964]
[ 0.43591821]
[ 0.43877071]
[ 0.41231233]
[ 0.42412779]
[ 0.48406598]
[ 0.43445706]
[ 0.47750014]
[ 0.41996172]
[ 0.54173505]
[ 0.46275339]
[ 0.42594463]
[ 0.99999845]
[ 0.86357039]
[ 0.97664338]
[ 0.44081333]
[ 0.40907252]
[ 0.50529313]
[ 0.43388736]
[ 0.51686513]
[ 0.46036696]
[ 0.46483666]
[ 0.50124115]
[ 0.45940116]
[ 0.43143478]
[ 0.45040599]
[ 0.45254287]
[ 0.42113113]
[ 0.45116097]
[ 0.42424431]
[ 0.49116254]
[ 0.49031207]
[ 0.45068252]
[ 0.41302595]
[ 0.44333258]
[ 0.45588773]
[ 0.43600577]
[ 0.48169929]
[ 0.46733212]
[ 0.47905886]
[ 0.43316305]
[ 0.4703573]
[ 0.49984896]
[ 0.44913498]
[ 0.45398319]
[ 0.35580787]
[ 0.52294171]
[ 0.36372238]
[ 0.42446214]
[ 0.47142181]
[ 0.52146566]
[ 0.44838122]
[ 0.47883654]
[ 0.40640208]
[ 0.45539019]
[ 0.32603323]
[ 0.36492074]
[ 0.51886052]
[ 0.4791311]
[ 0.44031626]
[ 0.46221924]
[ 0.4108679]
[ 0.5703755]
[ 0.45099345]
[ 0.44354868]
[ 0.45269692]
[ 0.4632538]
[ 0.43401656]
[ 0.46563789]
[ 0.63180119]
[ 0.51747495]
[ 0.45299634]
[ 0.99948347]
[ 0.45367223]
[ 0.48449749]
[ 0.40688545]
[ 0.30143774]
[ 0.46904013]
[ 0.44817424]
[ 0.42221695]
[ 0.56293333]
[ 0.48319659]
[ 0.4234857]
[ 0.47657812]
[ 0.47166166]
[ 0.43306494]
[ 0.46561339]
[ 0.41149738]
[ 0.46473408]
[ 0.47798935]
[ 0.41884434]
[ 0.47402576]
[ 0.46678051]
[ 0.43544194]
[ 0.35805988]
[ 0.45960149]
[ 0.44998264]
[ 0.48108667]
[ 0.35409853]
[ 0.46841416]
[ 0.47030815]
[ 0.47810945]
[ 0.45661929]
[ 0.46762434]
[ 0.49452153]
[ 0.45674759]
[ 0.44710848]
[ 0.42776489]
[ 0.44189021]
[ 0.49550954]
[ 0.3999244]
[ 0.44462976]
[ 0.45486772]
[ 0.50279486]
[ 0.52220899]
[ 0.45564303]
[ 0.46645126]
[ 0.46670008]
[ 0.47076878]
[ 0.49281985]
[ 0.45807058]
[ 0.51501513]
[ 0.43200362]
[ 0.297005]
[ 0.46466106]
[ 0.45451251]
[ 0.44442195]
[ 0.45727971]
[ 0.99422461]
[ 0.42208451]
[ 0.48692435]
[ 0.4312242]
[ 0.47738254]
[ 0.44233885]
[ 0.4312712]
[ 0.43717203]
[ 0.46783793]
[ 0.4309341]
[ 0.44577071]
[ 0.41886771]
[ 0.34024292]
[ 0.44240683]
[ 0.47856244]
[ 0.46151909]
[ 0.45793176]
[ 0.51129544]
[ 0.43158412]
[ 0.5269289]
[ 0.99970812]
[ 0.42817378]
[ 0.46902889]
[ 0.46110868]
[ 0.38913986]
[ 0.42317426]
[ 0.46603772]
[ 0.44758913]
[ 0.35466504]
[ 0.41064972]
[ 0.47603756]
[ 0.40522915]
[ 0.47608688]
[ 0.46205252]
[ 0.44645479]
[ 0.49606255]
[ 0.46232316]
[ 0.62699908]
[ 0.42494026]
[ 0.47087574]
[ 0.4576728]
[ 0.26564878]
[ 0.32774267]
[ 0.41034946]
[ 0.49251616]
[ 0.48728222]
[ 0.37364492]
[ 0.4726674]
[ 0.4763059]
[ 0.46138486]
[ 0.42660636]
[ 0.44462425]
[ 0.44874647]
[ 0.47068182]
[ 0.36880815]
[ 0.45318851]
[ 0.43516067]
[ 0.45218301]
[ 0.3088038]
[ 0.49625382]
[ 0.49106857]
[ 0.5070821]
[ 0.45368424]
[ 0.45135361]
[ 0.96341485]
[ 0.43507943]
[ 0.44643027]
[ 0.43722662]
[ 0.46871379]
[ 0.53779978]
[ 0.52363896]
[ 0.43564275]
[ 0.44453931]
[ 0.47144052]
[ 0.47921935]
[ 0.39008883]
[ 0.42926082]
[ 0.45901293]
[ 0.47781369]
[ 0.50588864]
[ 0.43551514]
[ 0.41757464]
[ 0.49609321]
[ 0.4233813]
[ 0.99503595]
[ 0.46429822]
[ 0.51651299]
[ 0.55254072]
[ 0.42784107]
[ 0.44412264]
[ 0.4845247]
[ 0.40489984]
[ 0.4625043]
[ 0.49243867]
[ 0.39922142]
[ 0.48641369]
[ 0.45917773]
[ 0.31779262]
[ 0.42898741]
[ 0.45601749]
[ 0.31899473]
[ 0.52488619]
[ 0.47546059]
[ 0.45567486]
[ 0.44259951]
[ 0.29056481]
[ 0.51437116]
[ 0.40653151]
[ 0.52308667]
[ 0.4210768]
[ 0.45682779]
[ 0.34116319]
[ 0.47072509]
[ 0.44274664]
[ 0.45143768]
[ 0.50436974]
[ 0.45757753]
[ 0.39262009]
[ 0.46341106]
[ 0.39878815]
[ 0.41360754]
[ 0.45534831]
[ 0.50520331]
[ 0.48402208]
[ 0.49192736]
[ 0.44759169]
[ 0.41861594]
[ 0.45027119]
[ 0.46096095]
[ 0.43839511]
[ 0.40309551]
[ 0.42657086]
[ 0.42886904]
[ 0.44431752]
[ 0.48727316]
[ 0.46908429]
[ 0.46819016]
[ 0.46636137]
[ 0.45577171]
[ 0.44850847]
[ 0.4406406]
[ 0.48476735]
[ 0.48688251]
[ 0.56847805]
[ 0.44568926]
[ 0.45209002]
[ 0.46894991]
[ 0.38843808]
[ 0.46331608]
[ 0.41201574]
[ 0.45393297]
[ 0.45973423]
[ 0.4361017]
[ 0.4777768]
[ 0.48451412]
[ 0.63551611]
[ 0.3925094]
[ 0.49020123]
[ 0.43299386]
[ 0.47539619]
[ 0.4139986]
[ 0.45914134]
[ 0.57916063]
[ 0.41860357]
[ 0.47835842]
[ 0.44905281]
[ 0.44726866]
[ 0.41847402]
[ 0.40243778]
[ 0.44157484]
[ 0.41678146]
[ 0.45438662]
[ 0.44956341]
[ 0.43210387]
[ 0.74219388]
[ 0.4378157]
[ 0.59008801]
[ 0.45683983]
[ 0.45268822]
[ 0.45562091]
[ 0.41578925]
[ 0.46150324]
[ 0.44922584]
[ 0.47292897]
[ 0.26541534]
[ 0.52755338]
[ 0.47208953]
[ 0.30899873]
[ 0.37562016]
[ 0.4877691]
[ 0.43842104]
[ 0.46527693]
[ 0.43915755]
[ 0.47719663]
[ 0.53175634]
[ 0.46099809]
[ 0.5630964]
[ 0.3889786]
[ 0.46505147]
[ 0.42677906]
[ 0.47405043]
[ 0.39844164]
[ 0.45365071]
[ 0.4601073]
[ 0.54798347]
[ 0.44995859]
[ 0.69135416]
[ 0.4525252]
[ 0.42793208]
[ 0.52599299]
[ 0.52084947]
[ 0.4484188]
[ 0.46157521]
[ 0.46887097]
[ 0.44741324]
[ 0.99913245]
[ 0.45303452]
[ 0.44766149]
[ 0.44670311]
[ 0.97265673]
[ 0.47836459]
[ 0.48482695]
[ 0.39021632]
[ 0.47890276]
[ 0.42679423]
[ 0.44095629]
[ 0.4525857]
[ 0.47860405]
[ 0.9041816]
[ 0.4188523]
[ 0.46425286]
[ 0.45880345]
[ 0.43589222]
[ 0.3571682]
[ 0.4593097]
[ 0.44518596]
[ 0.59399527]
[ 0.52442986]
[ 0.4723258]
[ 0.40231606]
[ 0.45786884]
[ 0.66532063]
[ 0.99218231]
[ 0.41445053]
[ 0.486516]
[ 0.43918753]
[ 0.46926835]
[ 0.48635635]
[ 0.45439333]
[ 0.31700969]
[ 0.4588407]
[ 0.40416953]
[ 0.47595447]
[ 0.48565724]
[ 0.53666735]
[ 0.43875]
[ 0.39444736]
[ 0.75794774]
[ 0.4018378]
[ 0.40027389]
[ 0.44404694]
[ 0.48162445]
[ 0.4173716]
[ 0.41008827]
[ 0.44990101]
[ 0.45008826]
[ 0.44804132]
[ 0.37789962]
[ 0.2831696]
[ 0.41100562]
[ 0.41988313]
[ 0.61306]
[ 0.4345088]
[ 0.41432804]
[ 0.52645981]
[ 0.43724951]
[ 0.47213492]
[ 0.42350408]
[ 0.29445365]
[ 0.42696878]
[ 0.46922916]
[ 0.42577603]
[ 0.50904334]
[ 0.36852294]
[ 0.44717339]
[ 0.45838156]
[ 0.37171531]
[ 0.4827638]
[ 0.48565078]
[ 0.45632976]
[ 0.46702716]
[ 0.48370999]
[ 0.44778189]
[ 0.47474998]
[ 0.99999511]
[ 0.47202069]
[ 0.38803259]
[ 0.44559607]
[ 0.48002458]
[ 0.39770856]
[ 0.52970213]
[ 0.45218876]
[ 0.46834636]
[ 0.46039274]
[ 0.52073294]
[ 0.43306506]
[ 0.48079145]
[ 0.44305348]
[ 0.4893153]
[ 0.44398049]
[ 0.45070574]
[ 0.63709408]
[ 0.5038923]
[ 0.45559567]
[ 0.44502437]
[ 0.44262484]
[ 0.43645802]
[ 0.39891902]
[ 0.49605709]
[ 0.41845608]
[ 0.40839306]
[ 0.39403078]
[ 0.41837347]
[ 0.43075761]
[ 0.41981494]
[ 0.44508615]
[ 0.4344891]
[ 0.99999988]
[ 0.4626672]
[ 0.44175786]
[ 0.46098825]
[ 0.45152032]
[ 0.45623091]
[ 0.45793369]
[ 0.45699254]
[ 0.44714278]
[ 0.52921551]
[ 0.43140197]
[ 0.44247642]
[ 0.29714894]
[ 0.42491427]
[ 0.41702831]
[ 0.4566893]
[ 0.49057055]
[ 0.48950878]
[ 0.49452946]
[ 0.44815722]
[ 0.46482688]
[ 0.4517501]
[ 0.33710027]
[ 0.41484234]
[ 0.45091683]
[ 0.49346653]
[ 0.39983717]
[ 0.41590074]
[ 0.41719851]
[ 0.46742716]
[ 0.38666409]
[ 0.518323]
[ 0.45212343]
[ 0.45681763]
[ 0.43075344]
[ 0.47149304]
[ 0.45394993]
[ 0.43970755]
[ 0.46021032]
[ 0.37811363]
[ 0.47558478]
[ 0.32633081]
[ 0.3671]
[ 0.47452784]
[ 1.]
[ 0.48206612]
[ 0.4570744]
[ 0.38386649]
[ 0.46655104]
[ 0.45394099]
[ 0.4054634]
[ 0.47814813]
[ 0.39252448]
[ 0.49986449]
[ 0.33733889]
[ 0.4529447]
[ 0.37098029]
[ 0.73294461]
[ 0.40627733]
[ 0.4576022]
[ 0.47006658]
[ 0.43765292]
[ 0.50005352]
[ 0.44683579]
[ 0.35761636]
[ 0.47705528]
[ 0.27438304]
[ 0.98051524]
[ 0.47836244]
[ 0.43555537]
[ 0.44087592]
[ 0.41720667]
[ 0.45963198]
[ 0.46606931]
[ 0.46935704]
[ 0.43466973]
[ 0.49782735]
[ 0.63510484]
[ 0.42600754]
[ 0.39295059]
[ 0.44190106]
[ 0.99994528]
[ 0.44402707]
[ 0.45793974]
[ 0.45418775]
[ 0.44945422]
[ 0.44978374]
[ 0.39984235]
[ 0.46170825]
[ 0.4634988]
[ 0.44560316]
[ 0.49060857]
[ 0.45423585]
[ 0.47148249]
[ 0.38351962]
[ 0.45131165]
[ 0.55814308]
[ 0.42878222]
[ 0.44213277]
[ 0.87783182]
[ 0.49492732]
[ 0.46341434]
[ 0.49786642]
[ 0.40587318]
[ 0.38780811]
[ 0.36394572]
[ 0.51092857]
[ 0.46062669]
[ 0.48206988]
[ 0.41068622]
[ 0.43745404]
[ 0.45341513]
[ 0.41900578]
[ 0.41752857]
[ 0.47082177]
[ 0.43616056]
[ 0.44044009]
[ 0.47822621]
[ 0.36230856]
[ 0.47988266]
[ 0.46672654]
[ 0.38228324]
[ 0.52780426]
[ 0.45557836]
[ 0.4449302]
[ 0.46254918]
[ 0.71466118]
[ 0.47261217]
[ 0.4313128]
[ 0.49794734]
[ 0.45032427]
[ 0.43442446]
[ 0.46042135]
[ 0.47958779]
[ 0.49789426]
[ 0.3695789]
[ 0.52354485]
[ 0.33055726]
[ 0.42707714]
[ 0.57669795]
[ 0.44112632]
[ 0.45531642]
[ 0.4555442]
[ 0.48639458]
[ 0.45458573]
[ 0.45038286]
[ 0.48253831]
[ 0.5686056]
[ 0.41105926]
[ 0.46876764]
[ 0.33263764]
[ 0.45917866]
[ 0.45810825]
[ 0.48137322]
[ 0.4392854]
[ 0.46383274]
[ 0.49179602]
[ 0.41566736]
[ 0.84219617]
[ 0.28639516]
[ 0.51988697]
[ 0.42701229]
[ 0.46800637]
[ 0.46659285]
[ 0.47216627]
[ 0.41082561]
[ 0.42694902]
[ 0.44857177]
[ 0.51265961]
[ 0.45452824]
[ 0.51752841]
[ 0.44584882]
[ 0.45206034]
[ 0.49917334]
[ 0.45410681]
[ 0.40248582]
[ 0.46289974]
[ 0.44256878]
[ 0.37401795]
[ 0.45157579]
[ 0.45862073]
[ 0.58781523]
[ 0.460361]
[ 0.45758963]
[ 0.43882778]
[ 0.45556223]
[ 0.46047705]
[ 0.4651894]
[ 0.4494009]
[ 0.36209992]
[ 0.51626229]
[ 0.42459577]
[ 0.46407527]
[ 0.44348699]
[ 0.47396865]
[ 0.51421285]
[ 0.51494616]
[ 0.45998219]
[ 0.45169988]
[ 0.39462787]
[ 0.44313133]
[ 0.4861055]
[ 0.39824104]
[ 1.]
[ 0.43625292]
[ 0.44178164]
[ 0.46648699]
[ 0.4177269]
[ 0.44540012]
[ 0.44400707]
[ 0.44376868]
[ 0.59664404]
[ 0.55967307]
[ 0.43600941]
[ 0.44818687]
[ 0.43325371]
[ 0.40659037]
[ 0.53006405]
[ 0.2942577]
[ 1.]
[ 0.46400875]
[ 0.3977122]
[ 0.48541939]
[ 0.37923881]
[ 0.41981408]
[ 0.49947697]
[ 0.44480208]
[ 0.45399603]
[ 0.43981421]
[ 0.41526604]
[ 0.6658082]
[ 0.45631075]
[ 0.51799744]
[ 0.99967957]
[ 0.52428472]
[ 0.46601743]
[ 0.37191051]
[ 0.55249858]
[ 0.50662047]
[ 0.45954847]
[ 0.42803505]
[ 0.4821023]
[ 0.34766889]
[ 0.51963449]
[ 0.50180203]
[ 0.47649413]
[ 0.32726455]
[ 0.43579739]
[ 0.24975571]
[ 0.44604284]
[ 0.50861818]
[ 0.50089866]
[ 0.34884301]
[ 0.47316906]
[ 0.39828667]
[ 0.44010901]
[ 0.42529359]
[ 0.45504248]
[ 0.39446458]
[ 0.400778]
[ 0.46178597]
[ 0.3270492]
[ 0.34421071]
[ 0.44477364]
[ 0.56581914]
[ 0.43420294]
[ 0.43773645]
[ 0.49222779]
[ 0.44789091]
[ 0.69967759]
[ 0.41431445]
[ 0.29270867]
[ 0.56395477]
[ 0.5651322]
[ 0.30847394]
[ 0.42015272]
[ 0.44519797]
[ 0.43466035]
[ 0.40711248]
[ 0.45203918]
[ 0.20856194]
[ 0.47382861]
[ 0.47940657]
[ 0.43046141]
[ 0.48414364]
[ 0.45447072]
[ 0.42569709]
[ 0.37924057]
[ 0.46401736]
[ 0.36546302]
[ 0.44590324]
[ 0.42164385]
[ 0.39007375]
[ 0.54700434]
[ 0.47177523]
[ 0.4272334]
[ 0.46799341]
[ 0.40545464]
[ 0.47700891]
[ 0.52705663]
[ 0.4579725]
[ 0.54071158]
[ 0.43937531]
[ 0.44380149]
[ 0.47337413]
[ 0.42954242]
[ 0.43116659]
[ 0.47513655]
[ 0.4661527]
[ 0.41329071]
[ 0.42437342]
[ 0.39909229]
[ 0.50018346]
[ 0.42217427]
[ 0.46909091]
[ 0.55329025]
[ 0.42171365]
[ 0.48662832]
[ 0.45363247]
[ 0.37568039]
[ 0.4718065]
[ 0.44567314]
[ 0.45161051]
[ 0.43871528]
[ 0.44537866]
[ 0.40456533]
[ 0.47381628]
[ 0.41369352]
[ 0.4845767]
[ 0.45164964]
[ 0.28108987]
[ 0.36788887]
[ 0.47660649]
[ 1.]
[ 0.53281498]
[ 0.45273864]
[ 0.46276063]
[ 0.44615918]
[ 0.47765884]
[ 0.99999583]
[ 0.43060684]
[ 0.40191087]
[ 0.4646062]
[ 0.46855825]
[ 0.41619861]
[ 0.44985181]
[ 0.45965993]
[ 0.59631521]
[ 0.52080816]
[ 0.52505529]
[ 0.43499947]
[ 1.]
[ 0.41695216]
[ 0.38533458]
[ 0.4189539]
[ 0.4581545]
[ 0.45875478]
[ 0.35175774]
[ 0.41824159]
[ 0.46628419]
[ 0.27450135]
[ 0.43018848]
[ 0.98633677]
[ 0.45410287]
[ 0.49970323]
[ 0.45223859]
[ 0.46033594]
[ 0.37233198]
[ 0.45091596]
[ 0.46836707]
[ 0.44120222]
[ 0.46290469]
[ 0.44594818]
[ 0.39373198]
[ 0.51860261]
[ 0.42164758]
[ 0.52106702]
[ 0.9995963]
[ 0.49504623]
[ 0.45693308]
[ 0.46784967]
[ 0.50443786]
[ 0.46818849]
[ 0.45440629]
[ 0.36467561]
[ 0.39397091]
[ 0.44988635]
[ 0.49435279]
[ 0.5517242]
[ 0.42900279]
[ 0.41923806]
[ 0.44256583]
[ 0.36668003]
[ 0.47915566]
[ 0.31756628]
[ 0.53223681]
[ 0.43827179]
[ 0.50436211]
[ 0.504668]
[ 0.61246908]
[ 0.43549585]
[ 0.44540888]
[ 0.48032868]
[ 0.45142031]
[ 0.37797555]
[ 0.42300352]
[ 0.36337671]
[ 0.46467847]
[ 0.53809917]
[ 0.4554978]
[ 0.44889635]
[ 0.46664217]
[ 0.45014355]
[ 0.42047536]
[ 0.45999193]
[ 0.42290166]
[ 0.41720271]
[ 0.4595446]
[ 0.48820478]
[ 0.50255406]
[ 0.46984068]
[ 0.49022669]
[ 0.44830903]
[ 0.41422173]
[ 0.4484767]
[ 0.63749683]
[ 0.51163274]
[ 0.51285648]
[ 0.46215069]
[ 0.99998665]
[ 0.46854225]
[ 0.51867622]
[ 0.50087166]
[ 0.3485111]
[ 0.59898615]
[ 0.45249045]
[ 0.43249512]
[ 0.46377212]
[ 0.43813977]
[ 0.43228078]
[ 0.47379476]
[ 0.5150004]
[ 0.43951693]
[ 0.40498057]
[ 0.51637149]
[ 0.37230632]
[ 0.45433825]
[ 0.47541681]
[ 0.52971917]
[ 0.34949672]
[ 0.46073765]
[ 0.45393619]
[ 0.4028461]
[ 0.42064556]
[ 0.46097797]
[ 0.47560194]
[ 0.44205537]
[ 0.23228087]
[ 0.36983761]
[ 0.44412166]
[ 0.4182063]
[ 0.24402255]
[ 0.45718014]
[ 0.49017668]
[ 0.47902262]
[ 0.43351978]
[ 0.45523351]
[ 0.37058455]
[ 0.40596652]
[ 0.56739992]
[ 0.47368392]
[ 0.51854444]
[ 0.46218842]
[ 0.43808708]
[ 0.4341732]
[ 0.45281237]
[ 0.48036686]
[ 0.37047055]
[ 0.44528866]
[ 0.47574377]
[ 0.45845321]
[ 0.49875855]
[ 0.46941945]
[ 0.54004347]
[ 0.4469763]
[ 0.45011777]
[ 0.47621635]
[ 0.46161458]
[ 0.45847896]
[ 0.32206541]
[ 0.51744956]
[ 0.47274634]
[ 0.48430565]
[ 0.44655657]
[ 0.40205687]
[ 0.37430793]
[ 0.46741995]
[ 0.39775312]
[ 0.52040547]
[ 0.40992865]
[ 0.4702628]
[ 0.45123681]
[ 0.69182807]
[ 0.43808749]
[ 0.43821964]
[ 0.41354164]
[ 0.4507643]
[ 0.4637875]
[ 0.43879741]
[ 0.4617736]
[ 0.50630277]
[ 0.39001533]
[ 0.42400876]
[ 0.46547124]
[ 0.48843583]
[ 0.53510106]
[ 0.47335884]
[ 0.48388243]
[ 0.47011465]
[ 0.4314808]
[ 0.34693971]
[ 0.47869188]
[ 0.38484684]
[ 0.46322766]
[ 0.44452861]
[ 0.44770896]
[ 0.4551858]
[ 0.52925611]
[ 0.38074374]
[ 0.44778094]
[ 0.46852973]
[ 0.4319866]
[ 0.51119071]
[ 0.27667353]
[ 0.45366889]
[ 0.46484846]
[ 0.44740263]
[ 0.45477438]
[ 0.49911964]
[ 0.48636332]
[ 0.45336312]
[ 0.48309243]
[ 0.29317567]
[ 0.43120706]
[ 0.41643098]
[ 0.46236053]
[ 0.50048858]
[ 0.46251792]
[ 0.34157839]
[ 0.45081311]
[ 0.45416248]
[ 0.4353081]
[ 0.47700939]
[ 0.44948763]
[ 0.41379219]
[ 0.44225061]
[ 0.43606398]
[ 0.46810949]
[ 0.43070531]
[ 0.57069701]
[ 0.47081634]
[ 0.5233826]
[ 0.47753549]
[ 0.45248395]
[ 0.49611816]
[ 0.469868]
[ 0.5304715]
[ 0.4811849]
[ 0.41820455]
[ 0.47065181]
[ 0.48778719]
[ 0.47954935]
[ 0.46503654]
[ 0.47573027]
[ 0.46498698]
[ 0.36305463]
[ 0.45293009]
[ 0.48209381]
[ 0.46902156]
[ 0.4134208]
[ 0.42616275]
[ 0.43655896]
[ 0.42539796]
[ 0.27897668]
[ 0.45937449]
[ 0.52125049]
[ 0.41826102]
[ 0.4109621]
[ 0.58873516]
[ 0.63565111]
[ 0.52918309]
[ 0.47103015]
[ 0.42120114]
[ 0.47823912]
[ 0.44262856]
[ 0.46251181]
[ 0.43662867]
[ 0.48048154]
[ 0.43528721]
[ 0.46231955]
[ 1.]
[ 0.4611536]
[ 0.49244851]
[ 0.48741528]
[ 0.45948368]
[ 0.42846432]
[ 0.45882648]
[ 0.45450485]
[ 0.36735779]
[ 0.45130634]
[ 0.47907418]
[ 0.49726194]
[ 0.95269793]
[ 0.42101461]
[ 0.42410526]
[ 0.43654871]
[ 0.46414456]
[ 0.48048791]
[ 0.4815253]
[ 0.44693792]
[ 0.4468182]
[ 0.36765257]
[ 0.33257779]
[ 0.49452326]
[ 0.4368822]
[ 0.45976594]
[ 0.50794214]
[ 0.43491268]
[ 0.27485549]
[ 0.44936359]
[ 0.47187251]
[ 0.46853548]
[ 0.47972602]
[ 0.42723417]
[ 0.41225964]
[ 0.45070705]
[ 0.41328388]
[ 0.42225757]
[ 0.47213396]
[ 0.48140177]
[ 0.48149744]
[ 0.46242216]
[ 0.50713396]
[ 0.54265547]
[ 0.46814939]
[ 0.52433658]
[ 0.39516655]
[ 0.53706461]
[ 0.49024478]
[ 0.38696828]
[ 0.65262824]
[ 0.4242343]
[ 0.45305285]
[ 0.44139743]
[ 0.6382702]
[ 0.46558982]
[ 0.56861979]
[ 0.40433356]
[ 0.38859832]
[ 0.39338413]
[ 0.51073492]
[ 0.44271508]
[ 0.43905535]
[ 0.45328331]
[ 0.43988377]
[ 0.45063615]
[ 0.54833645]
[ 0.45732883]
[ 0.34433332]
[ 0.45465276]
[ 0.39116615]
[ 0.45996061]
[ 0.47891149]
[ 0.49431297]
[ 0.44069731]
[ 0.4686124]
[ 0.45278439]
[ 0.47456041]
[ 0.49765676]
[ 0.47446439]
[ 0.44789597]
[ 0.44731131]
[ 0.51331806]
[ 0.43562725]
[ 0.40421495]
[ 0.44370326]
[ 0.52149302]
[ 0.49227881]
[ 0.5103842]
[ 0.47893885]
[ 0.45048019]
[ 0.42855921]
[ 0.47066173]
[ 0.4673399]
[ 0.45102617]
[ 0.51746386]
[ 0.43977731]
[ 0.48371017]
[ 0.42493844]
[ 0.19358641]
[ 0.47157943]
[ 0.50072134]
[ 0.4438169]
[ 0.44605601]
[ 0.53830189]
[ 0.33954427]
[ 0.47105819]
[ 0.4437443]
[ 0.54745972]
[ 0.51036125]
[ 0.45969796]
[ 0.4684568]
[ 0.44008139]
[ 0.53416181]
[ 0.35604864]
[ 0.35715541]
[ 0.58701867]
[ 0.60943961]
[ 0.40904516]
[ 0.42961749]
[ 0.48149511]
[ 0.5204336]
[ 0.60013056]
[ 0.48026904]
[ 0.42784107]
[ 0.44510368]
[ 0.51920152]
[ 0.48317349]
[ 0.48016009]
[ 0.41743541]
[ 0.45958638]
[ 0.50417739]
[ 0.57053858]
[ 0.48387143]
[ 0.44983864]
[ 0.37737864]
[ 0.45352742]
[ 0.43191579]
[ 0.59864223]
[ 0.42100182]
[ 0.55382305]
[ 0.4670532]
[ 0.39077255]
[ 0.42153639]
[ 0.43203756]
[ 0.43233347]
[ 0.41472051]
[ 0.48240831]
[ 0.44558337]
[ 0.54959065]
[ 0.44307417]
[ 0.47973704]
[ 0.99999535]
[ 0.45115706]
[ 0.4423891]
[ 0.48751023]
[ 0.49697605]
[ 0.41010582]
[ 0.41255403]
[ 0.45009717]
[ 0.49726883]
[ 0.43426138]
[ 0.52346325]
[ 0.40357438]
[ 0.4903343]
[ 0.44678247]
[ 0.42026961]
[ 0.44691685]
[ 0.4780094]
[ 0.45464256]
[ 0.4549565]
[ 0.46480438]
[ 0.43945]
[ 0.41668874]
[ 0.45472562]
[ 0.56701612]
[ 0.46205467]
[ 0.44440141]
[ 0.4680388]
[ 0.36709455]
[ 0.55206585]
[ 0.47582757]
[ 0.45413813]
[ 0.43424302]
[ 0.44885156]
[ 0.43171591]
[ 0.375646]
[ 0.48005825]
[ 0.45445734]
[ 0.43285099]
[ 0.46304277]
[ 0.40936211]
[ 0.26151612]
[ 0.46147674]
[ 0.99989653]
[ 0.43872389]
[ 0.46660367]
[ 0.45222932]
[ 0.43762666]
[ 0.45865864]
[ 0.41526154]
[ 0.40978068]
[ 0.5248149]
[ 0.45598617]
[ 0.37793311]
[ 0.44368684]
[ 0.4990612]
[ 0.38277331]
[ 0.43263039]
[ 0.43180272]
[ 0.45674223]
[ 0.41621414]
[ 0.48322916]
[ 0.64172101]
[ 0.45406985]
[ 0.38082579]
[ 0.40993044]
[ 0.40762112]
[ 0.4475216]
[ 0.46783578]
[ 0.50798249]
[ 0.48261759]
[ 0.37853444]
[ 0.42675352]
[ 0.44888085]
[ 0.42321333]
[ 0.4633069]
[ 0.51715493]
[ 0.42731917]
[ 0.5044207]
[ 0.49467853]
[ 0.38507161]
[ 0.38672522]
[ 0.5251447]
[ 0.46798372]
[ 0.4064942]
[ 0.47745711]
[ 0.48032472]
[ 0.45798504]
[ 0.49608999]
[ 0.42785189]
[ 0.446886]
[ 0.51535195]
[ 0.52027178]
[ 0.46865973]
[ 0.43929598]
[ 0.44407827]
[ 0.44907448]
[ 0.47609964]
[ 0.47728747]
[ 0.38292384]
[ 0.4709045]
[ 0.36474842]
[ 0.34608757]
[ 0.42872894]
[ 0.53331089]
[ 0.46061704]
[ 0.46769476]
[ 0.46237487]
[ 0.45706385]
[ 0.4642674]
[ 0.44606608]
[ 0.49967304]
[ 0.4531326]
[ 0.45252147]
[ 0.45385081]
[ 0.46126932]
[ 0.45458376]
[ 0.4188098]
[ 0.43147725]
[ 0.46077389]
[ 0.68865657]
[ 0.39562404]
[ 0.44340533]
[ 0.51659971]
[ 0.45718378]
[ 0.48777583]
[ 0.48535028]
[ 0.37583154]
[ 0.40288937]
[ 0.4506436]
[ 0.96156669]
[ 0.46731532]
[ 0.32662231]
[ 0.2812151]
[ 0.53446203]
[ 0.42510214]
[ 0.47057936]
[ 0.40382946]
[ 0.45743701]
[ 0.35535559]
[ 0.39838091]
[ 0.4639914]
[ 0.34837812]
[ 0.40292993]
[ 0.52946931]
[ 0.47498578]
[ 0.46212676]
[ 0.46559942]
[ 0.37718385]
[ 0.43358174]
[ 0.39982033]
[ 0.44732267]
[ 0.44139966]
[ 0.46324781]
[ 0.44594401]
[ 0.41294029]
[ 0.5191251]
[ 0.42979658]
[ 0.43144143]
[ 0.4713147]
[ 0.41391394]
[ 0.42419127]
[ 0.47098711]
[ 0.46564573]
[ 0.44944409]
[ 0.48025388]
[ 0.47465554]
[ 0.44795215]
[ 0.63958073]
[ 0.44949058]
[ 0.38509971]
[ 0.3423973]
[ 0.50061649]
[ 0.51759636]
[ 0.36287999]
[ 0.46955004]
[ 0.4755176]
[ 0.38567823]
[ 0.43961164]
[ 0.45525584]
[ 0.44965759]
[ 0.47313735]
[ 1.]
[ 0.44505894]
[ 0.44981527]
[ 0.59878129]
[ 0.53496873]
[ 0.47654086]
[ 0.53607482]
[ 0.44797674]
[ 0.46457347]
[ 0.45571914]
[ 0.43530744]
[ 0.49093026]
[ 1.]
[ 0.44298366]
[ 0.48740831]
[ 0.63543278]
[ 0.51158828]
[ 0.45401633]
[ 0.45842329]
[ 0.45103234]
[ 0.46394381]
[ 0.45633662]
[ 0.40561843]
[ 0.42575997]
[ 0.45400301]
[ 0.38739768]
[ 0.37840596]
[ 0.38695624]
[ 0.44571429]
[ 0.41462538]
[ 0.45186159]
[ 0.42560524]
[ 1.]
[ 0.45025349]
[ 0.44253337]
[ 0.47572473]
[ 0.46092549]
[ 0.81873304]
[ 0.46251526]
[ 0.4700031]
[ 0.4559947]
[ 0.47455993]
[ 0.4621796]
[ 0.39943817]
[ 0.45510271]
[ 0.36420786]
[ 0.39746386]
[ 0.45014331]
[ 0.51107937]
[ 0.4921515]
[ 0.38731658]
[ 0.45843282]
[ 0.46213362]
[ 0.48494458]
[ 0.42859489]
[ 0.44453752]
[ 0.35336226]
[ 0.52821499]
[ 0.4437505]
[ 0.44610217]
[ 0.43437093]
[ 0.46529159]
[ 0.43402043]
[ 0.44355407]
[ 0.4942205]
[ 0.46356422]
[ 0.93665642]
[ 0.51120859]
[ 0.46043894]
[ 0.47560474]
[ 0.41991186]
[ 0.47447217]
[ 0.44371834]
[ 0.51032108]
[ 0.37624413]
[ 0.44728088]
[ 0.43745092]
[ 0.37909424]
[ 0.54094392]
[ 0.5184499]
[ 0.46376175]
[ 0.41694283]
[ 0.51258922]
[ 0.47983798]
[ 0.78309077]
[ 0.51365936]
[ 0.39031842]
[ 0.52202559]
[ 0.31899291]
[ 0.45394894]
[ 0.46785852]
[ 0.50267798]
[ 0.47196364]
[ 0.46625426]
[ 0.49985877]
[ 0.50589806]
[ 0.48694175]
[ 0.39169481]
[ 0.42749313]
[ 0.46241635]
[ 0.4533371]
[ 0.46221882]
[ 0.48017547]
[ 0.47454286]
[ 0.49884504]
[ 0.4406434]
[ 0.49222022]
[ 0.43623397]
[ 0.42140654]
[ 0.47295585]
[ 0.43177631]
[ 0.43402869]
[ 0.44253525]
[ 0.44401738]
[ 0.46084872]
[ 0.45190838]
[ 0.51499397]
[ 0.44418904]
[ 0.49010134]
[ 0.41657692]
[ 0.48823515]
[ 0.49466243]
[ 0.47448081]
[ 0.49071983]
[ 0.4860462]
[ 0.3947762]
[ 0.47829214]
[ 0.39037979]
[ 0.45349357]
[ 0.37158245]
[ 0.45961338]
[ 0.50626796]
[ 0.38499692]
[ 0.452416]
[ 0.45824024]
[ 0.44538224]
[ 0.47582293]
[ 0.47705796]
[ 0.26810613]
[ 0.36341494]
[ 0.42996666]
[ 0.3465094]
[ 0.45536721]
[ 0.52688169]
[ 0.42265016]
[ 0.54251522]
[ 0.49310654]
[ 0.48245195]
[ 0.48299795]
[ 1.]
[ 0.41529733]
[ 0.54657781]
[ 0.83474475]
[ 0.399434]
[ 0.46725488]
[ 0.39037314]
[ 0.39522722]
[ 0.46679392]
[ 0.45803067]
[ 0.49266997]
[ 0.43426701]
[ 0.42499658]
[ 0.40991104]
[ 0.48508102]
[ 0.45068747]
[ 0.41764024]
[ 0.44344786]
[ 0.4489162]
[ 0.33891296]
[ 0.4229804]
[ 0.45188302]
[ 0.529136]
[ 0.48920459]
[ 0.4601284]
[ 0.22583005]
[ 0.47357529]
[ 0.46186233]
[ 0.44813842]
[ 0.37926593]
[ 0.42420825]
[ 0.43728223]
[ 0.44543341]
[ 0.51752847]
[ 0.34657362]
[ 0.41933161]
[ 0.52811241]
[ 0.46759513]
[ 0.49143785]
[ 0.45418215]
[ 0.48031592]
[ 0.50413603]
[ 0.4845778]
[ 0.4216859]
[ 0.45699224]
[ 0.42922059]
[ 0.47521105]
[ 0.47720405]
[ 0.43343082]
[ 0.45898229]
[ 0.49442741]
[ 0.40626505]
[ 0.46006328]
[ 0.47635427]
[ 0.39883965]
[ 0.49723017]
[ 0.37059793]
[ 0.44549185]
[ 0.49096671]
[ 0.45208737]
[ 0.47657388]
[ 0.49239218]
[ 0.4597865]
[ 0.31191331]
[ 0.44109455]
[ 0.42017946]
[ 0.43363556]
[ 0.42023775]
[ 0.48195782]
[ 0.544671]
[ 0.48189566]
[ 0.58163017]
[ 0.46572992]
[ 0.48127064]
[ 0.45632631]
[ 0.43484977]
[ 0.40547138]
[ 0.44093424]
[ 0.43365875]
[ 0.42885527]
[ 0.46201205]
[ 0.49044633]
[ 0.43644395]
[ 0.46021134]
[ 0.45175833]
[ 0.54686874]
[ 0.46685681]
[ 0.4602966]
[ 0.47317258]
[ 0.42440033]
[ 0.45389429]
[ 0.42838424]
[ 0.46058658]
[ 0.43117818]
[ 0.46392107]
[ 0.45841253]
[ 0.42852205]
[ 0.45443106]
[ 0.39991602]
[ 0.44858089]
[ 0.29200757]
[ 0.4763059]
[ 0.45989877]
[ 0.44539034]
[ 0.46692872]
[ 0.45540938]
[ 0.32198557]
[ 0.45185158]
[ 0.46968523]
[ 0.44744262]
[ 0.47445121]
[ 0.48055458]
[ 0.47710431]
[ 0.48500076]
[ 0.47423494]
[ 0.49095097]
[ 0.45562756]
[ 0.44757202]
[ 0.46176887]
[ 0.46967733]
[ 0.48295045]
[ 0.45169505]
[ 0.43708664]
[ 0.48056599]
[ 0.46013504]
[ 0.47172675]
[ 0.48032361]
[ 0.40628713]
[ 0.48220712]
[ 0.35688549]
[ 0.44161865]
[ 0.46300235]
[ 0.44264603]
[ 0.44504213]
[ 0.4676066]
[ 0.48248267]
[ 0.51326615]
[ 0.45770127]
[ 0.43970451]
[ 0.47772145]
[ 0.45802686]
[ 0.44127798]
[ 0.58800644]
[ 0.41038072]
[ 0.44452697]
[ 0.46956342]
[ 0.46163043]
[ 0.51635587]
[ 0.38065824]
[ 0.49612498]
[ 0.44719133]
[ 0.46367019]
[ 0.47756496]
[ 0.4227587]
[ 0.45772144]
[ 0.44654545]
[ 0.41407564]
[ 0.46556997]
[ 0.46280837]
[ 0.45105049]
[ 0.45818946]
[ 0.52041334]
[ 0.44975418]
[ 0.43912819]
[ 0.49821493]
[ 0.96018583]
[ 0.59637445]
[ 0.3792935]
[ 0.42544663]
[ 0.44722107]
[ 0.36216706]
[ 0.40871283]
[ 0.33632228]
[ 0.4894107]
[ 0.48031527]
[ 0.40262315]
[ 0.44166735]
[ 0.45682091]
[ 0.52096123]
[ 0.46696383]
[ 0.40232089]
[ 0.47396341]
[ 0.44198993]
[ 0.51068258]
[ 0.45103931]
[ 0.46637174]
[ 0.4748894]
[ 0.45562771]
[ 0.44669914]
[ 0.44678465]
[ 0.47893271]
[ 0.50306135]
[ 0.41782138]
[ 0.45339054]
[ 0.44661438]
[ 0.39269179]
[ 0.46726066]
[ 0.45837033]
[ 0.39147824]
[ 0.26732779]
[ 0.41464284]
[ 0.41130516]
[ 0.43137765]
[ 0.43040955]
[ 0.2606217]
[ 0.44898772]
[ 0.99999964]
[ 0.42971328]
[ 0.35829312]
[ 0.44799423]
[ 0.37075731]
[ 0.39116243]
[ 0.4318893]
[ 0.4878425]
[ 0.45611978]
[ 0.43684161]
[ 0.45095664]
[ 0.47172657]
[ 0.49184436]
[ 0.45486814]
[ 0.5549888]
[ 0.38880399]
[ 0.48106328]
[ 0.38395625]
[ 0.38453987]
[ 0.41139716]
[ 0.41036651]
[ 0.56029558]
[ 1.]
[ 0.33342242]
[ 0.38400552]
[ 0.37227774]
[ 0.48054364]
[ 0.40699869]
[ 0.48216626]
[ 0.39606786]
[ 0.99997532]
[ 0.49570432]
[ 0.46057945]
[ 0.42372569]
[ 0.4126451]
[ 0.44881701]
[ 0.35050711]
[ 0.24946794]
[ 0.47740665]
[ 0.48271635]
[ 0.42773348]
[ 0.46943846]
[ 0.45062879]
[ 0.48943159]
[ 0.46374801]
[ 0.40207383]
[ 0.47507191]
[ 0.44591954]
[ 0.46417552]
[ 0.44973132]
[ 0.3284044]
[ 0.49682477]
[ 0.47125104]
[ 0.42954686]
[ 0.42187133]
[ 0.42621481]
[ 0.46604231]
[ 0.36011499]
[ 0.51530123]
[ 0.42650962]
[ 0.45634446]
[ 0.48172396]
[ 0.3974576]
[ 0.41484985]
[ 0.46134537]
[ 0.45263624]
[ 0.47329295]
[ 0.45387125]
[ 0.43450907]
[ 0.64047348]
[ 0.42788643]
[ 0.45538554]
[ 0.39449221]
[ 0.48318303]
[ 0.50195003]
[ 0.46800271]
[ 0.41431239]
[ 0.43807587]
[ 0.46269059]
[ 0.4411805]
[ 0.49612087]
[ 0.42532584]
[ 0.36220112]
[ 0.42042571]
[ 0.36050269]
[ 0.44118783]
[ 0.44543064]
[ 0.44820145]
[ 0.57153064]
[ 0.41574728]
[ 0.4556714]
[ 0.44719929]
[ 0.46634135]
[ 0.55269772]
[ 0.39934975]
[ 0.44465929]
[ 0.4470298]
[ 0.39904642]
[ 0.30364195]
[ 0.48476028]
[ 0.48593205]
[ 0.49832681]
[ 0.45811811]
[ 0.40895411]
[ 0.47310117]
[ 0.42373604]
[ 0.45331571]
[ 0.41633314]
[ 0.59620434]
[ 0.47036168]
[ 0.47351986]
[ 0.47219977]
[ 0.45485243]
[ 0.37349054]
[ 0.30111322]
[ 0.48008129]
[ 0.46113771]
[ 0.43291947]
[ 0.35904032]
[ 0.4282521]
[ 0.47603786]
[ 0.36752355]
[ 0.46577221]
[ 0.26441115]
[ 0.45951888]
[ 0.41751543]
[ 0.99957031]
[ 0.47531214]
[ 0.47588912]
[ 0.41314384]
[ 0.41436282]
[ 0.3609814]
[ 0.66091436]
[ 0.51603252]
[ 0.45500675]
[ 0.45394433]
[ 0.38034803]
[ 0.44256151]
[ 0.46533659]
[ 0.36862445]
[ 0.43776339]
[ 0.4542636]
[ 0.42506412]
[ 0.46398944]
[ 0.45785257]
[ 0.45619735]
[ 0.42527115]
[ 0.44682679]
[ 0.46972266]
[ 0.45305574]
[ 0.45509925]
[ 0.48213565]
[ 0.3912099]
[ 0.50051326]
[ 0.41091985]
[ 0.46525639]
[ 0.47667411]
[ 0.55486917]
[ 0.43271822]
[ 0.43901733]
[ 0.30744272]
[ 0.37422487]
[ 0.31834897]
[ 0.45203969]
[ 0.46347356]
[ 0.4760074]
[ 0.50955719]
[ 0.45745379]
[ 0.30123055]
[ 0.44160944]
[ 0.36185676]
[ 0.5183655]
[ 0.62977564]
[ 0.49784496]
[ 0.53890646]
[ 0.37631175]
[ 0.44064093]
[ 0.43851355]
[ 0.46015]
[ 0.4216274]
[ 0.47380438]
[ 0.40170076]
[ 0.40339729]
[ 0.41249803]
[ 0.51346344]
[ 0.4609727]
[ 0.32751912]
[ 0.45151487]
[ 0.33555296]
[ 0.4778457]
[ 0.48871756]
[ 0.47247848]
[ 0.33517563]
[ 0.55903006]
[ 0.40992153]
[ 0.4330613]
[ 0.4572818]
[ 0.97107351]
[ 0.4996137]
[ 0.47684643]
[ 0.37811008]
[ 0.46029037]
[ 0.50854832]
[ 0.44260594]
[ 0.44583637]
[ 0.4191598]
[ 0.44315135]
[ 0.49355808]
[ 0.4212282]
[ 0.53930515]
[ 0.34650093]
[ 0.41831851]
[ 0.47227782]
[ 0.43162352]
[ 0.51844943]
[ 0.43904307]
[ 0.47147715]
[ 0.44185534]
[ 0.54503024]
[ 0.47999415]
[ 0.40526688]
[ 0.29528677]
[ 0.43094039]
[ 0.45150033]
[ 0.41923311]
[ 0.52795559]
[ 0.48379135]
[ 0.46842325]
[ 0.44369078]
[ 0.51735175]
[ 0.43281442]
[ 0.42826474]
[ 0.45677474]
[ 0.43064696]
[ 0.45035517]
[ 0.4720872]
[ 0.43377185]
[ 0.4484973]
[ 0.45009974]
[ 0.43850008]
[ 0.42451859]
[ 0.44457838]
[ 0.47002435]
[ 0.4003453]
[ 0.42344242]
[ 0.29504713]
[ 0.39446136]
[ 0.3932091]
[ 0.38919038]
[ 0.42728648]
[ 0.3862125]
[ 0.46593913]
[ 0.77518588]
[ 0.45352349]
[ 0.40230671]
[ 0.39448166]
[ 0.44556543]
[ 0.4668386]
[ 0.45433062]
[ 0.45535025]
[ 0.34651321]
[ 0.43577754]
[ 0.43777817]
[ 0.43721697]
[ 0.47672594]
[ 0.50514519]
[ 0.46255556]
[ 0.48241609]
[ 0.48295012]
[ 0.46961853]
[ 0.40215918]
[ 0.33817801]
[ 0.31625932]
[ 0.42300913]
[ 0.98866397]
[ 0.49354148]
[ 0.44091603]
[ 0.43485537]
[ 0.3698357]
[ 0.38705266]
[ 0.52093577]
[ 0.44674301]
[ 0.46299356]
[ 0.40055129]
[ 0.42831519]
[ 0.46861297]
[ 0.35709777]
[ 0.31913072]
[ 0.47636968]
[ 0.5020743]
[ 0.42967734]
[ 0.32297859]
[ 0.4255169]
[ 0.38385883]
[ 0.48900154]
[ 0.47410268]
[ 0.41371661]
[ 0.57140404]
[ 0.31841928]
[ 0.45810896]
[ 0.45339328]
[ 0.3506498]
[ 0.36737299]
[ 0.44874945]
[ 0.54937249]
[ 0.46992329]
[ 0.40197974]
[ 0.41274822]
[ 0.45826888]
[ 0.45710644]
[ 0.36732295]
[ 0.44321874]
[ 0.47857025]
[ 0.39853236]
[ 0.40113059]
[ 0.42817059]
[ 0.62796813]
[ 0.42143831]
[ 0.50831008]
[ 0.71734697]
[ 0.47927618]
[ 0.50357461]
[ 0.37618056]
[ 0.40315494]
[ 0.41795826]
[ 0.46416649]
[ 0.3934918]
[ 0.48285627]
[ 0.39782685]
[ 1.]
[ 0.98021555]
[ 0.45142758]
[ 0.47109714]
[ 0.49358231]
[ 0.46042761]
[ 0.57862306]
[ 0.40576851]
[ 0.46927395]
[ 0.41789496]
[ 0.51045519]
[ 0.45979851]
[ 0.37005267]
[ 0.46621746]
[ 0.45969045]
[ 0.43264028]
[ 0.44803151]
[ 0.44037312]
[ 0.49971512]
[ 0.40631503]
[ 0.48375645]
[ 0.30364397]
[ 0.42352679]
[ 0.51389635]
[ 0.47705275]
[ 0.44851029]
[ 0.44575432]
[ 0.41445458]
[ 0.42779341]
[ 0.45706007]
[ 0.4579353]
[ 0.54713607]
[ 0.47854954]
[ 0.40112966]
[ 0.47357038]
[ 1.]
[ 0.39198455]
[ 0.43898746]
[ 0.42942089]
[ 0.46544835]
[ 0.5419333]
[ 0.47367558]
[ 0.42843342]
[ 0.37665105]
[ 0.56204128]
[ 0.40208456]
[ 0.48148915]
[ 0.47460037]
[ 0.46269718]
[ 0.46792355]
[ 0.26236832]
[ 0.42799327]
[ 0.2835879]
[ 0.99575317]
[ 0.39196751]
[ 0.40975991]
[ 0.49072877]
[ 0.39966601]
[ 0.44494998]
[ 0.47074458]
[ 0.27757519]
[ 0.41623306]
[ 0.49350145]
[ 0.48526868]
[ 0.46326336]
[ 0.46404678]
[ 0.38520727]
[ 0.47106326]
[ 0.48339546]
[ 0.32899299]
[ 0.4295705]
[ 0.48907268]
[ 0.44096103]
[ 0.41945875]
[ 0.48259649]
[ 0.48304111]
[ 0.43930554]
[ 0.46189082]
[ 0.49296883]
[ 0.62129176]
[ 0.50461203]
[ 0.44264418]
[ 0.37441501]
[ 0.37429664]
[ 0.31840998]
[ 0.41031572]
[ 0.46553078]
[ 0.43438548]
[ 0.31397185]
[ 0.48233226]
[ 0.41937488]
[ 0.46131444]
[ 0.37351635]
[ 0.43160799]
[ 0.5461843]
[ 0.42981657]
[ 0.42319754]
[ 0.35100093]
[ 0.48071724]
[ 0.44103351]
[ 0.3645412]
[ 0.76868254]
[ 0.47962177]
[ 0.39218801]
[ 0.47195733]
[ 0.3986738]
[ 0.47895667]
[ 0.39594799]
[ 0.52394539]
[ 0.45627776]
[ 0.4204877]
[ 0.4769218]
[ 0.36428532]
[ 0.41176516]
[ 0.52091712]
[ 0.52272505]
[ 0.56969076]
[ 0.38116828]
[ 0.47213289]
[ 0.45195478]
[ 0.49155486]
[ 0.45619497]
[ 0.4443064]
[ 0.49160212]
[ 0.47649869]
[ 0.4374378]
[ 0.46571946]
[ 0.40887669]
[ 0.39387241]
[ 0.4457241]
[ 0.47001511]
[ 0.32073495]
[ 0.37264502]
[ 0.43690121]
[ 0.4485026]
[ 0.37083018]
[ 0.5144884]
[ 0.47175768]
[ 0.47091803]
[ 0.60127217]
[ 0.39975905]
[ 0.40415964]
[ 0.46871272]
[ 0.4581055]
[ 0.50536102]
[ 0.42689392]
[ 0.44612947]
[ 0.43062219]
[ 0.40116006]
[ 0.33123061]
[ 0.52918869]
[ 0.46786031]
[ 0.49393845]
[ 0.45844159]
[ 0.4113189]
[ 0.44284704]
[ 0.42242876]
[ 0.78141201]
[ 0.45534313]
[ 0.40248212]
[ 0.50107712]
[ 0.43459454]
[ 0.45233965]
[ 0.41589442]
[ 0.48932621]
[ 0.45893502]
[ 0.40626553]
[ 0.4425495]
[ 0.30577892]
[ 0.34610796]
[ 0.44295695]
[ 0.37811241]
[ 0.36072859]
[ 0.49054995]
[ 0.46153036]
[ 0.37507743]
[ 0.45615271]
[ 0.5568127]
[ 0.30056754]
[ 0.48129472]
[ 0.45579776]
[ 0.43135193]
[ 0.46729401]
[ 0.50270921]
[ 0.38886473]
[ 0.44430861]
[ 0.4556216]
[ 0.45450076]
[ 0.46915817]
[ 0.43661341]
[ 0.35956007]
[ 0.45878172]
[ 0.4287096]
[ 0.22374184]
[ 0.4931322]
[ 0.47879532]
[ 0.38212603]
[ 0.45930848]
[ 0.38580939]
[ 0.50399572]
[ 0.47378576]
[ 0.46194479]
[ 0.44831699]
[ 0.53515172]
[ 0.49334911]
[ 0.37697494]
[ 0.45143887]
[ 0.42598709]
[ 0.99411607]
[ 0.5636248]
[ 0.7593689]
[ 0.54240978]
[ 1.]
[ 0.45669109]
[ 0.99869859]
[ 0.45718697]
[ 0.52834356]
[ 0.40279761]
[ 0.38786915]
[ 0.43800068]
[ 0.51117706]
[ 0.48426104]
[ 0.36920726]
[ 0.4298763]
[ 0.40087095]
[ 0.46285853]
[ 0.40411103]
[ 0.40284953]
[ 0.49941412]
[ 0.49371007]
[ 0.43769193]
[ 0.41328737]
[ 0.42469811]
[ 0.54566503]
[ 0.99530113]
[ 1.]
[ 0.43703833]
[ 0.37659198]
[ 0.46393749]
[ 0.46889171]
[ 0.48351321]
[ 0.44968489]
[ 0.49565408]
[ 0.42084292]
[ 0.45156223]
[ 0.54371703]
[ 0.46405634]
[ 0.46235415]
[ 0.22950734]
[ 0.48139012]
[ 0.98863912]
[ 0.45868886]
[ 0.42939353]
[ 0.43884945]
[ 0.2814233]
[ 0.40584451]
[ 0.39835322]
[ 0.41829255]
[ 0.44875073]
[ 0.42541453]
[ 0.4481681]
[ 0.41492194]
[ 1.]
[ 0.4707742]
[ 0.43442577]
[ 0.47166398]
[ 0.31051409]
[ 0.4353573]
[ 0.47605029]
[ 0.44747308]
[ 0.46105191]
[ 0.49294871]
[ 0.40210941]
[ 0.52394539]
[ 0.40722227]
[ 0.40641135]
[ 0.47480872]
[ 0.44171658]
[ 0.47947741]
[ 0.48088291]
[ 0.40855089]
[ 0.44950971]
[ 0.49412942]
[ 0.46946201]
[ 0.52394539]
[ 0.4662706]
[ 0.40339094]
[ 0.40932843]
[ 0.41141614]
[ 0.42663467]
[ 0.4557294]
[ 0.45669287]
[ 0.37627149]
[ 0.46094212]
[ 0.50712049]
[ 0.43665305]
[ 0.41244081]
[ 0.436313]
[ 0.46547303]
[ 0.44994351]
[ 0.55314034]
[ 0.40630481]
[ 0.75864834]
[ 0.44429269]
[ 0.44494817]
[ 0.46246356]
[ 0.43467817]
[ 0.47311649]
[ 0.39814544]
[ 0.44742143]
[ 0.3704271]
[ 0.34466636]
[ 0.46143293]
[ 0.45248374]
[ 0.41203961]
[ 0.48579651]
[ 0.42563349]
[ 0.46924326]
[ 0.39361626]
[ 0.46594515]
[ 0.44425437]
[ 0.4794288]
[ 0.499479]
[ 0.41417199]
[ 0.52924699]
[ 1.]
[ 0.50617117]
[ 0.42631859]
[ 0.52070874]
[ 0.45438993]
[ 0.46266067]
[ 0.55208236]
[ 0.52394539]
[ 0.47104603]
[ 0.35018092]
[ 0.46861988]
[ 0.37455437]
[ 0.45829692]
[ 0.36757329]
[ 0.43611383]
[ 0.4650735]
[ 0.45048562]
[ 0.42709705]
[ 0.31313354]
[ 0.45737672]
[ 0.44902375]
[ 0.47171003]
[ 0.43563354]
[ 0.47840577]
[ 0.45679167]
[ 0.45960522]
[ 0.37516096]
[ 0.393852]
[ 0.439293]
[ 0.43136585]
[ 0.46866304]
[ 0.44506866]
[ 0.45351398]
[ 0.47431016]
[ 0.60780948]
[ 0.44160163]
[ 0.48105136]
[ 0.49925414]
[ 0.54742962]
[ 0.52512038]
[ 0.37282827]
[ 0.48386082]
[ 0.43274733]
[ 0.46321538]
[ 0.4489933]
[ 0.4772839]
[ 0.45480287]
[ 0.47921047]
[ 0.3311232]
[ 0.39529929]
[ 0.38973922]
[ 0.45664835]
[ 0.40400535]
[ 0.4260276]
[ 0.4400903]
[ 0.36693391]
[ 0.455311]
[ 0.42531118]
[ 0.42970675]
[ 0.48588818]
[ 0.45548317]
[ 0.46589741]
[ 0.46697521]
[ 0.45806918]
[ 0.46624005]
[ 0.39605168]
[ 0.47552007]
[ 0.46464944]
[ 0.45250255]
[ 0.64525241]
[ 0.48493627]
[ 0.45663559]
[ 0.4527303]
[ 0.48658034]
[ 0.39403737]
[ 0.43764874]
[ 0.38478851]
[ 0.45373365]
[ 0.45555055]
[ 0.47152171]
[ 0.44847432]
[ 0.35810778]
[ 0.50295562]
[ 0.38733763]
[ 0.46988896]
[ 0.43846899]
[ 0.41090968]
[ 0.47185183]
[ 0.44666082]
[ 0.56085521]
[ 0.45005241]
[ 0.40369758]
[ 0.32235295]
[ 0.5051105]
[ 0.42090499]
[ 0.39669502]
[ 0.32198474]
[ 0.44412133]
[ 0.45183599]
[ 0.52470922]
[ 0.43038136]
[ 0.46337441]
[ 0.43984556]
[ 0.43161741]
[ 0.4041487]
[ 0.48103434]
[ 0.4844107]
[ 0.40772834]
[ 0.98813325]
[ 0.41279626]
[ 0.47392848]
[ 0.48111784]
[ 0.4738169]
[ 0.34140441]
[ 0.46876207]
[ 0.44020388]
[ 0.52269053]
[ 0.46355218]
[ 0.44633627]
[ 0.50360835]
[ 0.3719919]
[ 0.44324067]
[ 0.41071317]
[ 0.4088057]
[ 0.4410342]
[ 0.31946826]
[ 0.43531922]
[ 0.31498522]
[ 0.3851881]
[ 0.40738121]
[ 0.43264136]
[ 0.37299991]
[ 0.34085351]
[ 0.38822746]
[ 0.40419331]
[ 0.40859616]
[ 0.36780763]
[ 0.41464671]
[ 0.27647454]
[ 0.46468455]
[ 0.40909633]
[ 0.99991775]
[ 0.44029897]
[ 0.45852554]
[ 1.]
[ 0.47218409]
[ 0.46821555]
[ 0.39361626]
[ 0.32903349]
[ 0.459907]
[ 0.47678193]
[ 0.50481367]
[ 0.40904251]
[ 0.38742879]
[ 0.37066504]
[ 0.44600317]
[ 0.40736529]
[ 0.43286246]
[ 0.44891062]
[ 0.33527866]
[ 0.4231177]
[ 0.4358606]
[ 0.39161575]
[ 0.43232661]
[ 0.4145003]
[ 0.47799459]
[ 0.451325]
[ 0.39709762]
[ 0.47145063]
[ 0.37462461]
[ 0.4601391]
[ 0.41984519]
[ 0.41059679]
[ 0.37359002]
[ 0.42962083]
[ 0.38829124]
[ 0.47008866]
[ 0.45203072]
[ 0.44771665]
[ 0.54730356]
[ 0.34238341]
[ 0.30492395]
[ 0.47354221]
[ 0.45010075]
[ 0.46754602]
[ 0.4865441]
[ 0.30347672]
[ 0.36600399]
[ 0.57134426]
[ 0.44580242]
[ 0.43404073]
[ 0.4281919]
[ 0.44043916]
[ 0.47112036]
[ 0.45749569]
[ 0.39503783]
[ 0.37475911]
[ 0.42878029]
[ 0.45418078]
[ 1.]
[ 0.43336713]
[ 0.4743098]
[ 0.46654916]
[ 0.43840876]
[ 0.43137792]
[ 0.33938223]
[ 0.46547553]
[ 0.45156395]
[ 0.43549621]
[ 0.56758451]
[ 0.41677988]
[ 0.47984642]
[ 0.40111622]
[ 0.2591309]
[ 0.43173862]
[ 0.42816216]
[ 0.3544912]
[ 0.45587292]
[ 0.49464923]
[ 0.45535469]
[ 0.41916001]
[ 0.47488382]
[ 0.39807147]
[ 0.52394539]
[ 0.49110088]
[ 0.36967379]
[ 0.44669259]
[ 0.45806718]
[ 0.40136904]
[ 0.49361345]
[ 0.42493325]
[ 0.51590645]
[ 0.43921289]
[ 0.53616285]
[ 0.52272767]
[ 0.47826666]
[ 0.46801552]
[ 0.4714216]
[ 0.50755882]
[ 0.44074538]
[ 0.39589426]
[ 0.55719066]
[ 0.42132166]
[ 0.46427011]
[ 0.4598121]
[ 0.41316923]
[ 0.45058009]
[ 0.47557664]
[ 0.43392864]
[ 0.4601779]
[ 0.48408812]
[ 0.4849292]
[ 0.52394539]
[ 0.43866906]
[ 0.55170399]
[ 0.50004309]
[ 0.48250383]
[ 0.43484631]
[ 0.42601472]
[ 0.52394539]
[ 0.3948938]
[ 0.41429713]
[ 0.5211634]
[ 0.43696302]
[ 0.42185587]
[ 0.52284491]
[ 0.47302413]
[ 0.51765066]
[ 0.40366805]
[ 0.44455165]
[ 0.45564175]
[ 0.46639496]
[ 0.46932289]
[ 0.51901853]
[ 0.42517933]
[ 0.49924797]
[ 0.39954495]
[ 0.52875024]
[ 0.40974909]
[ 0.42836383]
[ 0.46793744]
[ 0.26553595]
[ 0.45347974]
[ 0.47236261]
[ 0.45969921]
[ 0.47379485]
[ 0.32796994]
[ 0.45227966]
[ 0.47157642]
[ 0.4653177]
[ 0.57248354]
[ 0.46907049]
[ 0.3921307]
[ 0.4629446]
[ 0.46275705]
[ 0.50339943]
[ 0.41317013]
[ 0.40106088]
[ 0.51302701]
[ 0.49995589]
[ 0.43473166]
[ 0.43680221]
[ 0.48575443]
[ 0.45020902]
[ 0.43055964]
[ 0.45266986]
[ 0.49032274]
[ 0.49483305]
[ 0.45292404]
[ 0.34591535]
[ 0.6673311]
[ 0.43531749]
[ 0.51556045]
[ 0.40073338]
[ 0.55127364]
[ 0.45181018]
[ 0.47876301]
[ 0.38445139]
[ 0.4361476]
[ 0.47212619]
[ 0.37380892]
[ 0.39553255]
[ 0.46285784]
[ 0.4260785]
[ 0.48075503]
[ 0.45009491]
[ 0.49037129]
[ 0.4255147]
[ 0.54226303]
[ 0.40730035]
[ 0.46128276]
[ 1.]
[ 0.46907339]
[ 0.40920487]
[ 0.49144813]
[ 0.35896885]
[ 0.50372779]
[ 0.45315257]
[ 0.37622371]
[ 0.42798334]
[ 0.38132337]
[ 0.4667528]
[ 0.45362124]
[ 0.94275111]
[ 0.45473281]
[ 0.4645997]
[ 0.47046283]
[ 0.50135303]
[ 0.32229838]
[ 0.41061395]
[ 0.45751616]
[ 0.44697243]
[ 0.49685419]
[ 0.49850589]
[ 0.55185831]
[ 0.54781592]
[ 0.40005964]
[ 0.35936856]
[ 0.39178443]
[ 0.4553206]
[ 0.34235501]
[ 0.49200729]
[ 0.42606205]
[ 0.44836554]
[ 0.41378996]
[ 0.4676562]
[ 0.47335875]
[ 0.38984159]
[ 0.46562213]
[ 0.91052157]
[ 0.43917003]
[ 0.44750857]
[ 0.56906909]
[ 0.36562526]
[ 0.42180932]
[ 0.47547761]
[ 0.45913482]
[ 0.46069384]
[ 0.36877242]
[ 0.44753268]
[ 0.44629973]
[ 0.44251874]
[ 0.38087451]
[ 0.39708826]
[ 0.44721565]
[ 0.47539008]
[ 0.4665136]
[ 0.45918438]
[ 0.43567055]
[ 0.35881764]
[ 0.39129373]
[ 0.3596544]
[ 0.44758937]
[ 0.48181781]
[ 0.39448082]
[ 0.32625234]
[ 0.36139205]
[ 0.47734961]
[ 0.41005683]
[ 0.41330776]
[ 0.42891911]
[ 0.45004874]
[ 0.40486783]
[ 0.56871647]
[ 0.59296763]
[ 0.45385966]
[ 0.45013234]
[ 0.47011575]
[ 0.45353588]
[ 0.52394539]
[ 0.39481065]
[ 0.51237041]
[ 0.38508582]
[ 0.45135638]
[ 0.45709687]
[ 0.45329499]
[ 0.38037074]
[ 0.49386168]
[ 0.50641173]
[ 0.42873821]
[ 0.52847338]
[ 0.46184292]
[ 0.51757413]
[ 0.48444819]
[ 0.44750535]
[ 0.46662641]
[ 0.42610171]
[ 0.49370462]
[ 0.47592628]
[ 0.3825272]
[ 0.62757546]
[ 0.4722783]
[ 0.54623455]
[ 0.36846197]
[ 0.44888487]
[ 0.45017502]
[ 0.41884783]
[ 0.47354269]
[ 0.44599724]
[ 0.37767085]
[ 0.54074907]
[ 0.43140793]
[ 0.41383713]
[ 0.49396938]
[ 0.4643124]
[ 0.46677625]
[ 0.3191739]
[ 0.39955282]
[ 0.39426154]
[ 0.48913759]
[ 0.45431754]
[ 0.36031663]
[ 0.47118393]
[ 0.48136696]
[ 0.401427]
[ 0.45266193]
[ 0.64019948]
[ 0.46762031]
[ 0.42935222]
[ 0.47894058]
[ 0.38368165]
[ 0.48845279]
[ 0.48040229]
[ 0.48012853]
[ 0.57469928]
[ 0.47624761]
[ 0.46052134]
[ 0.52945471]
[ 0.44600025]
[ 0.2881428]
[ 0.43955755]
[ 0.4727014]
[ 0.38935015]
[ 0.52559674]
[ 0.37792245]
[ 0.42990738]
[ 0.40427846]
[ 0.42975068]
[ 0.35728398]
[ 0.46314692]
[ 0.47257906]
[ 0.52059615]
[ 0.43851024]
[ 0.48363978]
[ 0.77838522]
[ 0.45451131]
[ 0.45423511]
[ 0.36272383]
[ 0.38845003]
[ 0.49010456]
[ 0.46202442]
[ 0.45802635]
[ 0.49744147]
[ 0.45276308]
[ 0.50157052]
[ 0.42515558]
[ 0.99935979]
[ 0.99823618]
[ 0.47537211]
[ 0.43474287]
[ 0.4450675]
[ 0.47821367]
[ 0.39246923]
[ 0.44122034]
[ 0.60277081]
[ 0.47043169]
[ 0.38763064]
[ 0.46886614]
[ 0.40690506]
[ 0.32642546]
[ 0.47238362]
[ 0.36124486]
[ 0.4595682]
[ 0.35831866]
[ 0.43635958]
[ 0.4764179]
[ 0.42828494]
[ 0.41037172]
[ 0.4050169]
[ 0.44325191]
[ 0.45274085]
[ 1.]
[ 0.54375982]
[ 0.50178164]
[ 0.47606856]
[ 0.44528776]
[ 0.45134497]
[ 0.48332384]
[ 0.36912993]
[ 0.37866706]
[ 0.36469278]
[ 0.46294966]
[ 0.44677338]
[ 0.45384786]
[ 0.45757186]
[ 0.47721985]
[ 0.45180747]
[ 0.38699138]
[ 0.40004471]
[ 0.36214724]
[ 0.45444021]
[ 0.44969606]
[ 0.45972261]
[ 0.42662662]
[ 0.39226091]
[ 0.49573648]
[ 0.41550112]
[ 0.44568062]
[ 0.45671785]
[ 0.46498618]
[ 0.55531543]
[ 0.32717076]
[ 0.48372075]
[ 0.47633815]
[ 0.53257215]
[ 0.43811655]
[ 0.35302034]
[ 0.43995491]
[ 0.45234871]
[ 0.99999988]
[ 0.44093978]
[ 0.4685435]
[ 0.42469501]
[ 0.41418764]
[ 0.52535528]
[ 0.4541482]
[ 0.45971757]
[ 0.45484203]
[ 0.44125453]
[ 0.36799166]
[ 0.46022546]
[ 0.44022316]
[ 0.49370623]
[ 0.47781456]
[ 0.46518973]
[ 0.43315122]
[ 0.45161745]
[ 0.46428683]
[ 0.4127689]
[ 0.41577137]
[ 0.38805902]
[ 0.4641861]
[ 0.46659809]
[ 0.45863697]
[ 0.41884387]
[ 0.41507453]
[ 0.40365124]
[ 0.35780334]
[ 0.42148593]
[ 0.47140744]
[ 0.37359503]
[ 0.4555327]
[ 0.44324142]
[ 0.43345314]
[ 0.48222452]
[ 0.28997537]
[ 0.38984615]
[ 0.36148706]
[ 0.40003043]
[ 0.45096192]
[ 0.50716621]
[ 0.44692391]
[ 0.45853615]
[ 0.461018]
[ 0.48043498]
[ 0.45009694]
[ 0.44925192]
[ 0.49872461]
[ 0.43075866]
[ 0.45344284]
[ 0.4546324]
[ 0.41991869]
[ 0.32107717]
[ 0.46012244]
[ 0.45713499]
[ 0.44594112]
[ 0.45513698]
[ 0.52484959]
[ 0.34712607]
[ 0.44071138]
[ 0.46116734]
[ 0.97699136]
[ 0.46595001]
[ 0.46042958]
[ 0.46257076]
[ 0.47467947]
[ 0.40889359]
[ 0.46264943]
[ 0.46466219]
[ 0.31355765]
[ 0.49503431]
[ 0.50389266]
[ 0.44221359]
[ 0.36942196]
[ 0.39535293]
[ 0.41875076]
[ 0.37292141]
[ 0.4856956]
[ 0.49569729]
[ 0.46549588]
[ 0.47896263]
[ 0.4031651]
[ 0.67752522]
[ 0.48533219]
[ 0.34115255]
[ 0.37412819]
[ 0.42706808]
[ 0.4747403]
[ 0.42970464]
[ 0.44034603]
[ 0.33358747]
[ 0.48188514]
[ 0.57197785]
[ 0.44099033]
[ 0.42794627]
[ 0.52969652]
[ 0.55286276]
[ 0.42920345]
[ 0.37607217]
[ 0.38840616]
[ 0.42218736]
[ 0.40593311]
[ 0.38902083]
[ 0.42212778]
[ 0.46119919]
[ 0.39941704]
[ 0.52468002]
[ 0.52394539]
[ 0.46243021]
[ 0.40064639]
[ 0.41239625]
[ 0.41506755]
[ 0.42645374]
[ 0.45892829]
[ 0.46243429]
[ 0.46146232]
[ 0.47371554]
[ 0.46489644]
[ 0.36108953]
[ 0.48221865]
[ 0.45447311]
[ 0.42479584]
[ 0.41801488]
[ 0.43318266]
[ 0.47565863]
[ 0.45005271]
[ 0.46130189]
[ 0.42876157]
[ 0.3191981]
[ 0.40028217]
[ 0.41897523]
[ 0.46600923]
[ 0.43356702]
[ 0.46143663]
[ 0.4174304]
[ 0.42358056]
[ 0.46084648]
[ 0.45040977]
[ 0.52683276]
[ 0.55811703]
[ 0.51308846]
[ 0.46779069]
[ 0.5025537]
[ 0.46475664]
[ 0.49135527]
[ 0.52219546]
[ 0.45519596]
[ 0.45738986]
[ 0.37533841]
[ 0.44890174]
[ 0.54877257]
[ 0.8869862]
[ 0.53273398]
[ 0.54500222]
[ 0.45460644]
[ 0.37021077]
[ 0.37703919]
[ 0.44444591]
[ 0.47378927]
[ 0.45364463]
[ 0.44684067]
[ 0.52396977]
[ 0.39034513]
[ 0.46266833]
[ 0.48491541]
[ 0.2795549]
[ 0.46559447]
[ 0.49295887]
[ 0.48023194]
[ 0.38196069]
[ 0.46082845]
[ 0.45612705]
[ 0.45863342]
[ 0.43676522]
[ 0.49772894]
[ 0.46779752]
[ 0.46176115]
[ 0.43290329]
[ 0.46188694]
[ 0.46324289]
[ 0.31695092]
[ 0.41949576]
[ 0.45214576]
[ 0.48009643]
[ 0.45889786]
[ 0.42969781]
[ 0.41827929]
[ 0.43549684]
[ 0.39212868]
[ 0.67833334]
[ 0.46428919]
[ 0.46648005]
[ 0.5111987]
[ 0.46244478]
[ 0.4685342]
[ 0.37035057]
[ 0.59153694]
[ 0.40683141]
[ 0.40718189]
[ 0.30440462]
[ 0.45921433]
[ 0.35793185]
[ 0.47024831]
[ 0.4352285]
[ 0.44870183]
[ 0.42111328]
[ 0.45220134]
[ 0.37039727]
[ 0.40061158]
[ 0.37709555]
[ 0.46933949]
[ 0.48233405]
[ 0.43540624]
[ 0.47103533]
[ 0.3850922]
[ 0.38907415]
[ 0.61931032]
[ 0.42156312]
[ 0.41589409]
[ 0.45607826]
[ 0.54519838]
[ 0.49485818]
[ 0.3280741]
[ 0.43126881]
[ 0.42864436]
[ 0.42004359]
[ 0.39024758]
[ 0.46653369]
[ 0.43886998]
[ 0.51000637]
[ 0.50653017]
[ 0.41600236]
[ 0.42445523]
[ 0.46240988]
[ 0.44805607]
[ 0.46345788]
[ 0.4078601]
[ 0.37077233]
[ 0.44317192]
[ 0.4589178]
[ 0.56668127]
[ 0.37301812]
[ 0.39554152]
[ 0.45333281]
[ 0.43551335]
[ 0.51167697]
[ 0.45682111]
[ 0.46395525]
[ 0.45550483]
[ 0.45922449]
[ 0.45401376]
[ 0.95221668]
[ 0.43492314]
[ 0.44661188]
[ 0.42865992]
[ 0.47656113]
[ 0.4077377]
[ 0.44391027]
[ 0.46255058]
[ 0.55657607]
[ 0.43905354]
[ 0.45288071]
[ 0.47268668]
[ 0.63664109]
[ 0.45104277]
[ 0.41875067]
[ 0.37053719]
[ 0.51376706]
[ 0.3966715]
[ 0.6255973]
[ 0.38850975]
[ 0.34737411]
[ 0.45249522]
[ 0.37928408]
[ 0.46461391]
[ 0.49770284]
[ 0.50722957]
[ 0.46734607]
[ 0.96028239]
[ 0.44788164]
[ 0.55384105]
[ 0.4430466]
[ 0.40664345]
[ 0.42995641]
[ 0.45477229]
[ 0.46094096]
[ 0.48273134]
[ 0.61911023]
[ 0.49505955]
[ 0.52289987]
[ 0.43434495]
[ 0.49932072]
[ 0.47534385]
[ 0.4661513]
[ 0.42811006]
[ 0.43896711]
[ 0.42904654]
[ 0.33306527]
[ 0.83988386]
[ 0.466014]
[ 0.41260183]
[ 0.4523277]
[ 0.46420357]
[ 0.38280049]
[ 0.38247868]
[ 0.44729775]
[ 0.49052176]
[ 0.44939017]
[ 0.39161706]
[ 0.52480125]
[ 0.4572562]
[ 0.44465873]
[ 0.47009477]
[ 0.49564263]
[ 0.59973657]
[ 0.38238251]
[ 0.33306211]
[ 0.28145722]
[ 0.42887816]
[ 0.43634751]
[ 0.43298388]
[ 0.42405]
[ 0.30769596]
[ 0.48334584]
[ 0.42873979]
[ 0.43464267]
[ 0.43321893]
[ 0.44147068]
[ 0.45751664]
[ 0.44267902]
[ 0.4674165]
[ 0.49164084]
[ 0.39573491]
[ 0.38229507]
[ 0.50382334]
[ 0.5025636]
[ 0.41021979]
[ 0.41593909]
[ 0.81804746]
[ 0.45687199]
[ 0.51179296]
[ 0.3250179]
[ 0.5032326]
[ 0.42401659]
[ 0.42739236]
[ 0.54845273]
[ 0.45730165]
[ 0.42576885]
[ 0.47636172]
[ 0.47055137]
[ 0.47388929]
[ 0.43498042]
[ 0.33188128]
[ 0.59351665]
[ 0.40401465]
[ 0.4346467]
[ 0.44044751]
[ 0.47357789]
[ 0.45675296]
[ 0.42416546]
[ 0.36382788]
[ 0.37779149]
[ 0.51199394]
[ 0.51986784]
[ 0.45894176]
[ 0.49326792]
[ 0.45338273]
[ 0.54533511]
[ 0.45370549]
[ 0.42931268]
[ 0.33664465]
[ 0.48064628]
[ 0.44660568]
[ 0.47850719]
[ 0.47177565]
[ 0.4450272]
[ 0.42652562]
[ 0.4785791]
[ 0.39715087]
[ 0.46867543]
[ 0.3820557]
[ 0.3848263]
[ 0.34334746]
[ 0.39638594]
[ 0.53062397]
[ 0.51326352]
[ 0.40133023]
[ 0.41044301]
[ 0.49737892]
[ 0.45160314]
[ 0.45764464]
[ 0.48656398]
[ 0.42324305]
[ 0.52394539]
[ 0.45229736]
[ 0.37220997]
[ 0.39000928]
[ 0.36904263]
[ 0.46654147]
[ 0.37453464]
[ 0.50824416]
[ 0.44751111]
[ 0.46982452]
[ 0.49339667]
[ 0.43020225]
[ 0.38735539]
[ 0.36300033]
[ 0.47432175]
[ 0.43653229]
[ 0.48664272]
[ 0.38028473]
[ 0.25781146]
[ 0.49641573]
[ 0.47168133]
[ 0.3855662]
[ 0.44444811]
[ 0.42848814]
[ 0.51124156]
[ 0.63693428]
[ 0.38148427]
[ 0.44930598]
[ 0.52920747]
[ 0.48949963]
[ 0.47134742]
[ 0.44271043]
[ 0.9970721]
[ 0.48377249]
[ 0.43506163]
[ 0.46792737]
[ 0.50747818]
[ 0.47115448]
[ 0.48659045]
[ 0.57903737]
[ 0.36639363]
[ 0.37314984]
[ 0.31761181]
[ 0.48744813]
[ 0.47287619]
[ 0.31653062]
[ 0.44821608]
[ 0.40652585]
[ 0.45956868]
[ 0.3776634]
[ 0.42216825]
[ 0.47458377]
[ 0.46796688]
[ 0.50242233]
[ 0.4597156]
[ 0.56828678]
[ 0.44309327]
[ 0.42487049]
[ 0.3808611]
[ 0.45953724]
[ 0.47405812]
[ 0.44621816]
[ 0.51867682]
[ 0.42811829]
[ 1.]
[ 0.4771952]
[ 0.527529]
[ 0.40627146]
[ 0.46703777]
[ 0.41713291]
[ 0.46163836]
[ 0.51002026]
[ 0.31933197]
[ 0.42864302]
[ 0.42313084]
[ 0.54774332]
[ 0.47854376]
[ 0.49698678]
[ 0.4838146]
[ 0.61658943]
[ 0.41471967]
[ 0.45823103]
[ 0.50675273]
[ 0.3770304]
[ 0.47254023]
[ 0.53362679]
[ 0.490228]
[ 0.46481678]
[ 0.46946147]
[ 0.40814173]
[ 0.51407355]
[ 0.48884213]
[ 1.]
[ 0.42873883]
[ 0.42718458]
[ 0.51414245]
[ 0.47060871]
[ 0.45207486]
[ 0.34662732]
[ 0.39720151]
[ 0.48446298]
[ 0.45270678]
[ 0.35273546]
[ 0.44729099]
[ 0.46791679]
[ 0.48298705]
[ 0.44119203]
[ 0.43907753]
[ 0.47001871]
[ 0.48247176]
[ 0.4258531]
[ 0.56424648]
[ 0.59343433]
[ 0.4760181]
[ 0.4739297]
[ 0.45050231]
[ 0.4960033]
[ 0.36744076]
[ 0.4357]
[ 0.4427208]
[ 0.46028084]
[ 0.37324333]
[ 0.41285908]
[ 0.47614118]
[ 0.42733398]
[ 0.41520774]
[ 0.51183379]
[ 0.45180354]
[ 0.51956397]
[ 0.40460265]
[ 0.44196138]
[ 0.44483644]
[ 0.46722478]
[ 0.42435998]
[ 0.51398444]
[ 0.47155777]
[ 0.38692841]
[ 0.47318667]
[ 0.50834835]
[ 0.57143402]
[ 0.45219675]
[ 0.4080942]
[ 0.45493302]
[ 0.4541665]
[ 0.47263128]
[ 1.]
[ 0.42537847]
[ 0.44387531]
[ 0.42899844]
[ 0.5528121]
[ 0.49746516]
[ 0.41375777]
[ 0.44509852]
[ 0.51136875]
[ 0.44717169]
[ 0.43841884]
[ 0.39955783]
[ 0.44290364]
[ 0.48464495]
[ 0.46762517]
[ 0.46064162]
[ 0.48887044]
[ 0.5341441]
[ 0.52687335]
[ 0.42917579]
[ 0.45977402]
[ 0.42383566]
[ 0.52617502]
[ 0.44847298]
[ 0.46182603]
[ 0.38971353]
[ 0.49816072]
[ 0.42540091]
[ 0.52592957]
[ 0.5221234]
[ 0.9202041]
[ 0.46560904]
[ 0.46802193]
[ 0.48169082]
[ 0.4538078]
[ 0.39366931]
[ 0.47936743]
[ 0.47783798]
[ 0.46552655]
[ 0.42590448]
[ 0.4319196]
[ 0.50861126]
[ 0.45315051]
[ 0.45386368]
[ 0.48133367]
[ 0.44379807]
[ 0.48651713]
[ 0.55883324]
[ 0.47713029]
[ 0.46237943]
[ 0.38991499]
[ 0.49725416]
[ 0.37952599]
[ 0.52869552]
[ 0.46303239]
[ 0.41941839]
[ 0.52477372]
[ 0.4042601]
[ 0.47791475]
[ 0.50550336]
[ 0.38613984]
[ 0.49824604]
[ 0.44029146]
[ 0.44826332]
[ 0.37333804]
[ 0.47911412]
[ 0.36579379]
[ 0.43484801]
[ 0.46869183]
[ 0.35872912]
[ 0.39057156]
[ 0.43430573]
[ 0.35845977]
[ 0.45777181]
[ 0.44284558]
[ 0.43122235]
[ 0.4389033]
[ 0.4335914]
[ 0.32898602]
[ 0.44242167]
[ 0.37767592]
[ 0.39449781]
[ 0.44889137]
[ 0.46791944]
[ 0.42536914]
[ 0.30459726]
[ 0.45654842]
[ 0.45089445]
[ 0.540025]
[ 0.40661716]
[ 0.32349107]
[ 0.42134997]
[ 0.39567557]
[ 0.52577114]
[ 0.42284095]
[ 0.45008758]
[ 0.78095394]
[ 0.46412787]
[ 0.4441199]
[ 0.47385961]
[ 0.46752197]
[ 0.43079537]
[ 0.63316023]
[ 0.46312922]
[ 0.50120336]
[ 0.46060821]
[ 0.42519912]
[ 0.44921151]
[ 0.48826343]
[ 0.41389906]
[ 0.44122228]
[ 0.41424346]
[ 0.51003575]
[ 0.39624575]
[ 0.44799483]
[ 0.34750694]
[ 0.44420677]
[ 0.45116788]
[ 0.46303332]
[ 0.46411225]
[ 0.55376726]
[ 0.4750385]
[ 0.3901661]
[ 0.47042102]
[ 0.35510486]
[ 0.45628148]
[ 0.46935263]
[ 0.41657817]
[ 0.52226585]
[ 0.38257444]
[ 0.46217594]
[ 0.41258407]
[ 0.46572185]
[ 0.37399229]
[ 0.40399858]
[ 0.39536601]
[ 0.4773972]
[ 0.51916069]
[ 0.45507234]
[ 0.47577965]
[ 0.45268333]
[ 0.44880679]
[ 0.38255098]
[ 0.59997165]
[ 0.34519666]
[ 0.4297609]
[ 0.38886464]
[ 0.45004895]
[ 0.45344749]
[ 0.47068107]
[ 0.36971912]
[ 0.42453063]
[ 0.40995273]
[ 0.45731661]
[ 0.36263001]
[ 0.46330246]
[ 0.38660166]
[ 0.35570639]
[ 0.48152751]
[ 0.36765468]
[ 0.45788595]
[ 0.43650272]
[ 0.46210602]
[ 0.98826224]
[ 0.46075538]
[ 0.46227539]
[ 0.57011372]
[ 0.45517725]
[ 0.50874054]
[ 0.42439944]
[ 0.45606551]
[ 0.55511534]
[ 0.34402201]
[ 0.47030455]
[ 0.45646209]
[ 0.25572315]
[ 0.53743654]
[ 0.52062953]
[ 0.54536164]
[ 0.4054957]
[ 0.44049016]
[ 0.43518117]
[ 0.43389991]
[ 0.48481148]
[ 0.45691916]
[ 0.47338513]
[ 0.37705171]
[ 0.49769267]
[ 0.51562089]
[ 0.54710621]
[ 0.41185489]
[ 0.46425924]
[ 0.38240364]
[ 0.40749845]
[ 0.47333536]
[ 0.42474893]
[ 0.43999478]
[ 0.47470027]
[ 0.42507911]
[ 0.37105051]
[ 0.43757185]
[ 0.46871316]
[ 0.42705551]
[ 0.34158286]
[ 0.45577604]
[ 0.40490431]
[ 0.50465965]
[ 0.4576335]
[ 0.45647269]
[ 0.39780614]
[ 0.43642786]
[ 0.39445099]
[ 0.4696075]
[ 0.52497309]
[ 0.36691138]
[ 0.39953282]
[ 0.47538719]
[ 0.47248158]
[ 0.43269205]
[ 0.57482868]
[ 0.40299359]
[ 0.48523006]
[ 0.45880917]
[ 0.51397634]
[ 0.46332097]
[ 0.47956064]
[ 0.48508769]
[ 0.42248744]
[ 0.36067295]
[ 0.41677085]
[ 0.45944914]
[ 0.45494124]
[ 0.39709264]
[ 0.51271176]
[ 0.44925028]
[ 0.46149278]
[ 0.4400596]
[ 0.52405781]
[ 0.42703471]
[ 0.48679119]
[ 0.48021972]
[ 0.5329861]
[ 0.41420114]
[ 0.99657166]
[ 0.44238701]
[ 0.37398428]
[ 0.35093781]
[ 0.48329327]
[ 0.45496547]
[ 0.49276996]
[ 0.47909284]
[ 0.44353417]
[ 0.60579795]
[ 0.45929456]
[ 0.52394539]
[ 0.40238389]
[ 0.50074637]
[ 0.3637448]
[ 0.47967762]
[ 0.4359715]
[ 0.98132473]
[ 0.39493445]
[ 0.4311049]
[ 0.31710014]
[ 0.31472057]
[ 0.42703381]
[ 0.488879]
[ 0.38893566]
[ 0.42408586]
[ 0.42357826]
[ 0.47528666]
[ 0.42290232]
[ 0.45344347]
[ 0.52394539]
[ 0.44185042]
[ 0.32028499]
[ 0.47418812]
[ 0.90165222]
[ 0.41117325]
[ 0.41816786]
[ 0.37634155]
[ 0.61903602]
[ 0.39899248]
[ 0.49725416]
[ 0.36004847]
[ 0.4640764]
[ 0.5209325]
[ 0.54549325]
[ 0.46974891]
[ 0.45149013]
[ 0.48414126]
[ 0.34901071]
[ 0.42163783]
[ 0.4361847]
[ 0.3692545]
[ 0.46421775]
[ 0.46094024]
[ 0.38361439]
[ 0.44577944]
[ 0.50784272]
[ 0.46976253]
[ 0.46401173]
[ 0.47465616]
[ 0.51250875]
[ 0.45775917]
[ 0.42975649]
[ 0.42817205]
[ 0.3801876]
[ 0.96573436]
[ 0.3992115]
[ 0.27311298]
[ 0.45211998]
[ 0.37711018]
[ 0.43589747]
[ 0.44635195]
[ 0.76449275]
[ 0.38999701]
[ 0.51344907]
[ 0.38771731]
[ 0.47480544]
[ 0.44671476]
[ 0.43282253]
[ 0.49423271]
[ 0.44259447]
[ 0.58277822]
[ 0.45418686]
[ 0.55819774]
[ 0.50343114]
[ 0.45057109]
[ 0.4237847]
[ 0.47689316]
[ 0.3379581]
[ 0.42765009]
[ 0.39822158]
[ 0.44886589]
[ 0.42807496]
[ 0.4811056]
[ 0.47562814]
[ 0.39727157]
[ 0.46657729]
[ 0.43729067]
[ 0.47459957]
[ 0.41416496]
[ 0.39918625]
[ 0.45608798]
[ 0.45677564]
[ 0.52970147]
[ 0.475936]
[ 0.35906816]
[ 0.46592331]
[ 0.40929699]
[ 0.43865773]
[ 0.49759018]
[ 0.4128339]
[ 0.48106316]
[ 0.38807803]
[ 0.43822032]
[ 0.39460716]
[ 0.42869908]
[ 0.44381374]
[ 0.4485845]
[ 0.88652033]
[ 0.45697361]
[ 0.47735962]
[ 0.46601203]
[ 0.42232153]
[ 0.41536629]
[ 0.5455299]
[ 0.38953733]
[ 0.30727872]
[ 0.48662165]
[ 0.34300253]
[ 0.59874237]
[ 0.45349425]
[ 0.46295455]
[ 0.45881939]
[ 0.52991778]
[ 0.48870513]
[ 0.32523713]
[ 0.42949915]
[ 0.49062902]
[ 0.46359906]
[ 0.41325691]
[ 0.39529654]
[ 0.43838447]
[ 0.4396899]
[ 0.4224259]
[ 0.48638421]
[ 0.48144749]
[ 0.53099418]
[ 0.42906475]
[ 0.47167298]
[ 0.49565008]
[ 0.26165661]
[ 0.47768831]
[ 0.3271158]
[ 0.40823182]
[ 0.34056365]
[ 0.44753873]
[ 0.36673024]
[ 0.41714764]
[ 0.53596091]
[ 0.44771135]
[ 0.44355628]
[ 0.45628619]
[ 0.40028721]
[ 0.29046729]
[ 0.47900349]
[ 0.36657944]
[ 0.31937715]
[ 0.46267986]
[ 0.4728201]
[ 0.43837133]
[ 0.44966188]
[ 0.39590353]
[ 0.49348295]
[ 0.38673896]
[ 0.31305835]
[ 0.46367502]
[ 0.58960801]
[ 0.42792282]
[ 0.34424102]
[ 0.4349407]
[ 0.47018331]
[ 0.44716278]
[ 0.51647282]
[ 0.43158522]
[ 0.46175754]
[ 0.51691967]
[ 0.41847971]
[ 0.50779462]
[ 0.32355288]
[ 0.43087193]
[ 0.41154721]
[ 0.42916602]
[ 0.46555611]
[ 0.53372467]
[ 0.36824936]
[ 0.4630596]
[ 0.54722387]
[ 0.43208414]
[ 0.40591899]
[ 0.34437779]
[ 0.47005495]
[ 0.48401996]
[ 0.38509813]
[ 0.40975526]
[ 0.41651696]
[ 0.4625617]
[ 0.41880187]
[ 0.35163796]
[ 0.47997779]
[ 0.44804755]
[ 0.45452428]
[ 0.44696334]
[ 0.40938732]
[ 0.42836261]
[ 0.50887853]
[ 0.39816192]
[ 0.43492234]
[ 0.4429495]
[ 0.52632123]
[ 0.41792059]
[ 0.45251513]
[ 0.50006568]
[ 0.41280875]
[ 0.45148274]
[ 0.36898535]
[ 0.4419629]
[ 0.38453624]
[ 0.30848333]
[ 0.42561403]
[ 0.39966467]
[ 0.33266157]
[ 0.48210257]
[ 0.41928139]
[ 0.49949101]
[ 0.99996781]
[ 0.4893637]
[ 0.40016448]
[ 0.49051782]
[ 0.46155855]
[ 0.44851416]
[ 0.47696063]
[ 0.44879669]
[ 0.40008882]
[ 0.39785534]
[ 0.4012745]
[ 0.42052394]
[ 0.44581822]
[ 0.40161908]
[ 0.31070879]
[ 0.98688275]
[ 0.42118332]
[ 0.37090647]
[ 0.42838728]
[ 0.31446162]
[ 0.39151815]
[ 0.49889642]
[ 0.42832825]
[ 0.46249253]
[ 0.36762097]
[ 0.26699165]
[ 0.39254463]
[ 0.4680796]
[ 0.30208939]
[ 0.39265025]
[ 0.45195541]
[ 0.39773944]
[ 0.43506977]
[ 0.40344778]
[ 0.50097293]
[ 0.46609479]
[ 0.45820239]
[ 0.4219878]
[ 0.26590148]
[ 0.38128054]
[ 0.4847455]
[ 0.45758814]
[ 0.48896709]
[ 0.49401793]
[ 0.46067631]
[ 0.3715626]
[ 0.41526106]
[ 0.53183883]
[ 0.45876449]
[ 0.41905648]
[ 0.23642242]
[ 0.51365411]
[ 0.48350397]
[ 0.43320805]
[ 0.42537156]
[ 0.48274067]
[ 0.29718825]
[ 0.37734494]
[ 0.46357745]
[ 0.45330253]
[ 0.46060768]
[ 0.47941598]
[ 0.47172424]
[ 0.41131258]
[ 0.33213818]
[ 0.44663855]
[ 0.4769001]
[ 0.47038352]
[ 0.45264333]
[ 0.40406281]
[ 0.45904768]
[ 0.55645812]
[ 0.46183762]
[ 0.44254282]
[ 0.43679842]
[ 0.43850118]
[ 0.44758484]
[ 0.44564626]
[ 0.45656839]
[ 0.46668869]
[ 0.47546181]
[ 0.81574875]
[ 0.39087713]
[ 0.47906843]
[ 0.50703567]
[ 0.99043989]
[ 0.46873662]
[ 0.44623929]
[ 0.4893235]
[ 0.47375312]
[ 0.43261245]
[ 0.41041154]
[ 0.44365156]
[ 0.44281891]
[ 0.41636321]
[ 0.45632619]
[ 0.36010355]
[ 0.51721317]
[ 0.45067275]
[ 0.43741935]
[ 0.48131302]
[ 0.44325584]
[ 0.47148922]
[ 1.]
[ 0.39688089]
[ 0.48101196]
[ 0.41198331]
[ 0.46258587]
[ 0.44416168]
[ 0.50012302]
[ 0.47443432]
[ 0.46107009]
[ 0.34885117]
[ 0.42757004]
[ 0.45056412]
[ 0.41226459]
[ 0.44908896]
[ 0.53453147]
[ 0.44196916]
[ 0.45938313]
[ 0.38757306]
[ 0.51701653]
[ 0.37957379]
[ 0.68824875]
[ 0.44964319]
[ 1.]
[ 0.34513283]
[ 0.45793834]
[ 0.42414168]
[ 0.4618752]
[ 0.42972982]
[ 0.47056901]
[ 0.38426733]
[ 0.45104432]
[ 0.42867187]
[ 0.47845063]
[ 0.49867871]
[ 0.4426012]
[ 0.46802309]
[ 0.50031394]
[ 0.3840965]
[ 0.40796599]
[ 0.47593784]
[ 0.40168884]
[ 0.42042083]
[ 0.43995816]
[ 0.45634228]
[ 0.47559309]
[ 0.46829063]
[ 0.38519758]
[ 0.38280252]
[ 0.41698861]
[ 0.49904683]
[ 0.4001686]
[ 0.41283649]
[ 0.42464453]
[ 0.4978615]
[ 0.49687991]
[ 0.39491522]
[ 0.47291464]
[ 0.48241532]
[ 0.43343925]
[ 0.85366404]
[ 0.45470974]
[ 0.38868272]
[ 0.47601187]
[ 0.52126241]
[ 0.46193275]
[ 0.485636]
[ 0.47968727]
[ 0.42288572]
[ 1.]
[ 0.43237242]
[ 0.40191948]
[ 0.48846608]
[ 0.41271237]
[ 0.52907699]
[ 0.46879089]
[ 0.48576838]
[ 0.44187173]
[ 0.32917488]
[ 0.35475603]
[ 0.48143345]
[ 0.46309835]
[ 0.44776353]
[ 0.36692294]
[ 0.43333229]
[ 0.45600203]
[ 0.40958792]
[ 0.36626527]
[ 0.43085679]
[ 0.42586279]
[ 0.39014322]
[ 0.45170927]
[ 0.47638223]
[ 0.4576712]
[ 0.3919456]
[ 0.45460835]
[ 0.47960243]
[ 0.3561739]
[ 0.47400501]
[ 0.394945]
[ 0.39828604]
[ 0.47610849]
[ 0.49035472]
[ 0.45474213]
[ 0.46799117]
[ 0.37075657]
[ 0.50766581]
[ 0.53413743]
[ 0.35783333]
[ 0.47579017]
[ 0.41508776]
[ 0.71980506]
[ 0.55069411]
[ 0.52391678]
[ 0.37376067]
[ 0.4310694]
[ 0.51765323]
[ 0.71501249]
[ 0.45848674]
[ 0.48615029]
[ 0.43298206]
[ 0.52232623]
[ 0.38117796]
[ 0.30434865]
[ 0.42868835]
[ 0.44080782]
[ 0.44340417]
[ 0.41943729]
[ 0.52659667]
[ 0.46300507]
[ 0.37962654]
[ 0.37475657]
[ 0.39296058]
[ 0.40768564]
[ 0.2844196]
[ 0.38992313]
[ 0.40203896]
[ 0.43346396]
[ 0.46043399]
[ 0.46241429]
[ 0.80208474]
[ 0.55068123]
[ 0.44291189]
[ 0.38641146]
[ 0.42829281]
[ 0.44672164]
[ 0.42808062]
[ 0.46830818]
[ 0.5080865]
[ 0.45739442]
[ 0.47082415]
[ 0.43489012]
[ 0.42943886]
[ 0.42552912]
[ 0.41886193]
[ 0.44837642]
[ 0.44552967]
[ 0.45157394]
[ 0.31303334]
[ 0.44047332]
[ 0.51586848]
[ 0.47777843]
[ 0.45496252]
[ 0.35478386]
[ 0.58391857]
[ 0.49913424]
[ 0.42156702]
[ 0.52598369]
[ 0.39625555]
[ 0.45286745]
[ 0.47790843]
[ 0.46272141]
[ 0.42366803]
[ 0.43473634]
[ 0.99999702]
[ 0.55445302]
[ 0.36339167]
[ 1.]
[ 0.37410203]
[ 0.45604685]
[ 0.49927613]
[ 0.99556279]
[ 0.45827368]
[ 0.41236019]
[ 0.36656371]
[ 0.42070058]
[ 0.36694586]
[ 0.42128515]
[ 0.43511879]
[ 0.64033037]
[ 0.50910157]
[ 0.52974111]
[ 0.48050582]
[ 0.4073059]
[ 0.45566681]
[ 0.35180143]
[ 0.47928232]
[ 0.41852203]
[ 0.46426544]
[ 0.37773603]
[ 0.39007449]
[ 0.43697244]
[ 0.45382813]
[ 0.43628547]
[ 0.4523699]
[ 0.67242187]
[ 0.462982]
[ 0.35895151]
[ 0.45755094]
[ 0.44810706]
[ 0.43175066]
[ 0.33960265]
[ 0.46263424]
[ 0.42472196]
[ 0.46238032]
[ 0.52064496]
[ 0.48131096]
[ 0.44160986]
[ 0.33465135]
[ 0.42323434]
[ 0.42935205]
[ 0.55560005]
[ 0.36703935]
[ 0.3977617]
[ 0.45189255]
[ 0.52394539]
[ 0.60717666]
[ 0.44388539]
[ 0.38068029]
[ 0.43605119]
[ 0.46238157]
[ 0.41044071]
[ 0.42776838]
[ 0.48398769]
[ 0.67035538]
[ 0.47916624]
[ 0.49308521]
[ 0.48719969]
[ 0.42259395]
[ 0.38401592]
[ 0.46694401]
[ 0.4612852]
[ 0.43416771]
[ 0.34813154]
[ 0.54065263]
[ 0.51138628]
[ 0.35047922]
[ 0.42155775]
[ 0.46059796]
[ 0.49046412]
[ 0.4739489]
[ 0.99994719]
[ 0.45218691]
[ 0.30612072]
[ 0.51468307]
[ 0.49535027]
[ 0.40232763]
[ 0.45038006]
[ 0.35380512]
[ 0.46347252]
[ 0.42266029]
[ 0.61996329]
[ 0.44252121]
[ 0.43310624]
[ 0.47300962]
[ 0.32363942]
[ 0.53799736]
[ 0.46029851]
[ 0.43761137]
[ 0.45292956]
[ 0.40704331]
[ 0.45133364]
[ 0.43067369]
[ 0.46979147]
[ 0.44636402]
[ 0.48244151]
[ 0.45788816]
[ 0.40609616]
[ 0.36967462]
[ 0.40868819]
[ 0.41726965]
[ 0.43207106]
[ 0.48357153]
[ 0.46305668]
[ 0.44088826]
[ 0.46264735]
[ 0.47575676]
[ 0.39647377]
[ 0.36016762]
[ 0.46049827]
[ 0.47526866]
[ 0.4375855]
[ 0.33626369]
[ 0.45245305]
[ 0.46507117]
[ 0.41413024]
[ 0.41643432]
[ 0.47258985]
[ 0.44409847]
[ 0.47303218]
[ 0.43926468]
[ 0.47597608]
[ 0.46088818]
[ 0.48492584]
[ 0.45651042]
[ 0.432105]
[ 0.43908799]
[ 0.39047199]
[ 0.50478947]
[ 0.4340367]
[ 0.4294579]
[ 0.53813279]
[ 0.46949494]
[ 0.32233247]
[ 0.39518777]
[ 0.48270801]
[ 0.47289377]
[ 0.40047711]
[ 0.41819367]
[ 0.34575576]
[ 0.46282578]
[ 0.428148]
[ 0.47829318]
[ 0.43404415]
[ 0.45648283]
[ 0.318082]
[ 0.5030309]
[ 0.45330209]
[ 0.37007356]
[ 0.42550603]
[ 0.48236096]
[ 0.50711727]
[ 0.44210514]
[ 0.40337875]
[ 0.45272234]
[ 0.47110242]
[ 0.46491808]
[ 0.40822065]
[ 0.46943173]
[ 0.46373478]
[ 0.99131048]
[ 0.52248156]
[ 0.30300644]
[ 0.40802908]
[ 0.4281961]
[ 0.47325096]
[ 0.45569709]
[ 0.43015027]
[ 0.54268533]
[ 0.45552266]
[ 0.36076111]
[ 0.47628176]
[ 0.48783648]
[ 0.53255242]
[ 0.49923548]
[ 0.47812644]
[ 0.41276044]
[ 0.42706901]
[ 0.39356476]
[ 0.44142157]
[ 0.46071395]
[ 0.45627269]
[ 0.54009491]
[ 0.28085962]
[ 0.53817016]
[ 0.45743686]
[ 0.43649054]
[ 0.43937114]
[ 0.42749348]
[ 0.47447973]
[ 0.45133579]
[ 0.4136157]
[ 0.4933112]
[ 0.43686053]
[ 0.49626398]
[ 0.44233942]
[ 0.46795532]
[ 0.51442599]
[ 0.48139039]
[ 0.4690015]
[ 0.47151303]
[ 0.43997878]
[ 0.4477663]
[ 0.46730798]
[ 0.44131309]
[ 0.53762251]
[ 0.49096683]
[ 0.45272288]
[ 0.47774869]
[ 0.43617988]
[ 0.40639672]
[ 0.42827797]
[ 0.37879345]
[ 0.46241993]
[ 0.4233461]
[ 0.36352757]
[ 0.41659513]
[ 0.42365286]
[ 0.41599965]
[ 0.4621343]
[ 0.46197152]
[ 0.47300038]
[ 0.42837057]
[ 0.45356148]
[ 0.54368782]
[ 0.48501343]
[ 0.39956233]
[ 0.35201183]
[ 0.4284271]
[ 0.40980923]
[ 0.4566187]
[ 0.40845346]
[ 0.39542776]
[ 0.44880494]
[ 0.55128437]
[ 0.42249721]
[ 0.50163066]
[ 0.49526218]
[ 0.44498414]
[ 0.45883176]
[ 0.47422984]
[ 0.37417865]
[ 0.52764273]
[ 0.35581473]
[ 0.44309121]
[ 0.42571485]
[ 0.37697181]
[ 0.45130146]
[ 0.41945964]
[ 0.31973732]
[ 0.46396372]
[ 0.47568294]
[ 0.64566201]
[ 0.50802624]
[ 0.47925505]
[ 0.43493068]
[ 0.41932324]
[ 0.43390045]
[ 0.50688064]
[ 0.51869845]
[ 0.42695341]
[ 0.51806408]
[ 0.4340409]
[ 0.38150713]
[ 0.43516681]
[ 0.47157335]
[ 0.46696678]
[ 0.43682575]
[ 0.49498549]
[ 0.41200218]
[ 0.4656868]
[ 0.42888042]
[ 0.44457135]
[ 0.44640538]
[ 0.52412248]
[ 0.37349251]
[ 0.48081014]
[ 0.547607]
[ 0.41191065]
[ 0.43822107]
[ 0.46292895]
[ 0.47980431]
[ 0.46999046]
[ 0.5239448]
[ 0.41337073]
[ 0.45528254]
[ 0.52394539]
[ 0.40115187]
[ 0.55678374]
[ 0.32810062]
[ 0.36627966]
[ 0.47975448]
[ 0.48690695]
[ 0.41959184]
[ 0.33897606]
[ 0.39348543]
[ 0.45721999]
[ 0.39541748]
[ 0.39785737]
[ 0.48470405]
[ 0.32597771]
[ 0.41018414]
[ 0.46259525]
[ 0.42540249]
image dictionary is:
{'AP8': [37, 13, 0], 'AP2': [40, 10, 1], 'AP1': [49, 1, 1], 'AP4': [34, 16, 1], 'AJ5': [50, 0, 0], 'O4': [48, 2, 1], 'G5': [42, 8, 0], 'G2': [42, 8, 1], 'AF8': [44, 6, 0], 'A4': [46, 4, 1], 'A6': [50, 0, 0], 'AO1': [47, 3, 1], 'AO8': [27, 23, 0], 'Z7': [34, 16, 0], 'J4': [47, 3, 1], 'J7': [49, 1, 0], 'J2': [50, 0, 1], 'B4': [49, 1, 1], 'B5': [48, 2, 0], 'B6': [43, 7, 0], 'B7': [50, 0, 0], 'B1': [17, 33, 1], 'B2': [49, 1, 1], 'AG7': [43, 7, 0], 'AG6': [43, 7, 0], 'B8': [50, 0, 0], 'K5': [33, 17, 0], 'M4': [50, 0, 1], 'AN6': [41, 9, 0], 'AN7': [36, 14, 0], 'M1': [50, 0, 1], 'AN8': [43, 7, 0], 'Z8': [36, 14, 0], 'AF5': [48, 2, 0], 'AF7': [50, 0, 0], 'P2': [38, 12, 1], 'P3': [42, 8, 1], 'P1': [18, 32, 1], 'P4': [46, 4, 1], 'AM8': [31, 19, 0], 'AM1': [36, 14, 1], 'AM3': [31, 19, 1], 'AM2': [41, 9, 1], 'AM5': [19, 31, 0], 'AM4': [41, 9, 1], 'AM7': [47, 3, 0], 'H2': [43, 7, 1], 'H3': [47, 3, 1], 'H1': [31, 19, 1], 'H7': [49, 1, 0], 'H4': [50, 0, 1], 'K3': [50, 0, 1], 'K2': [50, 0, 1], 'K7': [50, 0, 0], 'AL8': [49, 1, 0], 'AL6': [47, 3, 0], 'AL7': [39, 11, 0], 'AL5': [50, 0, 0], 'AL1': [46, 4, 1], 'AD5': [38, 12, 0], 'AD8': [49, 1, 0], 'C3': [50, 0, 1], 'C1': [37, 13, 1], 'C4': [46, 4, 1], 'N1': [50, 0, 1], 'N4': [50, 0, 1], 'F4': [41, 9, 1], 'F5': [34, 16, 0], 'F6': [50, 0, 0], 'F8': [29, 21, 0], 'AK2': [44, 6, 1], 'AK1': [46, 4, 1], 'AK4': [34, 16, 1], 'Q1': [50, 0, 1], 'AK3': [33, 17, 1], 'Q2': [47, 3, 1], 'Q4': [50, 0, 1], 'AJ8': [49, 1, 0], 'I1': [33, 17, 1], 'I3': [46, 4, 1], 'I2': [35, 15, 1], 'I4': [48, 2, 1], 'AJ6': [50, 0, 0], 'AJ7': [49, 1, 0], 'A1': [49, 1, 1], 'A2': [50, 0, 1], 'AB5': [49, 1, 0], 'A7': [49, 1, 0], 'AB7': [50, 0, 0], 'A8': [45, 5, 0], 'L4': [29, 21, 1], 'L5': [50, 0, 0], 'L2': [25, 25, 1], 'L1': [39, 11, 1], 'AI8': [23, 27, 0], 'Y5': [30, 20, 0], 'AI6': [46, 4, 0], 'Y8': [49, 1, 0], 'D8': [46, 4, 0], 'D7': [46, 4, 0], 'D4': [46, 4, 1], 'D2': [50, 0, 1], 'AA8': [24, 26, 0], 'D1': [50, 0, 1]}
probabilities for 2 classes are:
[37, 13, 0]
[40, 10, 1]
[49, 1, 1]
[34, 16, 1]
[50, 0, 0]
[48, 2, 1]
[42, 8, 0]
[42, 8, 1]
[44, 6, 0]
[46, 4, 1]
[50, 0, 0]
[47, 3, 1]
[27, 23, 0]
[34, 16, 0]
[47, 3, 1]
[49, 1, 0]
[50, 0, 1]
[49, 1, 1]
[48, 2, 0]
[43, 7, 0]
[50, 0, 0]
[17, 33, 1]
[49, 1, 1]
[43, 7, 0]
[43, 7, 0]
[50, 0, 0]
[33, 17, 0]
[50, 0, 1]
[41, 9, 0]
[36, 14, 0]
[50, 0, 1]
[43, 7, 0]
[36, 14, 0]
[48, 2, 0]
[50, 0, 0]
[38, 12, 1]
[42, 8, 1]
[18, 32, 1]
[46, 4, 1]
[31, 19, 0]
[36, 14, 1]
[31, 19, 1]
[41, 9, 1]
[19, 31, 0]
[41, 9, 1]
[47, 3, 0]
[43, 7, 1]
[47, 3, 1]
[31, 19, 1]
[49, 1, 0]
[50, 0, 1]
[50, 0, 1]
[50, 0, 1]
[50, 0, 0]
[49, 1, 0]
[47, 3, 0]
[39, 11, 0]
[50, 0, 0]
[46, 4, 1]
[38, 12, 0]
[49, 1, 0]
[50, 0, 1]
[37, 13, 1]
[46, 4, 1]
[50, 0, 1]
[50, 0, 1]
[41, 9, 1]
[34, 16, 0]
[50, 0, 0]
[29, 21, 0]
[44, 6, 1]
[46, 4, 1]
[34, 16, 1]
[50, 0, 1]
[33, 17, 1]
[47, 3, 1]
[50, 0, 1]
[49, 1, 0]
[33, 17, 1]
[46, 4, 1]
[35, 15, 1]
[48, 2, 1]
[50, 0, 0]
[49, 1, 0]
[49, 1, 1]
[50, 0, 1]
[49, 1, 0]
[49, 1, 0]
[50, 0, 0]
[45, 5, 0]
[29, 21, 1]
[50, 0, 0]
[25, 25, 1]
[39, 11, 1]
[23, 27, 0]
[30, 20, 0]
[46, 4, 0]
[49, 1, 0]
[46, 4, 0]
[46, 4, 0]
[46, 4, 1]
[50, 0, 1]
[24, 26, 0]
[50, 0, 1]
Patch-wide accuracy is: 0.485961538462
Image-wide accuracy given by majority vote is: 0.480769230769
