60000/60000 [==============================] - 57s - loss: 0.3747 - acc: 0.9633 - val_loss: 0.2511 - val_acc: 0.9769
Epoch 2/40
60000/60000 [==============================] - 55s - loss: 0.2012 - acc: 0.9809 - val_loss: 0.1638 - val_acc: 0.9861
Epoch 3/40
60000/60000 [==============================] - 55s - loss: 0.1554 - acc: 0.9840 - val_loss: 0.1412 - val_acc: 0.9839
Epoch 4/40
60000/60000 [==============================] - 55s - loss: 0.1324 - acc: 0.9855 - val_loss: 0.1282 - val_acc: 0.9865
Epoch 5/40
60000/60000 [==============================] - 55s - loss: 0.1209 - acc: 0.9870 - val_loss: 0.1154 - val_acc: 0.9880
Epoch 6/40
60000/60000 [==============================] - 55s - loss: 0.1090 - acc: 0.9881 - val_loss: 0.1289 - val_acc: 0.9824
Epoch 7/40
60000/60000 [==============================] - 55s - loss: 0.1016 - acc: 0.9890 - val_loss: 0.1120 - val_acc: 0.9843
Epoch 8/40
60000/60000 [==============================] - 55s - loss: 0.0909 - acc: 0.9901 - val_loss: 0.0953 - val_acc: 0.9890
Epoch 9/40
60000/60000 [==============================] - 55s - loss: 0.0831 - acc: 0.9908 - val_loss: 0.1148 - val_acc: 0.9812
Epoch 10/40
60000/60000 [==============================] - 55s - loss: 0.0777 - acc: 0.9915 - val_loss: 0.1371 - val_acc: 0.9691
Epoch 11/40
60000/60000 [==============================] - 55s - loss: 0.0716 - acc: 0.9924 - val_loss: 0.1070 - val_acc: 0.9806
Epoch 12/40
60000/60000 [==============================] - 55s - loss: 0.0688 - acc: 0.9921 - val_loss: 0.0815 - val_acc: 0.9876
Epoch 13/40
60000/60000 [==============================] - 55s - loss: 0.0650 - acc: 0.9925 - val_loss: 0.0779 - val_acc: 0.9877
Epoch 14/40
60000/60000 [==============================] - 55s - loss: 0.0616 - acc: 0.9927 - val_loss: 0.0774 - val_acc: 0.9882
Epoch 15/40
60000/60000 [==============================] - 55s - loss: 0.0585 - acc: 0.9934 - val_loss: 0.0653 - val_acc: 0.9921
Epoch 16/40
60000/60000 [==============================] - 55s - loss: 0.0557 - acc: 0.9942 - val_loss: 0.0773 - val_acc: 0.9867
Epoch 17/40
60000/60000 [==============================] - 55s - loss: 0.0552 - acc: 0.9939 - val_loss: 0.0673 - val_acc: 0.9904
Epoch 18/40
60000/60000 [==============================] - 55s - loss: 0.0530 - acc: 0.9940 - val_loss: 0.0847 - val_acc: 0.9879
Epoch 19/40
60000/60000 [==============================] - 55s - loss: 0.0517 - acc: 0.9942 - val_loss: 0.0664 - val_acc: 0.9900
Epoch 20/40
60000/60000 [==============================] - 55s - loss: 0.0489 - acc: 0.9948 - val_loss: 0.0597 - val_acc: 0.9915
Epoch 21/40
60000/60000 [==============================] - 55s - loss: 0.0475 - acc: 0.9952 - val_loss: 0.0662 - val_acc: 0.9893
Epoch 22/40
60000/60000 [==============================] - 55s - loss: 0.0486 - acc: 0.9943 - val_loss: 0.0713 - val_acc: 0.9881
Epoch 23/40
60000/60000 [==============================] - 55s - loss: 0.0467 - acc: 0.9946 - val_loss: 0.0569 - val_acc: 0.9927
Epoch 24/40
60000/60000 [==============================] - 55s - loss: 0.0461 - acc: 0.9947 - val_loss: 0.0712 - val_acc: 0.9888
Epoch 25/40
60000/60000 [==============================] - 55s - loss: 0.0464 - acc: 0.9950 - val_loss: 0.0720 - val_acc: 0.9872
Epoch 26/40
60000/60000 [==============================] - 55s - loss: 0.0442 - acc: 0.9953 - val_loss: 0.0698 - val_acc: 0.9878
Epoch 27/40
60000/60000 [==============================] - 55s - loss: 0.0438 - acc: 0.9954 - val_loss: 0.0631 - val_acc: 0.9899
Epoch 28/40
60000/60000 [==============================] - 55s - loss: 0.0438 - acc: 0.9950 - val_loss: 0.0727 - val_acc: 0.9886
Epoch 29/40
60000/60000 [==============================] - 55s - loss: 0.0419 - acc: 0.9956 - val_loss: 0.0604 - val_acc: 0.9902
Epoch 30/40
60000/60000 [==============================] - 55s - loss: 0.0309 - acc: 0.9986 - val_loss: 0.0472 - val_acc: 0.9941
Epoch 31/40
60000/60000 [==============================] - 55s - loss: 0.0257 - acc: 0.9993 - val_loss: 0.0534 - val_acc: 0.9921
Epoch 32/40
60000/60000 [==============================] - 55s - loss: 0.0236 - acc: 0.9990 - val_loss: 0.0475 - val_acc: 0.9933
Epoch 33/40
60000/60000 [==============================] - 55s - loss: 0.0221 - acc: 0.9991 - val_loss: 0.0429 - val_acc: 0.9931
Epoch 34/40
60000/60000 [==============================] - 55s - loss: 0.0201 - acc: 0.9992 - val_loss: 0.0460 - val_acc: 0.9918
Epoch 35/40
60000/60000 [==============================] - 55s - loss: 0.0196 - acc: 0.9990 - val_loss: 0.0433 - val_acc: 0.9936
Epoch 36/40
60000/60000 [==============================] - 55s - loss: 0.0185 - acc: 0.9989 - val_loss: 0.0488 - val_acc: 0.9915
Epoch 37/40
60000/60000 [==============================] - 55s - loss: 0.0174 - acc: 0.9993 - val_loss: 0.0488 - val_acc: 0.9916
Epoch 38/40
60000/60000 [==============================] - 55s - loss: 0.0174 - acc: 0.9992 - val_loss: 0.0471 - val_acc: 0.9913
Epoch 39/40
60000/60000 [==============================] - 55s - loss: 0.0168 - acc: 0.9990 - val_loss: 0.0471 - val_acc: 0.9918
Epoch 40/40
60000/60000 [==============================] - 55s - loss: 0.0145 - acc: 0.9998 - val_loss: 0.0403 - val_acc: 0.9933
Test loss: 0.0402911186621
Test accuracy: 0.9933