Epoch 1/100
187/187 [==============================] - 218s - loss: 4.1541 - acc: 0.6847 - val_loss: 1.3589 - val_acc: 0.5071
Epoch 2/100
187/187 [==============================] - 215s - loss: 0.8600 - acc: 0.7167 - val_loss: 0.8055 - val_acc: 0.6442
Epoch 3/100
187/187 [==============================] - 215s - loss: 0.6490 - acc: 0.7368 - val_loss: 0.7710 - val_acc: 0.4990
Epoch 4/100
187/187 [==============================] - 215s - loss: 0.6422 - acc: 0.7169 - val_loss: 0.9133 - val_acc: 0.6196
Epoch 5/100
187/187 [==============================] - 215s - loss: 0.5999 - acc: 0.7360 - val_loss: 0.9508 - val_acc: 0.4999
Epoch 6/100
187/187 [==============================] - 214s - loss: 0.5859 - acc: 0.7383 - val_loss: 0.7712 - val_acc: 0.5459
Epoch 7/100
187/187 [==============================] - 216s - loss: 0.5873 - acc: 0.7340 - val_loss: 0.8722 - val_acc: 0.4998
Epoch 8/100
187/187 [==============================] - 220s - loss: 0.5784 - acc: 0.7361 - val_loss: 4.9297 - val_acc: 0.5001
Epoch 9/100
187/187 [==============================] - 218s - loss: 0.6257 - acc: 0.7077 - val_loss: 3.6303 - val_acc: 0.5703
Epoch 10/100
187/187 [==============================] - 217s - loss: 0.6007 - acc: 0.7582 - val_loss: 0.9472 - val_acc: 0.5066
Epoch 11/100
187/187 [==============================] - 217s - loss: 0.5578 - acc: 0.7664 - val_loss: 0.7198 - val_acc: 0.6375
Epoch 12/100
187/187 [==============================] - 217s - loss: 0.5271 - acc: 0.7779 - val_loss: 0.8127 - val_acc: 0.5220
Epoch 13/100
187/187 [==============================] - 217s - loss: 0.5178 - acc: 0.7821 - val_loss: 1.4457 - val_acc: 0.6002
Epoch 14/100
187/187 [==============================] - 217s - loss: 0.5061 - acc: 0.7851 - val_loss: 0.6820 - val_acc: 0.6511
Epoch 15/100
187/187 [==============================] - 217s - loss: 0.5018 - acc: 0.7874 - val_loss: 0.5801 - val_acc: 0.6940
Epoch 16/100
187/187 [==============================] - 217s - loss: 0.4867 - acc: 0.7926 - val_loss: 0.6114 - val_acc: 0.7142
Epoch 17/100
187/187 [==============================] - 220s - loss: 0.4896 - acc: 0.7889 - val_loss: 1.0757 - val_acc: 0.5002
Epoch 18/100
187/187 [==============================] - 219s - loss: 0.4813 - acc: 0.7924 - val_loss: 0.8217 - val_acc: 0.6382
Epoch 19/100
187/187 [==============================] - 220s - loss: 0.4700 - acc: 0.7963 - val_loss: 0.9213 - val_acc: 0.6311
Epoch 20/100
187/187 [==============================] - 221s - loss: 0.4635 - acc: 0.8001 - val_loss: 7.0946 - val_acc: 0.5033
Epoch 21/100
187/187 [==============================] - 220s - loss: 0.4729 - acc: 0.7978 - val_loss: 0.8473 - val_acc: 0.5865
Epoch 22/100
187/187 [==============================] - 219s - loss: 0.4467 - acc: 0.8100 - val_loss: 0.5284 - val_acc: 0.7749
Epoch 23/100
187/187 [==============================] - 215s - loss: 0.4389 - acc: 0.8172 - val_loss: 0.5034 - val_acc: 0.7898
Epoch 24/100
187/187 [==============================] - 215s - loss: 0.4395 - acc: 0.8147 - val_loss: 0.4967 - val_acc: 0.7963
Epoch 25/100
187/187 [==============================] - 215s - loss: 0.4213 - acc: 0.8280 - val_loss: 0.5422 - val_acc: 0.7609
Epoch 26/100
187/187 [==============================] - 215s - loss: 0.4311 - acc: 0.8190 - val_loss: 0.5263 - val_acc: 0.7565
Epoch 27/100
187/187 [==============================] - 215s - loss: 0.4210 - acc: 0.8274 - val_loss: 0.5393 - val_acc: 0.7753
Epoch 28/100
187/187 [==============================] - 215s - loss: 0.4189 - acc: 0.8229 - val_loss: 0.8856 - val_acc: 0.6760
Epoch 29/100
187/187 [==============================] - 215s - loss: 0.4236 - acc: 0.8210 - val_loss: 0.6513 - val_acc: 0.7167
Epoch 30/100
187/187 [==============================] - 215s - loss: 0.4150 - acc: 0.8247 - val_loss: 0.5608 - val_acc: 0.7572
Epoch 31/100
187/187 [==============================] - 215s - loss: 0.4023 - acc: 0.8337 - val_loss: 0.5042 - val_acc: 0.7951
Epoch 32/100
187/187 [==============================] - 215s - loss: 0.4022 - acc: 0.8366 - val_loss: 0.4918 - val_acc: 0.8007
Epoch 33/100
187/187 [==============================] - 215s - loss: 0.4073 - acc: 0.8336 - val_loss: 0.5092 - val_acc: 0.7968
Epoch 34/100
187/187 [==============================] - 215s - loss: 0.4057 - acc: 0.8334 - val_loss: 0.5045 - val_acc: 0.7947
Epoch 35/100
187/187 [==============================] - 215s - loss: 0.4014 - acc: 0.8364 - val_loss: 0.5021 - val_acc: 0.7997
Epoch 36/100
187/187 [==============================] - 215s - loss: 0.4021 - acc: 0.8344 - val_loss: 0.5232 - val_acc: 0.7830
Epoch 37/100
187/187 [==============================] - 215s - loss: 0.3988 - acc: 0.8351 - val_loss: 0.4996 - val_acc: 0.8002
Epoch 38/100
187/187 [==============================] - 215s - loss: 0.4072 - acc: 0.8327 - val_loss: 0.4998 - val_acc: 0.7952
Epoch 39/100
187/187 [==============================] - 215s - loss: 0.3917 - acc: 0.8443 - val_loss: 0.5082 - val_acc: 0.7991
Epoch 40/100
187/187 [==============================] - 215s - loss: 0.3962 - acc: 0.8411 - val_loss: 0.5065 - val_acc: 0.7964
Epoch 41/100
187/187 [==============================] - 215s - loss: 0.3893 - acc: 0.8406 - val_loss: 0.5097 - val_acc: 0.7945
Epoch 42/100
187/187 [==============================] - 215s - loss: 0.3901 - acc: 0.8436 - val_loss: 0.5077 - val_acc: 0.7956
Epoch 43/100
187/187 [==============================] - 215s - loss: 0.4018 - acc: 0.8314 - val_loss: 0.5076 - val_acc: 0.7966
Epoch 44/100
187/187 [==============================] - 215s - loss: 0.4012 - acc: 0.8326 - val_loss: 0.5064 - val_acc: 0.7976
Epoch 45/100
187/187 [==============================] - 215s - loss: 0.3882 - acc: 0.8431 - val_loss: 0.5082 - val_acc: 0.7937
Epoch 46/100
187/187 [==============================] - 215s - loss: 0.3968 - acc: 0.8364 - val_loss: 0.5104 - val_acc: 0.7969
Epoch 47/100
187/187 [==============================] - 215s - loss: 0.3983 - acc: 0.8359 - val_loss: 0.5111 - val_acc: 0.7960
Epoch 48/100
187/187 [==============================] - 215s - loss: 0.3920 - acc: 0.8399 - val_loss: 0.5093 - val_acc: 0.7949
Epoch 49/100
187/187 [==============================] - 215s - loss: 0.4012 - acc: 0.8362 - val_loss: 0.5119 - val_acc: 0.7951
Epoch 50/100
187/187 [==============================] - 215s - loss: 0.3953 - acc: 0.8396 - val_loss: 0.5106 - val_acc: 0.7970
Epoch 51/100
187/187 [==============================] - 215s - loss: 0.3969 - acc: 0.8359 - val_loss: 0.5117 - val_acc: 0.7965
Epoch 52/100
187/187 [==============================] - 215s - loss: 0.3862 - acc: 0.8451 - val_loss: 0.5099 - val_acc: 0.7981
Epoch 53/100
187/187 [==============================] - 215s - loss: 0.3951 - acc: 0.8382 - val_loss: 0.5097 - val_acc: 0.7985
