Bagging result of the following models:
['bangqi_results/bangqi_6_9_1_44pm_1/', 'results/8_18_resnet18_l2=1e-5/', 'results/10_5_resnet50/', 'results/9_27_resnet34_l2=1e-4/', 'bangqi_results/bangqi_6_13_12_18pm']

probabilities for 2 classes are:
('image name:', 'AP8')
('true label:', 0)
('result of model', 0, ': ', [49, 1, 0])
[49, 1, 0]
('result of model', 1, ': ', [18, 32, 0])
[18, 32, 0]
('result of model', 2, ': ', [8, 42, 0])
[8, 42, 0]
('result of model', 3, ': ', [14, 36, 0])
[14, 36, 0]
('result of model', 4, ': ', [39, 11, 0])
[39, 11, 0]
('# of model votes positive:', 3, ', # of models vote negative: ', 2)
+++++++++++++++++++++++++++++++++++++++++++++++++++++++++++++++++=
Wrong!
('image name:', 'AP2')
('true label:', 1)
('result of model', 0, ': ', [49, 1, 1])
[49, 1, 1]
('result of model', 1, ': ', [28, 22, 1])
[28, 22, 1]
('result of model', 2, ': ', [6, 44, 1])
[6, 44, 1]
('result of model', 3, ': ', [14, 36, 1])
[14, 36, 1]
('result of model', 4, ': ', [47, 3, 1])
[47, 3, 1]
('# of model votes positive:', 2, ', # of models vote negative: ', 3)
+++++++++++++++++++++++++++++++++++++++++++++++++++++++++++++++++=
Wrong!
('image name:', 'AP1')
('true label:', 1)
('result of model', 0, ': ', [50, 0, 1])
[50, 0, 1]
('result of model', 1, ': ', [22, 28, 1])
[22, 28, 1]
('result of model', 2, ': ', [6, 44, 1])
[6, 44, 1]
('result of model', 3, ': ', [9, 41, 1])
[9, 41, 1]
('result of model', 4, ': ', [43, 7, 1])
[43, 7, 1]
('# of model votes positive:', 3, ', # of models vote negative: ', 2)
('image name:', 'AP4')
('true label:', 1)
('result of model', 0, ': ', [49, 1, 1])
[49, 1, 1]
('result of model', 1, ': ', [25, 25, 1])
[25, 25, 1]
('result of model', 2, ': ', [6, 44, 1])
[6, 44, 1]
('result of model', 3, ': ', [14, 36, 1])
[14, 36, 1]
('result of model', 4, ': ', [44, 6, 1])
[44, 6, 1]
('# of model votes positive:', 3, ', # of models vote negative: ', 2)
('image name:', 'AJ5')
('true label:', 0)
('result of model', 0, ': ', [50, 0, 0])
[50, 0, 0]
('result of model', 1, ': ', [15, 35, 0])
[15, 35, 0]
('result of model', 2, ': ', [7, 43, 0])
[7, 43, 0]
('result of model', 3, ': ', [12, 38, 0])
[12, 38, 0]
('result of model', 4, ': ', [42, 8, 0])
[42, 8, 0]
('# of model votes positive:', 3, ', # of models vote negative: ', 2)
+++++++++++++++++++++++++++++++++++++++++++++++++++++++++++++++++=
Wrong!
('image name:', 'O4')
('true label:', 1)
('result of model', 0, ': ', [50, 0, 1])
[50, 0, 1]
('result of model', 1, ': ', [20, 30, 1])
[20, 30, 1]
('result of model', 2, ': ', [5, 45, 1])
[5, 45, 1]
('result of model', 3, ': ', [14, 36, 1])
[14, 36, 1]
('result of model', 4, ': ', [46, 4, 1])
[46, 4, 1]
('# of model votes positive:', 3, ', # of models vote negative: ', 2)
('image name:', 'G5')
('true label:', 0)
('result of model', 0, ': ', [38, 12, 0])
[38, 12, 0]
('result of model', 1, ': ', [19, 31, 0])
[19, 31, 0]
('result of model', 2, ': ', [11, 39, 0])
[11, 39, 0]
('result of model', 3, ': ', [14, 36, 0])
[14, 36, 0]
('result of model', 4, ': ', [41, 9, 0])
[41, 9, 0]
('# of model votes positive:', 3, ', # of models vote negative: ', 2)
+++++++++++++++++++++++++++++++++++++++++++++++++++++++++++++++++=
Wrong!
('image name:', 'G2')
('true label:', 1)
('result of model', 0, ': ', [44, 6, 1])
[44, 6, 1]
('result of model', 1, ': ', [27, 23, 1])
[27, 23, 1]
('result of model', 2, ': ', [9, 41, 1])
[9, 41, 1]
('result of model', 3, ': ', [11, 39, 1])
[11, 39, 1]
('result of model', 4, ': ', [41, 9, 1])
[41, 9, 1]
('# of model votes positive:', 2, ', # of models vote negative: ', 3)
+++++++++++++++++++++++++++++++++++++++++++++++++++++++++++++++++=
Wrong!
('image name:', 'Z8')
('true label:', 0)
('result of model', 0, ': ', [41, 9, 0])
[41, 9, 0]
('result of model', 1, ': ', [19, 31, 0])
[19, 31, 0]
('result of model', 2, ': ', [7, 43, 0])
[7, 43, 0]
('result of model', 3, ': ', [13, 37, 0])
[13, 37, 0]
('result of model', 4, ': ', [43, 7, 0])
[43, 7, 0]
('# of model votes positive:', 3, ', # of models vote negative: ', 2)
+++++++++++++++++++++++++++++++++++++++++++++++++++++++++++++++++=
Wrong!
('image name:', 'A4')
('true label:', 1)
('result of model', 0, ': ', [48, 2, 1])
[48, 2, 1]
('result of model', 1, ': ', [20, 30, 1])
[20, 30, 1]
('result of model', 2, ': ', [8, 42, 1])
[8, 42, 1]
('result of model', 3, ': ', [15, 35, 1])
[15, 35, 1]
('result of model', 4, ': ', [41, 9, 1])
[41, 9, 1]
('# of model votes positive:', 3, ', # of models vote negative: ', 2)
('image name:', 'A6')
('true label:', 0)
('result of model', 0, ': ', [49, 1, 0])
[49, 1, 0]
('result of model', 1, ': ', [17, 33, 0])
[17, 33, 0]
('result of model', 2, ': ', [7, 43, 0])
[7, 43, 0]
('result of model', 3, ': ', [14, 36, 0])
[14, 36, 0]
('result of model', 4, ': ', [40, 10, 0])
[40, 10, 0]
('# of model votes positive:', 3, ', # of models vote negative: ', 2)
+++++++++++++++++++++++++++++++++++++++++++++++++++++++++++++++++=
Wrong!
('image name:', 'AO1')
('true label:', 1)
('result of model', 0, ': ', [50, 0, 1])
[50, 0, 1]
('result of model', 1, ': ', [23, 27, 1])
[23, 27, 1]
('result of model', 2, ': ', [11, 39, 1])
[11, 39, 1]
('result of model', 3, ': ', [12, 38, 1])
[12, 38, 1]
('result of model', 4, ': ', [42, 8, 1])
[42, 8, 1]
('# of model votes positive:', 3, ', # of models vote negative: ', 2)
('image name:', 'AO8')
('true label:', 0)
('result of model', 0, ': ', [32, 18, 0])
[32, 18, 0]
('result of model', 1, ': ', [24, 26, 0])
[24, 26, 0]
('result of model', 2, ': ', [6, 44, 0])
[6, 44, 0]
('result of model', 3, ': ', [12, 38, 0])
[12, 38, 0]
('result of model', 4, ': ', [42, 8, 0])
[42, 8, 0]
('# of model votes positive:', 3, ', # of models vote negative: ', 2)
+++++++++++++++++++++++++++++++++++++++++++++++++++++++++++++++++=
Wrong!
('image name:', 'AF7')
('true label:', 0)
('result of model', 0, ': ', [50, 0, 0])
[50, 0, 0]
('result of model', 1, ': ', [23, 27, 0])
[23, 27, 0]
('result of model', 2, ': ', [7, 43, 0])
[7, 43, 0]
('result of model', 3, ': ', [18, 32, 0])
[18, 32, 0]
('result of model', 4, ': ', [43, 7, 0])
[43, 7, 0]
('# of model votes positive:', 3, ', # of models vote negative: ', 2)
+++++++++++++++++++++++++++++++++++++++++++++++++++++++++++++++++=
Wrong!
('image name:', 'J4')
('true label:', 1)
('result of model', 0, ': ', [49, 1, 1])
[49, 1, 1]
('result of model', 1, ': ', [22, 28, 1])
[22, 28, 1]
('result of model', 2, ': ', [7, 43, 1])
[7, 43, 1]
('result of model', 3, ': ', [8, 42, 1])
[8, 42, 1]
('result of model', 4, ': ', [40, 10, 1])
[40, 10, 1]
('# of model votes positive:', 3, ', # of models vote negative: ', 2)
('image name:', 'J7')
('true label:', 0)
('result of model', 0, ': ', [44, 6, 0])
[44, 6, 0]
('result of model', 1, ': ', [21, 29, 0])
[21, 29, 0]
('result of model', 2, ': ', [7, 43, 0])
[7, 43, 0]
('result of model', 3, ': ', [14, 36, 0])
[14, 36, 0]
('result of model', 4, ': ', [45, 5, 0])
[45, 5, 0]
('# of model votes positive:', 3, ', # of models vote negative: ', 2)
+++++++++++++++++++++++++++++++++++++++++++++++++++++++++++++++++=
Wrong!
('image name:', 'J2')
('true label:', 1)
('result of model', 0, ': ', [50, 0, 1])
[50, 0, 1]
('result of model', 1, ': ', [25, 25, 1])
[25, 25, 1]
('result of model', 2, ': ', [11, 39, 1])
[11, 39, 1]
('result of model', 3, ': ', [19, 31, 1])
[19, 31, 1]
('result of model', 4, ': ', [44, 6, 1])
[44, 6, 1]
('# of model votes positive:', 3, ', # of models vote negative: ', 2)
('image name:', 'B4')
('true label:', 1)
('result of model', 0, ': ', [50, 0, 1])
[50, 0, 1]
('result of model', 1, ': ', [25, 25, 1])
[25, 25, 1]
('result of model', 2, ': ', [13, 37, 1])
[13, 37, 1]
('result of model', 3, ': ', [14, 36, 1])
[14, 36, 1]
('result of model', 4, ': ', [41, 9, 1])
[41, 9, 1]
('# of model votes positive:', 3, ', # of models vote negative: ', 2)
('image name:', 'F8')
('true label:', 0)
('result of model', 0, ': ', [44, 6, 0])
[44, 6, 0]
('result of model', 1, ': ', [23, 27, 0])
[23, 27, 0]
('result of model', 2, ': ', [8, 42, 0])
[8, 42, 0]
('result of model', 3, ': ', [16, 34, 0])
[16, 34, 0]
('result of model', 4, ': ', [43, 7, 0])
[43, 7, 0]
('# of model votes positive:', 3, ', # of models vote negative: ', 2)
+++++++++++++++++++++++++++++++++++++++++++++++++++++++++++++++++=
Wrong!
('image name:', 'B6')
('true label:', 0)
('result of model', 0, ': ', [50, 0, 0])
[50, 0, 0]
('result of model', 1, ': ', [20, 30, 0])
[20, 30, 0]
('result of model', 2, ': ', [5, 45, 0])
[5, 45, 0]
('result of model', 3, ': ', [14, 36, 0])
[14, 36, 0]
('result of model', 4, ': ', [43, 7, 0])
[43, 7, 0]
('# of model votes positive:', 3, ', # of models vote negative: ', 2)
+++++++++++++++++++++++++++++++++++++++++++++++++++++++++++++++++=
Wrong!
('image name:', 'B7')
('true label:', 0)
('result of model', 0, ': ', [50, 0, 0])
[50, 0, 0]
('result of model', 1, ': ', [22, 28, 0])
[22, 28, 0]
('result of model', 2, ': ', [10, 40, 0])
[10, 40, 0]
('result of model', 3, ': ', [16, 34, 0])
[16, 34, 0]
('result of model', 4, ': ', [42, 8, 0])
[42, 8, 0]
('# of model votes positive:', 3, ', # of models vote negative: ', 2)
+++++++++++++++++++++++++++++++++++++++++++++++++++++++++++++++++=
Wrong!
('image name:', 'B1')
('true label:', 1)
('result of model', 0, ': ', [46, 4, 1])
[46, 4, 1]
('result of model', 1, ': ', [19, 31, 1])
[19, 31, 1]
('result of model', 2, ': ', [9, 41, 1])
[9, 41, 1]
('result of model', 3, ': ', [13, 37, 1])
[13, 37, 1]
('result of model', 4, ': ', [44, 6, 1])
[44, 6, 1]
('# of model votes positive:', 3, ', # of models vote negative: ', 2)
('image name:', 'B2')
('true label:', 1)
('result of model', 0, ': ', [50, 0, 1])
[50, 0, 1]
('result of model', 1, ': ', [20, 30, 1])
[20, 30, 1]
('result of model', 2, ': ', [7, 43, 1])
[7, 43, 1]
('result of model', 3, ': ', [12, 38, 1])
[12, 38, 1]
('result of model', 4, ': ', [44, 6, 1])
[44, 6, 1]
('# of model votes positive:', 3, ', # of models vote negative: ', 2)
('image name:', 'AG7')
('true label:', 0)
('result of model', 0, ': ', [46, 4, 0])
[46, 4, 0]
('result of model', 1, ': ', [22, 28, 0])
[22, 28, 0]
('result of model', 2, ': ', [6, 44, 0])
[6, 44, 0]
('result of model', 3, ': ', [7, 43, 0])
[7, 43, 0]
('result of model', 4, ': ', [43, 7, 0])
[43, 7, 0]
('# of model votes positive:', 3, ', # of models vote negative: ', 2)
+++++++++++++++++++++++++++++++++++++++++++++++++++++++++++++++++=
Wrong!
('image name:', 'AG6')
('true label:', 0)
('result of model', 0, ': ', [47, 3, 0])
[47, 3, 0]
('result of model', 1, ': ', [18, 32, 0])
[18, 32, 0]
('result of model', 2, ': ', [5, 45, 0])
[5, 45, 0]
('result of model', 3, ': ', [11, 39, 0])
[11, 39, 0]
('result of model', 4, ': ', [42, 8, 0])
[42, 8, 0]
('# of model votes positive:', 3, ', # of models vote negative: ', 2)
+++++++++++++++++++++++++++++++++++++++++++++++++++++++++++++++++=
Wrong!
('image name:', 'B8')
('true label:', 0)
('result of model', 0, ': ', [50, 0, 0])
[50, 0, 0]
('result of model', 1, ': ', [26, 24, 0])
[26, 24, 0]
('result of model', 2, ': ', [10, 40, 0])
[10, 40, 0]
('result of model', 3, ': ', [14, 36, 0])
[14, 36, 0]
('result of model', 4, ': ', [44, 6, 0])
[44, 6, 0]
('# of model votes positive:', 2, ', # of models vote negative: ', 3)
('image name:', 'AL8')
('true label:', 0)
('result of model', 0, ': ', [50, 0, 0])
[50, 0, 0]
('result of model', 1, ': ', [17, 33, 0])
[17, 33, 0]
('result of model', 2, ': ', [4, 46, 0])
[4, 46, 0]
('result of model', 3, ': ', [12, 38, 0])
[12, 38, 0]
('result of model', 4, ': ', [40, 10, 0])
[40, 10, 0]
('# of model votes positive:', 3, ', # of models vote negative: ', 2)
+++++++++++++++++++++++++++++++++++++++++++++++++++++++++++++++++=
Wrong!
('image name:', 'M4')
('true label:', 1)
('result of model', 0, ': ', [49, 1, 1])
[49, 1, 1]
('result of model', 1, ': ', [25, 25, 1])
[25, 25, 1]
('result of model', 2, ': ', [9, 41, 1])
[9, 41, 1]
('result of model', 3, ': ', [19, 31, 1])
[19, 31, 1]
('result of model', 4, ': ', [39, 11, 1])
[39, 11, 1]
('# of model votes positive:', 3, ', # of models vote negative: ', 2)
('image name:', 'AN6')
('true label:', 0)
('result of model', 0, ': ', [48, 2, 0])
[48, 2, 0]
('result of model', 1, ': ', [19, 31, 0])
[19, 31, 0]
('result of model', 2, ': ', [5, 45, 0])
[5, 45, 0]
('result of model', 3, ': ', [6, 44, 0])
[6, 44, 0]
('result of model', 4, ': ', [41, 9, 0])
[41, 9, 0]
('# of model votes positive:', 3, ', # of models vote negative: ', 2)
+++++++++++++++++++++++++++++++++++++++++++++++++++++++++++++++++=
Wrong!
('image name:', 'AN7')
('true label:', 0)
('result of model', 0, ': ', [42, 8, 0])
[42, 8, 0]
('result of model', 1, ': ', [21, 29, 0])
[21, 29, 0]
('result of model', 2, ': ', [10, 40, 0])
[10, 40, 0]
('result of model', 3, ': ', [13, 37, 0])
[13, 37, 0]
('result of model', 4, ': ', [40, 10, 0])
[40, 10, 0]
('# of model votes positive:', 3, ', # of models vote negative: ', 2)
+++++++++++++++++++++++++++++++++++++++++++++++++++++++++++++++++=
Wrong!
('image name:', 'M1')
('true label:', 1)
('result of model', 0, ': ', [50, 0, 1])
[50, 0, 1]
('result of model', 1, ': ', [26, 24, 1])
[26, 24, 1]
('result of model', 2, ': ', [8, 42, 1])
[8, 42, 1]
('result of model', 3, ': ', [10, 40, 1])
[10, 40, 1]
('result of model', 4, ': ', [46, 4, 1])
[46, 4, 1]
('# of model votes positive:', 2, ', # of models vote negative: ', 3)
+++++++++++++++++++++++++++++++++++++++++++++++++++++++++++++++++=
Wrong!
('image name:', 'AN8')
('true label:', 0)
('result of model', 0, ': ', [25, 25, 0])
[25, 25, 0]
('result of model', 1, ': ', [22, 28, 0])
[22, 28, 0]
('result of model', 2, ': ', [3, 47, 0])
[3, 47, 0]
('result of model', 3, ': ', [13, 37, 0])
[13, 37, 0]
('result of model', 4, ': ', [45, 5, 0])
[45, 5, 0]
('# of model votes positive:', 4, ', # of models vote negative: ', 1)
+++++++++++++++++++++++++++++++++++++++++++++++++++++++++++++++++=
Wrong!
('image name:', 'B5')
('true label:', 0)
('result of model', 0, ': ', [42, 8, 0])
[42, 8, 0]
('result of model', 1, ': ', [28, 22, 0])
[28, 22, 0]
('result of model', 2, ': ', [6, 44, 0])
[6, 44, 0]
('result of model', 3, ': ', [11, 39, 0])
[11, 39, 0]
('result of model', 4, ': ', [41, 9, 0])
[41, 9, 0]
('# of model votes positive:', 2, ', # of models vote negative: ', 3)
('image name:', 'AF8')
('true label:', 0)
('result of model', 0, ': ', [48, 2, 0])
[48, 2, 0]
('result of model', 1, ': ', [13, 37, 0])
[13, 37, 0]
('result of model', 2, ': ', [6, 44, 0])
[6, 44, 0]
('result of model', 3, ': ', [15, 35, 0])
[15, 35, 0]
('result of model', 4, ': ', [41, 9, 0])
[41, 9, 0]
('# of model votes positive:', 3, ', # of models vote negative: ', 2)
+++++++++++++++++++++++++++++++++++++++++++++++++++++++++++++++++=
Wrong!
('image name:', 'AF5')
('true label:', 0)
('result of model', 0, ': ', [50, 0, 0])
[50, 0, 0]
('result of model', 1, ': ', [17, 33, 0])
[17, 33, 0]
('result of model', 2, ': ', [8, 42, 0])
[8, 42, 0]
('result of model', 3, ': ', [7, 43, 0])
[7, 43, 0]
('result of model', 4, ': ', [39, 11, 0])
[39, 11, 0]
('# of model votes positive:', 3, ', # of models vote negative: ', 2)
+++++++++++++++++++++++++++++++++++++++++++++++++++++++++++++++++=
Wrong!
('image name:', 'Z7')
('true label:', 0)
('result of model', 0, ': ', [47, 3, 0])
[47, 3, 0]
('result of model', 1, ': ', [19, 31, 0])
[19, 31, 0]
('result of model', 2, ': ', [4, 46, 0])
[4, 46, 0]
('result of model', 3, ': ', [20, 30, 0])
[20, 30, 0]
('result of model', 4, ': ', [39, 11, 0])
[39, 11, 0]
('# of model votes positive:', 3, ', # of models vote negative: ', 2)
+++++++++++++++++++++++++++++++++++++++++++++++++++++++++++++++++=
Wrong!
('image name:', 'P2')
('true label:', 1)
('result of model', 0, ': ', [45, 5, 1])
[45, 5, 1]
('result of model', 1, ': ', [17, 33, 1])
[17, 33, 1]
('result of model', 2, ': ', [9, 41, 1])
[9, 41, 1]
('result of model', 3, ': ', [12, 38, 1])
[12, 38, 1]
('result of model', 4, ': ', [41, 9, 1])
[41, 9, 1]
('# of model votes positive:', 3, ', # of models vote negative: ', 2)
('image name:', 'P3')
('true label:', 1)
('result of model', 0, ': ', [48, 2, 1])
[48, 2, 1]
('result of model', 1, ': ', [22, 28, 1])
[22, 28, 1]
('result of model', 2, ': ', [9, 41, 1])
[9, 41, 1]
('result of model', 3, ': ', [6, 44, 1])
[6, 44, 1]
('result of model', 4, ': ', [45, 5, 1])
[45, 5, 1]
('# of model votes positive:', 3, ', # of models vote negative: ', 2)
('image name:', 'P1')
('true label:', 1)
('result of model', 0, ': ', [41, 9, 1])
[41, 9, 1]
('result of model', 1, ': ', [23, 27, 1])
[23, 27, 1]
('result of model', 2, ': ', [10, 40, 1])
[10, 40, 1]
('result of model', 3, ': ', [14, 36, 1])
[14, 36, 1]
('result of model', 4, ': ', [46, 4, 1])
[46, 4, 1]
('# of model votes positive:', 3, ', # of models vote negative: ', 2)
('image name:', 'P4')
('true label:', 1)
('result of model', 0, ': ', [48, 2, 1])
[48, 2, 1]
('result of model', 1, ': ', [15, 35, 1])
[15, 35, 1]
('result of model', 2, ': ', [7, 43, 1])
[7, 43, 1]
('result of model', 3, ': ', [18, 32, 1])
[18, 32, 1]
('result of model', 4, ': ', [43, 7, 1])
[43, 7, 1]
('# of model votes positive:', 3, ', # of models vote negative: ', 2)
('image name:', 'AM8')
('true label:', 0)
('result of model', 0, ': ', [36, 14, 0])
[36, 14, 0]
('result of model', 1, ': ', [20, 30, 0])
[20, 30, 0]
('result of model', 2, ': ', [4, 46, 0])
[4, 46, 0]
('result of model', 3, ': ', [4, 46, 0])
[4, 46, 0]
('result of model', 4, ': ', [41, 9, 0])
[41, 9, 0]
('# of model votes positive:', 3, ', # of models vote negative: ', 2)
+++++++++++++++++++++++++++++++++++++++++++++++++++++++++++++++++=
Wrong!
('image name:', 'AM1')
('true label:', 1)
('result of model', 0, ': ', [50, 0, 1])
[50, 0, 1]
('result of model', 1, ': ', [17, 33, 1])
[17, 33, 1]
('result of model', 2, ': ', [15, 35, 1])
[15, 35, 1]
('result of model', 3, ': ', [13, 37, 1])
[13, 37, 1]
('result of model', 4, ': ', [46, 4, 1])
[46, 4, 1]
('# of model votes positive:', 3, ', # of models vote negative: ', 2)
('image name:', 'AM3')
('true label:', 1)
('result of model', 0, ': ', [50, 0, 1])
[50, 0, 1]
('result of model', 1, ': ', [17, 33, 1])
[17, 33, 1]
('result of model', 2, ': ', [5, 45, 1])
[5, 45, 1]
('result of model', 3, ': ', [14, 36, 1])
[14, 36, 1]
('result of model', 4, ': ', [43, 7, 1])
[43, 7, 1]
('# of model votes positive:', 3, ', # of models vote negative: ', 2)
('image name:', 'AM2')
('true label:', 1)
('result of model', 0, ': ', [42, 8, 1])
[42, 8, 1]
('result of model', 1, ': ', [20, 30, 1])
[20, 30, 1]
('result of model', 2, ': ', [8, 42, 1])
[8, 42, 1]
('result of model', 3, ': ', [13, 37, 1])
[13, 37, 1]
('result of model', 4, ': ', [42, 8, 1])
[42, 8, 1]
('# of model votes positive:', 3, ', # of models vote negative: ', 2)
('image name:', 'AM5')
('true label:', 0)
('result of model', 0, ': ', [41, 9, 0])
[41, 9, 0]
('result of model', 1, ': ', [25, 25, 0])
[25, 25, 0]
('result of model', 2, ': ', [4, 46, 0])
[4, 46, 0]
('result of model', 3, ': ', [13, 37, 0])
[13, 37, 0]
('result of model', 4, ': ', [43, 7, 0])
[43, 7, 0]
('# of model votes positive:', 3, ', # of models vote negative: ', 2)
+++++++++++++++++++++++++++++++++++++++++++++++++++++++++++++++++=
Wrong!
('image name:', 'AM4')
('true label:', 1)
('result of model', 0, ': ', [50, 0, 1])
[50, 0, 1]
('result of model', 1, ': ', [25, 25, 1])
[25, 25, 1]
('result of model', 2, ': ', [10, 40, 1])
[10, 40, 1]
('result of model', 3, ': ', [10, 40, 1])
[10, 40, 1]
('result of model', 4, ': ', [41, 9, 1])
[41, 9, 1]
('# of model votes positive:', 3, ', # of models vote negative: ', 2)
('image name:', 'AM7')
('true label:', 0)
('result of model', 0, ': ', [46, 4, 0])
[46, 4, 0]
('result of model', 1, ': ', [22, 28, 0])
[22, 28, 0]
('result of model', 2, ': ', [11, 39, 0])
[11, 39, 0]
('result of model', 3, ': ', [12, 38, 0])
[12, 38, 0]
('result of model', 4, ': ', [46, 4, 0])
[46, 4, 0]
('# of model votes positive:', 3, ', # of models vote negative: ', 2)
+++++++++++++++++++++++++++++++++++++++++++++++++++++++++++++++++=
Wrong!
('image name:', 'H2')
('true label:', 1)
('result of model', 0, ': ', [45, 5, 1])
[45, 5, 1]
('result of model', 1, ': ', [20, 30, 1])
[20, 30, 1]
('result of model', 2, ': ', [6, 44, 1])
[6, 44, 1]
('result of model', 3, ': ', [13, 37, 1])
[13, 37, 1]
('result of model', 4, ': ', [45, 5, 1])
[45, 5, 1]
('# of model votes positive:', 3, ', # of models vote negative: ', 2)
('image name:', 'H3')
('true label:', 1)
('result of model', 0, ': ', [50, 0, 1])
[50, 0, 1]
('result of model', 1, ': ', [24, 26, 1])
[24, 26, 1]
('result of model', 2, ': ', [11, 39, 1])
[11, 39, 1]
('result of model', 3, ': ', [14, 36, 1])
[14, 36, 1]
('result of model', 4, ': ', [46, 4, 1])
[46, 4, 1]
('# of model votes positive:', 3, ', # of models vote negative: ', 2)
('image name:', 'H1')
('true label:', 1)
('result of model', 0, ': ', [40, 10, 1])
[40, 10, 1]
('result of model', 1, ': ', [18, 32, 1])
[18, 32, 1]
('result of model', 2, ': ', [10, 40, 1])
[10, 40, 1]
('result of model', 3, ': ', [20, 30, 1])
[20, 30, 1]
('result of model', 4, ': ', [43, 7, 1])
[43, 7, 1]
('# of model votes positive:', 3, ', # of models vote negative: ', 2)
('image name:', 'H7')
('true label:', 0)
('result of model', 0, ': ', [50, 0, 0])
[50, 0, 0]
('result of model', 1, ': ', [14, 36, 0])
[14, 36, 0]
('result of model', 2, ': ', [7, 43, 0])
[7, 43, 0]
('result of model', 3, ': ', [7, 43, 0])
[7, 43, 0]
('result of model', 4, ': ', [45, 5, 0])
[45, 5, 0]
('# of model votes positive:', 3, ', # of models vote negative: ', 2)
+++++++++++++++++++++++++++++++++++++++++++++++++++++++++++++++++=
Wrong!
('image name:', 'H4')
('true label:', 1)
('result of model', 0, ': ', [50, 0, 1])
[50, 0, 1]
('result of model', 1, ': ', [19, 31, 1])
[19, 31, 1]
('result of model', 2, ': ', [11, 39, 1])
[11, 39, 1]
('result of model', 3, ': ', [17, 33, 1])
[17, 33, 1]
('result of model', 4, ': ', [44, 6, 1])
[44, 6, 1]
('# of model votes positive:', 3, ', # of models vote negative: ', 2)
('image name:', 'K3')
('true label:', 1)
('result of model', 0, ': ', [50, 0, 1])
[50, 0, 1]
('result of model', 1, ': ', [22, 28, 1])
[22, 28, 1]
('result of model', 2, ': ', [14, 36, 1])
[14, 36, 1]
('result of model', 3, ': ', [10, 40, 1])
[10, 40, 1]
('result of model', 4, ': ', [44, 6, 1])
[44, 6, 1]
('# of model votes positive:', 3, ', # of models vote negative: ', 2)
('image name:', 'K2')
('true label:', 1)
('result of model', 0, ': ', [50, 0, 1])
[50, 0, 1]
('result of model', 1, ': ', [18, 32, 1])
[18, 32, 1]
('result of model', 2, ': ', [8, 42, 1])
[8, 42, 1]
('result of model', 3, ': ', [17, 33, 1])
[17, 33, 1]
('result of model', 4, ': ', [42, 8, 1])
[42, 8, 1]
('# of model votes positive:', 3, ', # of models vote negative: ', 2)
('image name:', 'K7')
('true label:', 0)
('result of model', 0, ': ', [50, 0, 0])
[50, 0, 0]
('result of model', 1, ': ', [22, 28, 0])
[22, 28, 0]
('result of model', 2, ': ', [10, 40, 0])
[10, 40, 0]
('result of model', 3, ': ', [10, 40, 0])
[10, 40, 0]
('result of model', 4, ': ', [41, 9, 0])
[41, 9, 0]
('# of model votes positive:', 3, ', # of models vote negative: ', 2)
+++++++++++++++++++++++++++++++++++++++++++++++++++++++++++++++++=
Wrong!
('image name:', 'K5')
('true label:', 0)
('result of model', 0, ': ', [43, 7, 0])
[43, 7, 0]
('result of model', 1, ': ', [22, 28, 0])
[22, 28, 0]
('result of model', 2, ': ', [7, 43, 0])
[7, 43, 0]
('result of model', 3, ': ', [12, 38, 0])
[12, 38, 0]
('result of model', 4, ': ', [42, 8, 0])
[42, 8, 0]
('# of model votes positive:', 3, ', # of models vote negative: ', 2)
+++++++++++++++++++++++++++++++++++++++++++++++++++++++++++++++++=
Wrong!
('image name:', 'AL6')
('true label:', 0)
('result of model', 0, ': ', [49, 1, 0])
[49, 1, 0]
('result of model', 1, ': ', [17, 33, 0])
[17, 33, 0]
('result of model', 2, ': ', [7, 43, 0])
[7, 43, 0]
('result of model', 3, ': ', [9, 41, 0])
[9, 41, 0]
('result of model', 4, ': ', [43, 7, 0])
[43, 7, 0]
('# of model votes positive:', 3, ', # of models vote negative: ', 2)
+++++++++++++++++++++++++++++++++++++++++++++++++++++++++++++++++=
Wrong!
('image name:', 'AL7')
('true label:', 0)
('result of model', 0, ': ', [48, 2, 0])
[48, 2, 0]
('result of model', 1, ': ', [16, 34, 0])
[16, 34, 0]
('result of model', 2, ': ', [5, 45, 0])
[5, 45, 0]
('result of model', 3, ': ', [12, 38, 0])
[12, 38, 0]
('result of model', 4, ': ', [43, 7, 0])
[43, 7, 0]
('# of model votes positive:', 3, ', # of models vote negative: ', 2)
+++++++++++++++++++++++++++++++++++++++++++++++++++++++++++++++++=
Wrong!
('image name:', 'AL5')
('true label:', 0)
('result of model', 0, ': ', [50, 0, 0])
[50, 0, 0]
('result of model', 1, ': ', [15, 35, 0])
[15, 35, 0]
('result of model', 2, ': ', [3, 47, 0])
[3, 47, 0]
('result of model', 3, ': ', [11, 39, 0])
[11, 39, 0]
('result of model', 4, ': ', [46, 4, 0])
[46, 4, 0]
('# of model votes positive:', 3, ', # of models vote negative: ', 2)
+++++++++++++++++++++++++++++++++++++++++++++++++++++++++++++++++=
Wrong!
('image name:', 'AL1')
('true label:', 1)
('result of model', 0, ': ', [50, 0, 1])
[50, 0, 1]
('result of model', 1, ': ', [29, 21, 1])
[29, 21, 1]
('result of model', 2, ': ', [10, 40, 1])
[10, 40, 1]
('result of model', 3, ': ', [13, 37, 1])
[13, 37, 1]
('result of model', 4, ': ', [37, 13, 1])
[37, 13, 1]
('# of model votes positive:', 2, ', # of models vote negative: ', 3)
+++++++++++++++++++++++++++++++++++++++++++++++++++++++++++++++++=
Wrong!
('image name:', 'AD5')
('true label:', 0)
('result of model', 0, ': ', [49, 1, 0])
[49, 1, 0]
('result of model', 1, ': ', [15, 35, 0])
[15, 35, 0]
('result of model', 2, ': ', [9, 41, 0])
[9, 41, 0]
('result of model', 3, ': ', [13, 37, 0])
[13, 37, 0]
('result of model', 4, ': ', [46, 4, 0])
[46, 4, 0]
('# of model votes positive:', 3, ', # of models vote negative: ', 2)
+++++++++++++++++++++++++++++++++++++++++++++++++++++++++++++++++=
Wrong!
('image name:', 'AD8')
('true label:', 0)
('result of model', 0, ': ', [50, 0, 0])
[50, 0, 0]
('result of model', 1, ': ', [26, 24, 0])
[26, 24, 0]
('result of model', 2, ': ', [2, 48, 0])
[2, 48, 0]
('result of model', 3, ': ', [12, 38, 0])
[12, 38, 0]
('result of model', 4, ': ', [41, 9, 0])
[41, 9, 0]
('# of model votes positive:', 2, ', # of models vote negative: ', 3)
('image name:', 'C3')
('true label:', 1)
('result of model', 0, ': ', [36, 14, 1])
[36, 14, 1]
('result of model', 1, ': ', [21, 29, 1])
[21, 29, 1]
('result of model', 2, ': ', [2, 48, 1])
[2, 48, 1]
('result of model', 3, ': ', [9, 41, 1])
[9, 41, 1]
('result of model', 4, ': ', [45, 5, 1])
[45, 5, 1]
('# of model votes positive:', 3, ', # of models vote negative: ', 2)
('image name:', 'C1')
('true label:', 1)
('result of model', 0, ': ', [40, 10, 1])
[40, 10, 1]
('result of model', 1, ': ', [16, 34, 1])
[16, 34, 1]
('result of model', 2, ': ', [14, 36, 1])
[14, 36, 1]
('result of model', 3, ': ', [12, 38, 1])
[12, 38, 1]
('result of model', 4, ': ', [41, 9, 1])
[41, 9, 1]
('# of model votes positive:', 3, ', # of models vote negative: ', 2)
('image name:', 'C4')
('true label:', 1)
('result of model', 0, ': ', [50, 0, 1])
[50, 0, 1]
('result of model', 1, ': ', [24, 26, 1])
[24, 26, 1]
('result of model', 2, ': ', [8, 42, 1])
[8, 42, 1]
('result of model', 3, ': ', [13, 37, 1])
[13, 37, 1]
('result of model', 4, ': ', [45, 5, 1])
[45, 5, 1]
('# of model votes positive:', 3, ', # of models vote negative: ', 2)
('image name:', 'N1')
('true label:', 1)
('result of model', 0, ': ', [49, 1, 1])
[49, 1, 1]
('result of model', 1, ': ', [13, 37, 1])
[13, 37, 1]
('result of model', 2, ': ', [7, 43, 1])
[7, 43, 1]
('result of model', 3, ': ', [12, 38, 1])
[12, 38, 1]
('result of model', 4, ': ', [43, 7, 1])
[43, 7, 1]
('# of model votes positive:', 3, ', # of models vote negative: ', 2)
('image name:', 'N4')
('true label:', 1)
('result of model', 0, ': ', [50, 0, 1])
[50, 0, 1]
('result of model', 1, ': ', [23, 27, 1])
[23, 27, 1]
('result of model', 2, ': ', [3, 47, 1])
[3, 47, 1]
('result of model', 3, ': ', [12, 38, 1])
[12, 38, 1]
('result of model', 4, ': ', [43, 7, 1])
[43, 7, 1]
('# of model votes positive:', 3, ', # of models vote negative: ', 2)
('image name:', 'F4')
('true label:', 1)
('result of model', 0, ': ', [49, 1, 1])
[49, 1, 1]
('result of model', 1, ': ', [23, 27, 1])
[23, 27, 1]
('result of model', 2, ': ', [4, 46, 1])
[4, 46, 1]
('result of model', 3, ': ', [14, 36, 1])
[14, 36, 1]
('result of model', 4, ': ', [41, 9, 1])
[41, 9, 1]
('# of model votes positive:', 3, ', # of models vote negative: ', 2)
('image name:', 'F5')
('true label:', 0)
('result of model', 0, ': ', [44, 6, 0])
[44, 6, 0]
('result of model', 1, ': ', [20, 30, 0])
[20, 30, 0]
('result of model', 2, ': ', [6, 44, 0])
[6, 44, 0]
('result of model', 3, ': ', [9, 41, 0])
[9, 41, 0]
('result of model', 4, ': ', [42, 8, 0])
[42, 8, 0]
('# of model votes positive:', 3, ', # of models vote negative: ', 2)
+++++++++++++++++++++++++++++++++++++++++++++++++++++++++++++++++=
Wrong!
('image name:', 'F6')
('true label:', 0)
('result of model', 0, ': ', [50, 0, 0])
[50, 0, 0]
('result of model', 1, ': ', [18, 32, 0])
[18, 32, 0]
('result of model', 2, ': ', [8, 42, 0])
[8, 42, 0]
('result of model', 3, ': ', [11, 39, 0])
[11, 39, 0]
('result of model', 4, ': ', [41, 9, 0])
[41, 9, 0]
('# of model votes positive:', 3, ', # of models vote negative: ', 2)
+++++++++++++++++++++++++++++++++++++++++++++++++++++++++++++++++=
Wrong!
('image name:', 'AK3')
('true label:', 1)
('result of model', 0, ': ', [50, 0, 1])
[50, 0, 1]
('result of model', 1, ': ', [24, 26, 1])
[24, 26, 1]
('result of model', 2, ': ', [7, 43, 1])
[7, 43, 1]
('result of model', 3, ': ', [15, 35, 1])
[15, 35, 1]
('result of model', 4, ': ', [41, 9, 1])
[41, 9, 1]
('# of model votes positive:', 3, ', # of models vote negative: ', 2)
('image name:', 'AK2')
('true label:', 1)
('result of model', 0, ': ', [50, 0, 1])
[50, 0, 1]
('result of model', 1, ': ', [16, 34, 1])
[16, 34, 1]
('result of model', 2, ': ', [8, 42, 1])
[8, 42, 1]
('result of model', 3, ': ', [14, 36, 1])
[14, 36, 1]
('result of model', 4, ': ', [41, 9, 1])
[41, 9, 1]
('# of model votes positive:', 3, ', # of models vote negative: ', 2)
('image name:', 'AK1')
('true label:', 1)
('result of model', 0, ': ', [44, 6, 1])
[44, 6, 1]
('result of model', 1, ': ', [22, 28, 1])
[22, 28, 1]
('result of model', 2, ': ', [8, 42, 1])
[8, 42, 1]
('result of model', 3, ': ', [17, 33, 1])
[17, 33, 1]
('result of model', 4, ': ', [47, 3, 1])
[47, 3, 1]
('# of model votes positive:', 3, ', # of models vote negative: ', 2)
('image name:', 'AK4')
('true label:', 1)
('result of model', 0, ': ', [50, 0, 1])
[50, 0, 1]
('result of model', 1, ': ', [27, 23, 1])
[27, 23, 1]
('result of model', 2, ': ', [9, 41, 1])
[9, 41, 1]
('result of model', 3, ': ', [13, 37, 1])
[13, 37, 1]
('result of model', 4, ': ', [40, 10, 1])
[40, 10, 1]
('# of model votes positive:', 2, ', # of models vote negative: ', 3)
+++++++++++++++++++++++++++++++++++++++++++++++++++++++++++++++++=
Wrong!
('image name:', 'Q1')
('true label:', 1)
('result of model', 0, ': ', [50, 0, 1])
[50, 0, 1]
('result of model', 1, ': ', [25, 25, 1])
[25, 25, 1]
('result of model', 2, ': ', [4, 46, 1])
[4, 46, 1]
('result of model', 3, ': ', [13, 37, 1])
[13, 37, 1]
('result of model', 4, ': ', [42, 8, 1])
[42, 8, 1]
('# of model votes positive:', 3, ', # of models vote negative: ', 2)
('image name:', 'Q2')
('true label:', 1)
('result of model', 0, ': ', [50, 0, 1])
[50, 0, 1]
('result of model', 1, ': ', [23, 27, 1])
[23, 27, 1]
('result of model', 2, ': ', [3, 47, 1])
[3, 47, 1]
('result of model', 3, ': ', [18, 32, 1])
[18, 32, 1]
('result of model', 4, ': ', [40, 10, 1])
[40, 10, 1]
('# of model votes positive:', 3, ', # of models vote negative: ', 2)
('image name:', 'Q4')
('true label:', 1)
('result of model', 0, ': ', [48, 2, 1])
[48, 2, 1]
('result of model', 1, ': ', [29, 21, 1])
[29, 21, 1]
('result of model', 2, ': ', [2, 48, 1])
[2, 48, 1]
('result of model', 3, ': ', [19, 31, 1])
[19, 31, 1]
('result of model', 4, ': ', [44, 6, 1])
[44, 6, 1]
('# of model votes positive:', 2, ', # of models vote negative: ', 3)
+++++++++++++++++++++++++++++++++++++++++++++++++++++++++++++++++=
Wrong!
('image name:', 'AJ8')
('true label:', 0)
('result of model', 0, ': ', [50, 0, 0])
[50, 0, 0]
('result of model', 1, ': ', [19, 31, 0])
[19, 31, 0]
('result of model', 2, ': ', [7, 43, 0])
[7, 43, 0]
('result of model', 3, ': ', [12, 38, 0])
[12, 38, 0]
('result of model', 4, ': ', [44, 6, 0])
[44, 6, 0]
('# of model votes positive:', 3, ', # of models vote negative: ', 2)
+++++++++++++++++++++++++++++++++++++++++++++++++++++++++++++++++=
Wrong!
('image name:', 'I1')
('true label:', 1)
('result of model', 0, ': ', [36, 14, 1])
[36, 14, 1]
('result of model', 1, ': ', [25, 25, 1])
[25, 25, 1]
('result of model', 2, ': ', [7, 43, 1])
[7, 43, 1]
('result of model', 3, ': ', [10, 40, 1])
[10, 40, 1]
('result of model', 4, ': ', [41, 9, 1])
[41, 9, 1]
('# of model votes positive:', 3, ', # of models vote negative: ', 2)
('image name:', 'I3')
('true label:', 1)
('result of model', 0, ': ', [47, 3, 1])
[47, 3, 1]
('result of model', 1, ': ', [20, 30, 1])
[20, 30, 1]
('result of model', 2, ': ', [10, 40, 1])
[10, 40, 1]
('result of model', 3, ': ', [12, 38, 1])
[12, 38, 1]
('result of model', 4, ': ', [40, 10, 1])
[40, 10, 1]
('# of model votes positive:', 3, ', # of models vote negative: ', 2)
('image name:', 'I2')
('true label:', 1)
('result of model', 0, ': ', [40, 10, 1])
[40, 10, 1]
('result of model', 1, ': ', [17, 33, 1])
[17, 33, 1]
('result of model', 2, ': ', [3, 47, 1])
[3, 47, 1]
('result of model', 3, ': ', [10, 40, 1])
[10, 40, 1]
('result of model', 4, ': ', [43, 7, 1])
[43, 7, 1]
('# of model votes positive:', 3, ', # of models vote negative: ', 2)
('image name:', 'I4')
('true label:', 1)
('result of model', 0, ': ', [49, 1, 1])
[49, 1, 1]
('result of model', 1, ': ', [19, 31, 1])
[19, 31, 1]
('result of model', 2, ': ', [3, 47, 1])
[3, 47, 1]
('result of model', 3, ': ', [13, 37, 1])
[13, 37, 1]
('result of model', 4, ': ', [41, 9, 1])
[41, 9, 1]
('# of model votes positive:', 3, ', # of models vote negative: ', 2)
('image name:', 'AJ6')
('true label:', 0)
('result of model', 0, ': ', [50, 0, 0])
[50, 0, 0]
('result of model', 1, ': ', [14, 36, 0])
[14, 36, 0]
('result of model', 2, ': ', [5, 45, 0])
[5, 45, 0]
('result of model', 3, ': ', [13, 37, 0])
[13, 37, 0]
('result of model', 4, ': ', [43, 7, 0])
[43, 7, 0]
('# of model votes positive:', 3, ', # of models vote negative: ', 2)
+++++++++++++++++++++++++++++++++++++++++++++++++++++++++++++++++=
Wrong!
('image name:', 'AJ7')
('true label:', 0)
('result of model', 0, ': ', [48, 2, 0])
[48, 2, 0]
('result of model', 1, ': ', [19, 31, 0])
[19, 31, 0]
('result of model', 2, ': ', [8, 42, 0])
[8, 42, 0]
('result of model', 3, ': ', [8, 42, 0])
[8, 42, 0]
('result of model', 4, ': ', [44, 6, 0])
[44, 6, 0]
('# of model votes positive:', 3, ', # of models vote negative: ', 2)
+++++++++++++++++++++++++++++++++++++++++++++++++++++++++++++++++=
Wrong!
('image name:', 'A1')
('true label:', 1)
('result of model', 0, ': ', [48, 2, 1])
[48, 2, 1]
('result of model', 1, ': ', [18, 32, 1])
[18, 32, 1]
('result of model', 2, ': ', [7, 43, 1])
[7, 43, 1]
('result of model', 3, ': ', [21, 29, 1])
[21, 29, 1]
('result of model', 4, ': ', [40, 10, 1])
[40, 10, 1]
('# of model votes positive:', 3, ', # of models vote negative: ', 2)
('image name:', 'A2')
('true label:', 1)
('result of model', 0, ': ', [50, 0, 1])
[50, 0, 1]
('result of model', 1, ': ', [22, 28, 1])
[22, 28, 1]
('result of model', 2, ': ', [5, 45, 1])
[5, 45, 1]
('result of model', 3, ': ', [12, 38, 1])
[12, 38, 1]
('result of model', 4, ': ', [46, 4, 1])
[46, 4, 1]
('# of model votes positive:', 3, ', # of models vote negative: ', 2)
('image name:', 'AB5')
('true label:', 0)
('result of model', 0, ': ', [50, 0, 0])
[50, 0, 0]
('result of model', 1, ': ', [14, 36, 0])
[14, 36, 0]
('result of model', 2, ': ', [8, 42, 0])
[8, 42, 0]
('result of model', 3, ': ', [12, 38, 0])
[12, 38, 0]
('result of model', 4, ': ', [36, 14, 0])
[36, 14, 0]
('# of model votes positive:', 3, ', # of models vote negative: ', 2)
+++++++++++++++++++++++++++++++++++++++++++++++++++++++++++++++++=
Wrong!
('image name:', 'A7')
('true label:', 0)
('result of model', 0, ': ', [50, 0, 0])
[50, 0, 0]
('result of model', 1, ': ', [18, 32, 0])
[18, 32, 0]
('result of model', 2, ': ', [12, 38, 0])
[12, 38, 0]
('result of model', 3, ': ', [12, 38, 0])
[12, 38, 0]
('result of model', 4, ': ', [43, 7, 0])
[43, 7, 0]
('# of model votes positive:', 3, ', # of models vote negative: ', 2)
+++++++++++++++++++++++++++++++++++++++++++++++++++++++++++++++++=
Wrong!
('image name:', 'AB7')
('true label:', 0)
('result of model', 0, ': ', [50, 0, 0])
[50, 0, 0]
('result of model', 1, ': ', [21, 29, 0])
[21, 29, 0]
('result of model', 2, ': ', [6, 44, 0])
[6, 44, 0]
('result of model', 3, ': ', [8, 42, 0])
[8, 42, 0]
('result of model', 4, ': ', [45, 5, 0])
[45, 5, 0]
('# of model votes positive:', 3, ', # of models vote negative: ', 2)
+++++++++++++++++++++++++++++++++++++++++++++++++++++++++++++++++=
Wrong!
('image name:', 'A8')
('true label:', 0)
('result of model', 0, ': ', [50, 0, 0])
[50, 0, 0]
('result of model', 1, ': ', [12, 38, 0])
[12, 38, 0]
('result of model', 2, ': ', [10, 40, 0])
[10, 40, 0]
('result of model', 3, ': ', [13, 37, 0])
[13, 37, 0]
('result of model', 4, ': ', [42, 8, 0])
[42, 8, 0]
('# of model votes positive:', 3, ', # of models vote negative: ', 2)
+++++++++++++++++++++++++++++++++++++++++++++++++++++++++++++++++=
Wrong!
('image name:', 'L4')
('true label:', 1)
('result of model', 0, ': ', [29, 21, 1])
[29, 21, 1]
('result of model', 1, ': ', [29, 21, 1])
[29, 21, 1]
('result of model', 2, ': ', [7, 43, 1])
[7, 43, 1]
('result of model', 3, ': ', [12, 38, 1])
[12, 38, 1]
('result of model', 4, ': ', [41, 9, 1])
[41, 9, 1]
('# of model votes positive:', 2, ', # of models vote negative: ', 3)
+++++++++++++++++++++++++++++++++++++++++++++++++++++++++++++++++=
Wrong!
('image name:', 'L5')
('true label:', 0)
('result of model', 0, ': ', [50, 0, 0])
[50, 0, 0]
('result of model', 1, ': ', [15, 35, 0])
[15, 35, 0]
('result of model', 2, ': ', [5, 45, 0])
[5, 45, 0]
('result of model', 3, ': ', [11, 39, 0])
[11, 39, 0]
('result of model', 4, ': ', [43, 7, 0])
[43, 7, 0]
('# of model votes positive:', 3, ', # of models vote negative: ', 2)
+++++++++++++++++++++++++++++++++++++++++++++++++++++++++++++++++=
Wrong!
('image name:', 'L2')
('true label:', 1)
('result of model', 0, ': ', [44, 6, 1])
[44, 6, 1]
('result of model', 1, ': ', [23, 27, 1])
[23, 27, 1]
('result of model', 2, ': ', [11, 39, 1])
[11, 39, 1]
('result of model', 3, ': ', [16, 34, 1])
[16, 34, 1]
('result of model', 4, ': ', [44, 6, 1])
[44, 6, 1]
('# of model votes positive:', 3, ', # of models vote negative: ', 2)
('image name:', 'L1')
('true label:', 1)
('result of model', 0, ': ', [48, 2, 1])
[48, 2, 1]
('result of model', 1, ': ', [21, 29, 1])
[21, 29, 1]
('result of model', 2, ': ', [5, 45, 1])
[5, 45, 1]
('result of model', 3, ': ', [16, 34, 1])
[16, 34, 1]
('result of model', 4, ': ', [45, 5, 1])
[45, 5, 1]
('# of model votes positive:', 3, ', # of models vote negative: ', 2)
('image name:', 'AI8')
('true label:', 0)
('result of model', 0, ': ', [47, 3, 0])
[47, 3, 0]
('result of model', 1, ': ', [13, 37, 0])
[13, 37, 0]
('result of model', 2, ': ', [7, 43, 0])
[7, 43, 0]
('result of model', 3, ': ', [13, 37, 0])
[13, 37, 0]
('result of model', 4, ': ', [42, 8, 0])
[42, 8, 0]
('# of model votes positive:', 3, ', # of models vote negative: ', 2)
+++++++++++++++++++++++++++++++++++++++++++++++++++++++++++++++++=
Wrong!
('image name:', 'Y5')
('true label:', 0)
('result of model', 0, ': ', [38, 12, 0])
[38, 12, 0]
('result of model', 1, ': ', [11, 39, 0])
[11, 39, 0]
('result of model', 2, ': ', [10, 40, 0])
[10, 40, 0]
('result of model', 3, ': ', [8, 42, 0])
[8, 42, 0]
('result of model', 4, ': ', [45, 5, 0])
[45, 5, 0]
('# of model votes positive:', 3, ', # of models vote negative: ', 2)
+++++++++++++++++++++++++++++++++++++++++++++++++++++++++++++++++=
Wrong!
('image name:', 'AI6')
('true label:', 0)
('result of model', 0, ': ', [50, 0, 0])
[50, 0, 0]
('result of model', 1, ': ', [25, 25, 0])
[25, 25, 0]
('result of model', 2, ': ', [11, 39, 0])
[11, 39, 0]
('result of model', 3, ': ', [12, 38, 0])
[12, 38, 0]
('result of model', 4, ': ', [43, 7, 0])
[43, 7, 0]
('# of model votes positive:', 3, ', # of models vote negative: ', 2)
+++++++++++++++++++++++++++++++++++++++++++++++++++++++++++++++++=
Wrong!
('image name:', 'Y8')
('true label:', 0)
('result of model', 0, ': ', [50, 0, 0])
[50, 0, 0]
('result of model', 1, ': ', [19, 31, 0])
[19, 31, 0]
('result of model', 2, ': ', [7, 43, 0])
[7, 43, 0]
('result of model', 3, ': ', [15, 35, 0])
[15, 35, 0]
('result of model', 4, ': ', [46, 4, 0])
[46, 4, 0]
('# of model votes positive:', 3, ', # of models vote negative: ', 2)
+++++++++++++++++++++++++++++++++++++++++++++++++++++++++++++++++=
Wrong!
('image name:', 'D8')
('true label:', 0)
('result of model', 0, ': ', [50, 0, 0])
[50, 0, 0]
('result of model', 1, ': ', [14, 36, 0])
[14, 36, 0]
('result of model', 2, ': ', [13, 37, 0])
[13, 37, 0]
('result of model', 3, ': ', [14, 36, 0])
[14, 36, 0]
('result of model', 4, ': ', [43, 7, 0])
[43, 7, 0]
('# of model votes positive:', 3, ', # of models vote negative: ', 2)
+++++++++++++++++++++++++++++++++++++++++++++++++++++++++++++++++=
Wrong!
('image name:', 'D7')
('true label:', 0)
('result of model', 0, ': ', [50, 0, 0])
[50, 0, 0]
('result of model', 1, ': ', [17, 33, 0])
[17, 33, 0]
('result of model', 2, ': ', [7, 43, 0])
[7, 43, 0]
('result of model', 3, ': ', [13, 37, 0])
[13, 37, 0]
('result of model', 4, ': ', [47, 3, 0])
[47, 3, 0]
('# of model votes positive:', 3, ', # of models vote negative: ', 2)
+++++++++++++++++++++++++++++++++++++++++++++++++++++++++++++++++=
Wrong!
('image name:', 'D4')
('true label:', 1)
('result of model', 0, ': ', [50, 0, 1])
[50, 0, 1]
('result of model', 1, ': ', [19, 31, 1])
[19, 31, 1]
('result of model', 2, ': ', [9, 41, 1])
[9, 41, 1]
('result of model', 3, ': ', [13, 37, 1])
[13, 37, 1]
('result of model', 4, ': ', [43, 7, 1])
[43, 7, 1]
('# of model votes positive:', 3, ', # of models vote negative: ', 2)
('image name:', 'D2')
('true label:', 1)
('result of model', 0, ': ', [50, 0, 1])
[50, 0, 1]
('result of model', 1, ': ', [27, 23, 1])
[27, 23, 1]
('result of model', 2, ': ', [6, 44, 1])
[6, 44, 1]
('result of model', 3, ': ', [14, 36, 1])
[14, 36, 1]
('result of model', 4, ': ', [39, 11, 1])
[39, 11, 1]
('# of model votes positive:', 2, ', # of models vote negative: ', 3)
+++++++++++++++++++++++++++++++++++++++++++++++++++++++++++++++++=
Wrong!
('image name:', 'AA8')
('true label:', 0)
('result of model', 0, ': ', [29, 21, 0])
[29, 21, 0]
('result of model', 1, ': ', [16, 34, 0])
[16, 34, 0]
('result of model', 2, ': ', [12, 38, 0])
[12, 38, 0]
('result of model', 3, ': ', [16, 34, 0])
[16, 34, 0]
('result of model', 4, ': ', [44, 6, 0])
[44, 6, 0]
('# of model votes positive:', 3, ', # of models vote negative: ', 2)
+++++++++++++++++++++++++++++++++++++++++++++++++++++++++++++++++=
Wrong!
('image name:', 'D1')
('true label:', 1)
('result of model', 0, ': ', [50, 0, 1])
[50, 0, 1]
('result of model', 1, ': ', [21, 29, 1])
[21, 29, 1]
('result of model', 2, ': ', [4, 46, 1])
[4, 46, 1]
('result of model', 3, ': ', [17, 33, 1])
[17, 33, 1]
('result of model', 4, ': ', [45, 5, 1])
[45, 5, 1]
('# of model votes positive:', 3, ', # of models vote negative: ', 2)
Average Patch-wide accuracy is: 0.486615384615
Average Image-wide accuracy given by majority vote is: 0.492307692308
('correct_bagging:', 49)
Bagging accuracy given by input models is: 0.471153846154
