1563/1563 [==============================] - 18s - loss: 1.5632 - acc: 0.4457 - val_loss: 1.6803 - val_acc: 0.4272
Epoch 2/40
1563/1563 [==============================] - 15s - loss: 1.3122 - acc: 0.5439 - val_loss: 1.9295 - val_acc: 0.3895
Epoch 3/40
1563/1563 [==============================] - 15s - loss: 1.2352 - acc: 0.5748 - val_loss: 1.2192 - val_acc: 0.5878
Epoch 4/40
1563/1563 [==============================] - 15s - loss: 1.1967 - acc: 0.5893 - val_loss: 1.3320 - val_acc: 0.5522
Epoch 5/40
1563/1563 [==============================] - 15s - loss: 1.1559 - acc: 0.6053 - val_loss: 1.1211 - val_acc: 0.6235
Epoch 6/40
1563/1563 [==============================] - 15s - loss: 1.1319 - acc: 0.6140 - val_loss: 1.1824 - val_acc: 0.5968
Epoch 7/40
1563/1563 [==============================] - 15s - loss: 1.1138 - acc: 0.6202 - val_loss: 1.0839 - val_acc: 0.6190
Epoch 8/40
1563/1563 [==============================] - 16s - loss: 1.0979 - acc: 0.6275 - val_loss: 1.1247 - val_acc: 0.6191
Epoch 9/40
1563/1563 [==============================] - 15s - loss: 1.0845 - acc: 0.6323 - val_loss: 1.2468 - val_acc: 0.5563
Epoch 10/40
1563/1563 [==============================] - 15s - loss: 1.0635 - acc: 0.6401 - val_loss: 1.2636 - val_acc: 0.5719
Epoch 11/40
1563/1563 [==============================] - 15s - loss: 1.0639 - acc: 0.6399 - val_loss: 1.1120 - val_acc: 0.6336
Epoch 12/40
1563/1563 [==============================] - 15s - loss: 1.0477 - acc: 0.6451 - val_loss: 1.1055 - val_acc: 0.6280
Epoch 13/40
1563/1563 [==============================] - 15s - loss: 1.0369 - acc: 0.6508 - val_loss: 1.0992 - val_acc: 0.6274
Epoch 14/40
1563/1563 [==============================] - 15s - loss: 0.9814 - acc: 0.6670 - val_loss: 1.0479 - val_acc: 0.6578
Epoch 15/40
1563/1563 [==============================] - 15s - loss: 0.9774 - acc: 0.6733 - val_loss: 0.9530 - val_acc: 0.6866
Epoch 16/40
1563/1563 [==============================] - 15s - loss: 0.9702 - acc: 0.6734 - val_loss: 1.0132 - val_acc: 0.6702
Epoch 17/40
1563/1563 [==============================] - 15s - loss: 0.9660 - acc: 0.6759 - val_loss: 0.9287 - val_acc: 0.6873
Epoch 18/40
1563/1563 [==============================] - 15s - loss: 0.9609 - acc: 0.6790 - val_loss: 0.9228 - val_acc: 0.6904
Epoch 19/40
1563/1563 [==============================] - 15s - loss: 0.9636 - acc: 0.6746 - val_loss: 0.9923 - val_acc: 0.6661
Epoch 20/40
1563/1563 [==============================] - 15s - loss: 0.9597 - acc: 0.6769 - val_loss: 0.9777 - val_acc: 0.6770
Epoch 21/40
1563/1563 [==============================] - 15s - loss: 0.9549 - acc: 0.6783 - val_loss: 0.9747 - val_acc: 0.6725
Epoch 22/40
1563/1563 [==============================] - 15s - loss: 0.9538 - acc: 0.6800 - val_loss: 0.9757 - val_acc: 0.6737
Epoch 23/40
1563/1563 [==============================] - 15s - loss: 0.9503 - acc: 0.6819 - val_loss: 1.0023 - val_acc: 0.6609
Epoch 24/40
1563/1563 [==============================] - 15s - loss: 0.9446 - acc: 0.6826 - val_loss: 0.9629 - val_acc: 0.6767
Epoch 25/40
1563/1563 [==============================] - 15s - loss: 0.9240 - acc: 0.6898 - val_loss: 0.8952 - val_acc: 0.7009
Epoch 26/40
1563/1563 [==============================] - 15s - loss: 0.9254 - acc: 0.6908 - val_loss: 0.8773 - val_acc: 0.7061
Epoch 27/40
1563/1563 [==============================] - 15s - loss: 0.9205 - acc: 0.6906 - val_loss: 0.8837 - val_acc: 0.7036
Epoch 28/40
1563/1563 [==============================] - 15s - loss: 0.9216 - acc: 0.6888 - val_loss: 0.8867 - val_acc: 0.6998
Epoch 29/40
1563/1563 [==============================] - 15s - loss: 0.9212 - acc: 0.6901 - val_loss: 0.9034 - val_acc: 0.6988
Epoch 30/40
1563/1563 [==============================] - 15s - loss: 0.9193 - acc: 0.6913 - val_loss: 0.9135 - val_acc: 0.6968
Epoch 31/40
1563/1563 [==============================] - 15s - loss: 0.9135 - acc: 0.6923 - val_loss: 0.8948 - val_acc: 0.7043
Epoch 32/40
1563/1563 [==============================] - 15s - loss: 0.9193 - acc: 0.6929 - val_loss: 0.8879 - val_acc: 0.7016
Epoch 33/40
1563/1563 [==============================] - 15s - loss: 0.9083 - acc: 0.6943 - val_loss: 0.8686 - val_acc: 0.7100
Epoch 34/40
1563/1563 [==============================] - 15s - loss: 0.9108 - acc: 0.6934 - val_loss: 0.8655 - val_acc: 0.7121
Epoch 35/40
1563/1563 [==============================] - 15s - loss: 0.9095 - acc: 0.6945 - val_loss: 0.8663 - val_acc: 0.7104
Epoch 36/40
1563/1563 [==============================] - 15s - loss: 0.9117 - acc: 0.6954 - val_loss: 0.8659 - val_acc: 0.7113
Epoch 37/40
1563/1563 [==============================] - 15s - loss: 0.9088 - acc: 0.6944 - val_loss: 0.8680 - val_acc: 0.7106
Epoch 38/40
1563/1563 [==============================] - 15s - loss: 0.9093 - acc: 0.6958 - val_loss: 0.8699 - val_acc: 0.7089
Epoch 39/40
1563/1563 [==============================] - 15s - loss: 0.9087 - acc: 0.6930 - val_loss: 0.8711 - val_acc: 0.7072
Epoch 40/40
1563/1563 [==============================] - 15s - loss: 0.9084 - acc: 0.6955 - val_loss: 0.8751 - val_acc: 0.7056
Saved model to disk