epoch,acc,loss,lr,val_acc,val_loss
0,0.63622730220492862,0.82227192245104896,0.001,0.51432032089299939,1.240909792475599
1,0.66385600784135368,0.65526871051435742,0.001,0.52680351437340245,0.78718419582987809
2,0.68566563967582139,0.61908492066590737,0.001,0.53104571383322963,0.82447345677732653
3,0.71740716723814302,0.58878320067980816,0.001,0.47372965838742348,1.0907389071765996
4,0.74144640836024456,0.56421764050230561,0.001,0.54063311394149283,0.85626368980456791
5,0.77326901255346725,0.52717732465961131,0.001,0.49965805833667337,1.533339614145325
6,0.80857791476530372,0.47934917598909627,0.001,0.48632232945285275,0.95495078303140946
7,0.83995459712612897,0.43257751489199792,0.001,0.49614011505287064,1.246659133912172
8,0.91093724671263776,0.30112264756833945,0.000316228,0.6042226911025006,1.0020225375437506
9,0.93181449652336701,0.24741463558163929,0.000316228,0.55791566216384092,1.1916282383465271
10,0.94482730665140413,0.2157721157633197,0.000316228,0.51317345148549365,2.2562420353105495
11,0.95159721098089989,0.19828627355552597,0.000316228,0.50197051194128894,3.9488521058012895
12,0.95784011682776671,0.18108265815435323,0.000316228,0.54152563991279334,2.1982427973090188
13,0.97956867196367758,0.13456506108602675,0.0001,0.50183721260618119,3.3431922797312632
14,0.98050105399708121,0.12473173522743353,0.0001,0.5166913947430426,2.7389028767449921
15,0.98317658506878702,0.11792042037647006,0.0001,0.53625162282975203,1.7320382005648371
16,0.98528457921193446,0.11151029414690466,0.0001,0.55405577715453125,1.9378331534465008
17,0.98731149667585538,0.10352905639976587,0.0001,0.5151497589822206,2.4709209540350368
18,0.98994648937895247,0.096431590830543271,3.16228e-05,0.57660075120810272,1.5962235126589102
19,0.9917707151158115,0.091898398331600711,3.16228e-05,0.57939424155865871,1.5081698361187288
20,0.99225717528782231,0.089521416465525153,3.16228e-05,0.56609908204238302,1.7317509342963291
21,0.99181125344575971,0.089478959881091821,3.16228e-05,0.57742952528887759,1.6406114545902264
22,0.99314901899127761,0.087074344971393755,3.16228e-05,0.58980318069878068,1.7871495472814456
23,0.99428409275174312,0.0829158718823826,1e-05,0.59183164880657979,1.5838683991546492
24,0.99404086267540281,0.082783395641043755,1e-05,0.57652540812241215,1.6706614782757372
25,0.99383817090968052,0.082660125599014561,1e-05,0.57066023746610395,1.7379393079249017
26,0.99416247770390787,0.082630648066124968,1e-05,0.58981477197823429,1.6150013699254313
27,0.99497324468947623,0.081354474809213456,1e-05,0.56629613322932659,1.7718808675013504
28,0.99436516946963016,0.081781122619046062,3.16228e-06,0.5839322144759802,1.6053661348336883
29,0.99501378305808486,0.079763261596194263,3.16228e-06,0.58371198080060038,1.6189236301646874
30,0.99436516945029996,0.08139632021890808,3.16228e-06,0.58427415624017709,1.6270234622448152
31,0.99574347332576618,0.078766726298088272,3.16228e-06,0.58110974600278831,1.6551148130832025
32,0.99505432138803307,0.079220875208490346,3.16228e-06,0.58195590697372612,1.63438134014507
33,0.99529755150303378,0.079837232887338974,1e-06,0.57985789140752719,1.6423449597545299
34,0.99594616507215827,0.078378318491081803,1e-06,0.57788158394396305,1.6691226597449766
35,0.99444624614885679,0.079707192332253221,1e-06,0.57875092739504641,1.6708189083196952
36,0.9957840116750446,0.07762133780379378,1e-06,0.5835844770996923,1.6226666440595858
37,0.99545970490014746,0.078275697625048726,1e-06,0.57879149676535491,1.649102025817339
38,0.99505432140736327,0.079109079465306292,5e-07,0.58062291364752039,1.6565217719709042
39,0.99529755148370358,0.079568005426546268,5e-07,0.57920298599347875,1.6747925142572435
40,0.99521647478514674,0.078562086811420573,5e-07,0.58160237395909309,1.6669461269550667
41,0.99456786119669205,0.078649327945425077,5e-07,0.57870456238224743,1.6742745578338776
42,0.99493270634019781,0.079136067466486867,5e-07,0.57787578828212771,1.6827493420462138
43,0.99582455002432302,0.077977478515054141,5e-07,0.57929571594584195,1.6696684545276339
44,0.99545970488081725,0.077841020005437842,5e-07,0.57755702902847561,1.671732181047562
