,image_name,negative_patchs,positive_patches,true_label,right_or_wrong
0,PR1921a_D15_23.png,0,150,1,Correct
1,PR2085b_K11_21.png,0,50,1,Correct
2,HPro-Ade180PG-02_A18_139.png,150,0,0,Correct
3,PR2085b_D11_29.png,0,100,1,Correct
4,PR2085b_G7_7.png,0,150,1,Correct
5,HPro-Ade180PG-02_G6_103.png,150,0,0,Correct
6,PR2085b_G5_1.png,0,100,1,Correct
7,HPro-Ade180PG-02_G4_146.png,150,100,0,Correct
8,PR1921a_G3_39.png,0,150,1,Correct
9,PR1921a_G2_40.png,0,100,1,Correct
10,HPro-Ade180PG-02_G1_40.png,0,150,1,Correct
11,PR2085b_D13_36.png,0,100,1,Correct
12,HPro-Ade180PG-02_G9_4.png,0,150,1,Correct
13,PR2085b_G8_42.png,0,100,1,Correct
14,PR1921a_J8_11.png,0,150,1,Correct
15,PR2085b_J9_33.png,0,100,1,Correct
16,PR2085b_J5_42.png,0,150,1,Correct
17,PR2085b_J6_33.png,0,100,1,Correct
18,HPro-Ade180PG-01_J7_2.png,0,200,1,Correct
19,PR1921a_J1_12.png,0,150,1,Correct
20,PR1921a_J2_46.png,0,150,1,Correct
21,HPro-Ade180PG-02_J3_18.png,0,150,1,Correct
22,PR1921a_B4_49.png,0,100,1,Correct
23,PR2085b_B5_27.png,0,150,1,Correct
24,PR1921a_B6_1.png,0,100,1,Correct
25,PR2085b_B7_38.png,0,150,1,Correct
26,HPro-Ade180PG-02_B1_14.png,0,150,1,Correct
27,HPro-Ade180PG-02_B2_75.png,150,100,0,Correct
28,HPro-Ade180PG-02_B12_27.png,150,100,0,Correct
29,HPro-Ade180PG-02_B8_38.png,150,0,0,Correct
30,HPro-Ade180PG-02_B9_36.png,0,150,1,Correct
31,PR1921a_L14_65.png,300,0,0,Correct
32,PR1921a_L15_67.png,300,0,0,Correct
33,PR2085b_G12_44.png,0,100,1,Correct
34,PR1921a_L12_39.png,150,0,0,Correct
35,PR1921a_L13_131.png,300,0,0,Correct
36,PR2085b_M7_139.png,150,0,0,Correct
37,PR2085b_M1_9.png,150,0,0,Correct
38,PR2085b_M3_35.png,150,0,0,Correct
39,PR2085b_M2_117.png,149,1,0,Correct
40,PR2085b_M9_66.png,150,0,0,Correct
41,PR2085b_M8_104.png,150,0,0,Correct
42,PR2085b_E8_37.png,0,100,1,Correct
43,HPro-Ade180PG-02_E5_1.png,0,150,1,Correct
44,PR1921a_E4_0.png,0,100,1,Correct
45,PR2085b_E6_48.png,0,100,1,Correct
46,PR2085b_E1_29.png,0,100,1,Correct
47,HPro-Ade180PG-02_E3_2.png,0,150,1,Correct
48,PR1921a_E2_26.png,0,100,1,Correct
49,HPro-Ade180PG-02_H18_51.png,150,0,0,Correct
50,PR1921a_H10_35.png,0,100,1,Correct
51,PR1921a_H13_41.png,0,150,1,Correct
52,HPro-Ade180PG-01_H14_94.png,150,0,0,Correct
53,PR1921a_H15_17.png,0,150,1,Correct
54,HPro-Ade180PG-02_H17_27.png,0,50,1,Correct
55,PR2085b_F12_45.png,0,100,1,Correct
56,PR1921a_F13_40.png,0,150,1,Correct
57,HPro-Ade180PG-02_F10_139.png,150,100,0,Correct
58,HPro-Ade180PG-02_F11_19.png,0,150,1,Correct
59,PR2085b_F16_15.png,0,100,1,Correct
60,HPro-Ade180PG-02_F17_30.png,0,50,1,Correct
61,PR1921a_F14_2.png,0,100,1,Correct
62,PR2085b_F15_26.png,0,150,1,Correct
63,PR1921a_H8_0.png,0,50,1,Correct
64,HPro-Ade180PG-02_H9_48.png,0,150,1,Correct
65,HPro-Ade180PG-01_H2_56.png,150,100,0,Correct
66,HPro-Ade180PG-02_H3_38.png,0,200,1,Correct
67,PR2085b_H1_41.png,0,100,1,Correct
68,PR2085b_H7_45.png,0,100,1,Correct
69,HPro-Ade180PG-02_H4_108.png,150,0,0,Correct
70,HPro-Ade180PG-02_H5_38.png,0,200,1,Correct
71,PR2085b_K13_45.png,0,50,1,Correct
72,PR1921a_K12_5.png,150,0,0,Correct
73,PR2085b_D16_49.png,0,100,1,Correct
74,PR1921a_K10_73.png,150,50,0,Correct
75,HPro-Ade180PG-02_D10_79.png,150,100,0,Correct
76,PR2085b_K16_9.png,0,50,1,Correct
77,PR1921a_K14_109.png,150,0,0,Correct
78,HPro-Ade180PG-02_D18_79.png,150,0,0,Correct
79,PR1921a_K3_122.png,150,0,0,Correct
80,PR1921a_K2_83.png,150,0,0,Correct
81,PR1921a_K1_135.png,150,0,0,Correct
82,PR1921a_K7_54.png,150,0,0,Correct
83,PR1921a_B13_7.png,0,150,1,Correct
84,PR1921a_K5_66.png,150,50,0,Correct
85,PR1921a_K4_105.png,150,50,0,Correct
86,PR1921a_K9_41.png,150,50,0,Correct
87,PR1921a_K8_30.png,150,0,0,Correct
88,PR2085b_C9_9.png,0,150,1,Correct
89,HPro-Ade180PG-02_C8_69.png,150,0,0,Correct
90,HPro-Ade180PG-01_J18_33.png,0,50,1,Correct
91,PR2085b_C2_42.png,0,100,1,Correct
92,PR2085b_J14_39.png,0,100,1,Correct
93,PR2085b_J15_33.png,0,100,1,Correct
94,HPro-Ade180PG-01_J12_1.png,0,150,1,Correct
95,HPro-Ade180PG-01_J13_22.png,0,150,1,Correct
96,PR1921a_J10_14.png,0,150,1,Correct
97,HPro-Ade180PG-02_C4_1.png,150,0,0,Correct
98,PR2085b_I15_32.png,0,100,1,Correct
99,HPro-Ade180PG-02_I14_102.png,150,100,0,Correct
100,HPro-Ade180PG-02_I16_108.png,150,0,0,Correct
101,PR1921a_I11_1.png,0,100,1,Correct
102,PR2085b_I12_30.png,0,100,1,Correct
103,HPro-Ade180PG-02_G16_85.png,150,0,0,Correct
104,PR1921a_G15_15.png,0,100,1,Correct
105,PR2085b_G14_14.png,0,50,1,Correct
106,PR1921a_G13_49.png,0,100,1,Correct
107,PR1921a_C1_40.png,0,100,1,Correct
108,PR2085b_G11_18.png,0,100,1,Correct
109,PR2085b_F1_18.png,0,100,1,Correct
110,PR1921a_F2_34.png,0,100,1,Correct
111,PR2085b_F3_11.png,0,150,1,Correct
112,PR2085b_F4_33.png,0,100,1,Correct
113,PR2085b_F5_7.png,0,100,1,Correct
114,PR2085b_F6_2.png,0,100,1,Correct
115,PR1921a_F7_33.png,0,150,1,Correct
116,PR1921a_F8_13.png,0,100,1,Correct
117,HPro-Ade180PG-02_F9_6.png,0,150,1,Correct
118,PR2085b_M11_117.png,150,0,0,Correct
119,PR2085b_M13_121.png,150,0,0,Correct
120,PR2085b_C5_37.png,0,100,1,Correct
121,PR2085b_M14_139.png,150,0,0,Correct
122,PR2085b_M16_71.png,150,0,0,Correct
123,PR2085b_J11_36.png,0,150,1,Correct
124,PR1921a_E13_14.png,0,100,1,Correct
125,PR2085b_E12_21.png,0,100,1,Correct
126,HPro-Ade180PG-02_E14_131.png,149,101,0,Correct
127,PR2085b_E16_17.png,0,100,1,Correct
128,HPro-Ade180PG-02_C12_135.png,150,0,0,Correct
129,PR2085b_C11_3.png,0,150,1,Correct
130,HPro-Ade180PG-02_C10_36.png,150,0,0,Correct
131,HPro-Ade180PG-02_C17_32.png,0,50,1,Correct
132,HPro-Ade180PG-02_C15_30.png,0,100,1,Correct
133,PR2085b_I9_0.png,0,150,1,Correct
134,PR1921a_I8_1.png,0,100,1,Correct
135,PR2085b_A16_45.png,0,100,1,Correct
136,HPro-Ade180PG-02_A10_107.png,150,100,0,Correct
137,PR2085b_A12_30.png,0,100,1,Correct
138,PR2085b_I3_14.png,0,150,1,Correct
139,HPro-Ade180PG-02_I2_4.png,150,0,0,Correct
140,PR2085b_I5_9.png,0,150,1,Correct
141,HPro-Ade180PG-02_I4_78.png,300,100,0,Correct
142,HPro-Ade180PG-01_I7_25.png,0,150,1,Correct
143,PR2085b_I6_32.png,0,100,1,Correct
144,PR2085b_A1_45.png,0,100,1,Correct
145,HPro-Ade180PG-02_A2_134.png,150,100,0,Correct
146,PR1921a_A5_31.png,0,150,1,Correct
147,HPro-Ade180PG-02_A4_49.png,150,100,0,Correct
148,PR2085b_A7_17.png,0,150,1,Correct
149,PR2085b_A6_29.png,0,100,1,Correct
150,PR1921a_A8_6.png,0,100,1,Correct
151,PR2085b_A15_1.png,0,100,1,Correct
152,PR1921a_L6_32.png,150,50,0,Correct
153,PR1921a_L4_88.png,150,50,0,Correct
154,PR2085b_L2_37.png,0,50,1,Correct
155,PR1921a_L3_23.png,150,50,0,Correct
156,PR1921a_L1_126.png,150,0,0,Correct
157,PR1921a_L8_117.png,150,0,0,Correct
158,PR1921a_L9_24.png,150,0,0,Correct
159,PR2085b_D8_46.png,0,50,1,Correct
160,PR2085b_D6_30.png,0,100,1,Correct
161,PR1921a_D4_1.png,0,100,1,Correct
162,PR2085b_D5_46.png,0,150,1,Correct
163,HPro-Ade180PG-02_D2_130.png,150,0,0,Correct
164,PR2085b_D3_32.png,0,150,1,Correct
165,HPro-Ade180PG-02_D1_5.png,0,150,1,Correct
