771/771 [==============================] - 251s - loss: 1.2027 - acc: 0.5730 - val_loss: 1.2503 - val_acc: 0.4852
Epoch 2/50
771/771 [==============================] - 249s - loss: 0.9376 - acc: 0.6042 - val_loss: 1.1149 - val_acc: 0.4784
Epoch 3/50
771/771 [==============================] - 249s - loss: 0.8069 - acc: 0.6555 - val_loss: 1.1968 - val_acc: 0.4896
Epoch 4/50
771/771 [==============================] - 251s - loss: 0.7233 - acc: 0.6891 - val_loss: 0.9059 - val_acc: 0.4735
Epoch 5/50
771/771 [==============================] - 252s - loss: 0.6755 - acc: 0.7062 - val_loss: 1.1601 - val_acc: 0.5348
Epoch 6/50
771/771 [==============================] - 252s - loss: 0.6201 - acc: 0.7311 - val_loss: 5.6218 - val_acc: 0.4830
Epoch 7/50
771/771 [==============================] - 252s - loss: 0.5962 - acc: 0.7514 - val_loss: 1.0938 - val_acc: 0.4665
Epoch 8/50
771/771 [==============================] - 251s - loss: 0.5750 - acc: 0.7660 - val_loss: 1.4310 - val_acc: 0.4899
Epoch 9/50
771/771 [==============================] - 251s - loss: 0.5527 - acc: 0.7784 - val_loss: 4.4182 - val_acc: 0.4868
Epoch 10/50
771/771 [==============================] - 251s - loss: 0.5298 - acc: 0.7933 - val_loss: 3.8551 - val_acc: 0.5098
Epoch 11/50
771/771 [==============================] - 251s - loss: 0.4180 - acc: 0.8482 - val_loss: 1.6154 - val_acc: 0.4640
Epoch 12/50
771/771 [==============================] - 251s - loss: 0.3769 - acc: 0.8675 - val_loss: 2.3298 - val_acc: 0.5146
Epoch 13/50
771/771 [==============================] - 248s - loss: 0.3513 - acc: 0.8820 - val_loss: 2.0025 - val_acc: 0.5578
Epoch 14/50
771/771 [==============================] - 248s - loss: 0.3284 - acc: 0.8897 - val_loss: 4.2621 - val_acc: 0.4884
Epoch 15/50
771/771 [==============================] - 248s - loss: 0.3091 - acc: 0.9010 - val_loss: 2.1925 - val_acc: 0.5693
Epoch 16/50
771/771 [==============================] - 248s - loss: 0.2387 - acc: 0.9332 - val_loss: 3.1822 - val_acc: 0.5213
Epoch 17/50
771/771 [==============================] - 248s - loss: 0.2194 - acc: 0.9387 - val_loss: 1.4646 - val_acc: 0.6382
Epoch 18/50
771/771 [==============================] - 248s - loss: 0.2028 - acc: 0.9478 - val_loss: 1.5946 - val_acc: 0.5959
Epoch 19/50
771/771 [==============================] - 247s - loss: 0.1914 - acc: 0.9524 - val_loss: 1.7171 - val_acc: 0.5972
Epoch 20/50
771/771 [==============================] - 247s - loss: 0.1806 - acc: 0.9550 - val_loss: 2.1457 - val_acc: 0.5628
Epoch 21/50
771/771 [==============================] - 248s - loss: 0.1479 - acc: 0.9704 - val_loss: 1.7608 - val_acc: 0.6314
Epoch 22/50
771/771 [==============================] - 247s - loss: 0.1395 - acc: 0.9736 - val_loss: 2.3451 - val_acc: 0.5662
Epoch 23/50
771/771 [==============================] - 248s - loss: 0.1354 - acc: 0.9753 - val_loss: 2.1416 - val_acc: 0.5726
Epoch 24/50
771/771 [==============================] - 248s - loss: 0.1281 - acc: 0.9783 - val_loss: 2.0926 - val_acc: 0.6055
Epoch 25/50
771/771 [==============================] - 247s - loss: 0.1250 - acc: 0.9788 - val_loss: 2.8312 - val_acc: 0.5607
Epoch 26/50
771/771 [==============================] - 247s - loss: 0.1175 - acc: 0.9827 - val_loss: 2.0950 - val_acc: 0.6048
Epoch 27/50
771/771 [==============================] - 247s - loss: 0.1109 - acc: 0.9850 - val_loss: 2.0747 - val_acc: 0.6198
Epoch 28/50
771/771 [==============================] - 248s - loss: 0.1083 - acc: 0.9856 - val_loss: 2.3087 - val_acc: 0.5900
Epoch 29/50
771/771 [==============================] - 248s - loss: 0.1075 - acc: 0.9865 - val_loss: 2.2222 - val_acc: 0.6091
Epoch 30/50
771/771 [==============================] - 248s - loss: 0.1030 - acc: 0.9875 - val_loss: 2.2168 - val_acc: 0.6074
Epoch 31/50
771/771 [==============================] - 248s - loss: 0.1015 - acc: 0.9893 - val_loss: 2.2526 - val_acc: 0.6108
Epoch 32/50
771/771 [==============================] - 247s - loss: 0.1012 - acc: 0.9887 - val_loss: 2.1773 - val_acc: 0.6248
Epoch 33/50
771/771 [==============================] - 248s - loss: 0.1012 - acc: 0.9888 - val_loss: 2.1230 - val_acc: 0.6217
Epoch 34/50
771/771 [==============================] - 248s - loss: 0.1022 - acc: 0.9888 - val_loss: 2.1643 - val_acc: 0.6185
Epoch 35/50
771/771 [==============================] - 248s - loss: 0.0981 - acc: 0.9903 - val_loss: 2.2379 - val_acc: 0.6162
Epoch 36/50
771/771 [==============================] - 248s - loss: 0.0978 - acc: 0.9904 - val_loss: 2.2104 - val_acc: 0.6205
Epoch 37/50
771/771 [==============================] - 248s - loss: 0.1015 - acc: 0.9884 - val_loss: 2.2113 - val_acc: 0.6184
Epoch 38/50
771/771 [==============================] - 248s - loss: 0.0963 - acc: 0.9909 - val_loss: 2.2304 - val_acc: 0.6209
Epoch 39/50
771/771 [==============================] - 247s - loss: 0.0972 - acc: 0.9904 - val_loss: 2.2165 - val_acc: 0.6177
Epoch 40/50
771/771 [==============================] - 248s - loss: 0.0962 - acc: 0.9910 - val_loss: 2.1827 - val_acc: 0.6228
Epoch 41/50
771/771 [==============================] - 247s - loss: 0.0964 - acc: 0.9910 - val_loss: 2.2046 - val_acc: 0.6191
Epoch 42/50
771/771 [==============================] - 248s - loss: 0.0992 - acc: 0.9896 - val_loss: 2.2115 - val_acc: 0.6189
Epoch 43/50
771/771 [==============================] - 247s - loss: 0.0980 - acc: 0.9899 - val_loss: 2.2330 - val_acc: 0.6156
Epoch 44/50
771/771 [==============================] - 247s - loss: 0.0967 - acc: 0.9901 - val_loss: 2.1993 - val_acc: 0.6212
Epoch 45/50
771/771 [==============================] - 248s - loss: 0.0959 - acc: 0.9908 - val_loss: 2.2401 - val_acc: 0.6171
Epoch 46/50
771/771 [==============================] - 248s - loss: 0.0948 - acc: 0.9909 - val_loss: 2.2410 - val_acc: 0.6208
Epoch 47/50
771/771 [==============================] - 248s - loss: 0.0966 - acc: 0.9906 - val_loss: 2.2605 - val_acc: 0.6151
Epoch 48/50
771/771 [==============================] - 247s - loss: 0.0971 - acc: 0.9897 - val_loss: 2.2389 - val_acc: 0.6189
Epoch 49/50
771/771 [==============================] - 248s - loss: 0.0964 - acc: 0.9901 - val_loss: 2.2271 - val_acc: 0.6205
Epoch 50/50
771/771 [==============================] - 248s - loss: 0.1005 - acc: 0.9886 - val_loss: 2.2335 - val_acc: 0.6197