{
	"i1q1": "1",
	"i1q2": "2",
	"i1q3": "2",
	"i1q4": "1",
	"i2q1": "2",
	"i2q2": "1",
	"i2q3": "1",
	"i2q4": "2",
	"et1": "1",
	"et2": "2",
	"et3": "1",
	"et4": "2",
	"ig9pg16": "0",
	"ig9pr35": "1",
	"ir89pr22": "1",
	"ig47pr22": "1",
	"ig47pg71": "1",
	"ir21pg71": "0",
	"ir21pr35": "1",
	"ir89pg16": "1",
	"ir21pr22": "1",
	"ig47pg16": "1",
	"ir89pg71": "1"
}
