epoch,acc,loss,lr,val_acc,val_loss
0,0.58787289234760054,0.74246843497422266,0.001,0.45674347447372954,0.88398096591166497
1,0.65400518894736803,0.65481883146319408,0.001,0.49717173596169767,0.97054387187137536
2,0.69154370034052215,0.61678080667412527,0.001,0.49957691955598466,1.2492876444868632
3,0.7137181774634721,0.58422070875998267,0.001,0.48162207905567894,2.4930002467751016
4,0.73937895250838481,0.55472241955559665,0.001,0.48493717551142951,0.99295689295479916
5,0.75944543543986187,0.52711523360132839,0.001,0.49088928047346519,1.9147670272052377
6,0.78380898327886994,0.49588358737631016,0.001,0.53470419146236614,1.3222365272908474
7,0.83103616024621674,0.41712103874694589,0.000316228,0.49893360541448084,1.344313033732091
8,0.84619750288600992,0.38771243002709682,0.000316228,0.58650547115530172,1.2664419156886106
9,0.85852116109564414,0.36512185880850601,0.000316228,0.51736948265105442,1.6980013564582748
10,0.8652505269888755,0.35291404120632525,0.000316228,0.46360928232530102,1.7256513878244366
11,0.88118209832294925,0.32636189183849407,0.000316228,0.51581046002770525,1.2759754501686649
12,0.89828928167978095,0.29109524324045821,0.0001,0.55701154494072236,1.1728699576242299
13,0.90364034382319247,0.28104598010999371,0.0001,0.56198998524058463,1.2507158701559555
14,0.90773471708098241,0.27520416566091166,0.0001,0.55854738508530777,1.2194222042030305
15,0.9096805578656767,0.26359133125897916,0.0001,0.53073418962296637,1.4168226020935735
16,0.91077509329619388,0.26137388665642869,0.0001,0.54056936209518403,1.4084099898590134
17,0.91876114808471199,0.24637022417794369,3.16228e-05,0.55971230531818839,1.2320498896525063
18,0.92038268205584861,0.24418772317049897,3.16228e-05,0.59483378159313371,1.1438341970757224
19,0.92297713637100698,0.23958919821565303,3.16228e-05,0.58556078457292893,1.1700209968927862
20,0.92245013783038754,0.23971040341994046,3.16228e-05,0.56303319738464819,1.2187081896575604
21,0.92516620729003207,0.23341873301685737,3.16228e-05,0.61275384838082092,1.1195221914293505
22,0.92759850824673717,0.23180424922073567,1e-05,0.59019728308372221,1.1534597605732144
23,0.92589589753838319,0.23167770109117486,1e-05,0.56387935839703951,1.2345979941168728
24,0.92467974704070055,0.23353889947948916,1e-05,0.57025708200188852,1.211204524960503
25,0.926341819399776,0.23091640563698937,1e-05,0.56993578456602001,1.210494804559469
26,0.92682827957178682,0.22869027730845276,1e-05,0.5562870920931462,1.3079651123111742
27,0.92796335335158253,0.22778209667210064,3.16228e-06,0.57230039879967087,1.2160890949779475
28,0.92755796989745876,0.22868022971665897,3.16228e-06,0.57002271890352851,1.2216114855788713
29,0.92824712181586166,0.22797378227875803,3.16228e-06,0.57483308613493778,1.2050096024358397
30,0.92930111885844013,0.22708374499617431,3.16228e-06,0.58208920632679717,1.1730076591069714
31,0.92909842713137814,0.22711410417787953,3.16228e-06,0.57745270777040492,1.1948011483063021
32,0.93011188586333859,0.22564645071692302,1e-06,0.57342474970646007,1.2075575475113947
33,0.92873358198787248,0.22798094792508686,1e-06,0.57590527640716438,1.2073486162631466
34,0.92759850826606727,0.22715027369371549,1e-06,0.57832784689023253,1.1945796908937858
35,0.92816604509797462,0.22630165559373336,1e-06,0.5748852467404828,1.2040104726937431
36,0.92763904659601559,0.22711031657670949,1e-06,0.57585891143029189,1.2038708033526555
37,0.92755796985879835,0.22436011359228469,5e-07,0.57279302676564814,1.2016701697114889
38,0.92942273392560548,0.22410303902032599,5e-07,0.57636892628781389,1.1975832154631658
39,0.93088211453828895,0.22683066356330941,5e-07,0.57394056017192785,1.2071757837908912
