epoch,acc,loss,lr,val_acc,val_loss
0,0.56772859922178986,0.89220530413158827,0.001,0.43277968385105831,1.0067224285992658
1,0.62793903034201548,0.80455647811755115,0.001,0.5467938613353811,0.92771637162818221
2,0.67504459221320157,0.73874708566013059,0.001,0.47760571223664311,1.2412318577934665
3,0.7054078157744107,0.68394012924374958,0.001,0.43718124077951076,1.5385171873135719
4,0.72056915842386893,0.64459340518619246,0.001,0.49603579383763519,1.7957522735685021
5,0.7456623966755348,0.60126204430351426,0.001,0.51096531906433251,2.3772448873042351
6,0.75972920390414089,0.57105791967924557,0.001,0.4753743973077007,1.3658870440612074
7,0.78113345232314535,0.53978085430897438,0.001,0.559179108017829,1.2469119911084852
8,0.82986054812680776,0.45147170189502889,0.000316228,0.44010803047622876,1.2215076171536032
9,0.85175125670815777,0.41506732497935128,0.000316228,0.44633832534164392,1.376206516396
10,0.86504783527147877,0.38643826881838284,0.000316228,0.61553574745883222,1.0867502654554428
11,0.87027728234772472,0.37179563178686725,0.000316228,0.6097343287248308,1.0621642569489003
12,0.881871250231687,0.35176909568148568,0.000316228,0.47283011876206943,5.4881206205341337
13,0.9031538836221864,0.30488141043676786,0.0001,0.55953843663626235,1.4144770946928495
14,0.90980217289418175,0.29252866381703502,0.0001,0.54528699934244906,1.3323172836699897
15,0.91576131027676944,0.27950753539544521,0.0001,0.62393360542691689,1.3600683587932136
16,0.91462623647764352,0.27872590318343926,0.0001,0.58913668404535036,1.5629471119200309
17,0.9159234636352227,0.27488805058372839,0.0001,0.58963510762203697,1.3357070956395756
18,0.92699043296890049,0.2536616771277605,3.16228e-05,0.56517178235846388,1.42981285174883
19,0.92451759366291697,0.25577688310431257,3.16228e-05,0.58710242032822368,1.435084415547196
20,0.927233663064571,0.24748840110652234,3.16228e-05,0.54249350897254811,1.5731641196560127
21,0.92431490193585508,0.25499098201045073,3.16228e-05,0.57127457353195243,1.4522632404316205
22,0.92739581650034508,0.24732559351532932,3.16228e-05,0.59545391328212771,1.4353137970860572
23,0.92930111887777023,0.24291673306033235,1e-05,0.58435529496559446,1.4683816998655346
24,0.93217934167653793,0.23737821892901798,1e-05,0.57627845527874955,1.5053579451405648
25,0.92958488732271916,0.24154997492205754,1e-05,0.58632001121603061,1.4683675730617534
26,0.93217934173452843,0.23645124075689944,1e-05,0.57110650043033662,1.5075321946823721
27,0.93234149506398645,0.23695120704953049,1e-05,0.57691951047419088,1.5471748974290331
28,0.93582779311159547,0.22892596154984612,3.16228e-06,0.58283104608802661,1.5027443788923567
29,0.93181449653303217,0.23611145538450234,3.16228e-06,0.58045484059288521,1.5034273254300967
30,0.93161180480597028,0.23709713262784457,3.16228e-06,0.57199323078125541,1.5310996107712875
31,0.9325441868200437,0.23504562281375382,3.16228e-06,0.58383948450289025,1.5145949703234991
32,0.93384141397762288,0.2330623409080026,3.16228e-06,0.58296434537891728,1.5052077059857878
33,0.93371979894911772,0.22971942816162216,1e-06,0.58015346819070623,1.5015247446714239
34,0.93250364850942569,0.22995430078385851,1e-06,0.57995641698856293,1.5130625971363587
35,0.93647640675804078,0.22923785043590089,1e-06,0.57809022635232532,1.5261090073198389
36,0.93290903198287967,0.23549855399580236,1e-06,0.5789305916697185,1.5200662098614948
37,0.93404410574334507,0.23306222752676573,1e-06,0.58180522076365504,1.5120947539463683
38,0.93493594942747027,0.22846487740537075,5e-07,0.58156760024785636,1.5115630040857222
39,0.93424679752839757,0.22953231164193993,5e-07,0.58033892811615939,1.5274672292239235
