epoch,acc,loss,lr,val_acc,val_loss
0,0.57102916729635789,0.8801137559522364,0.001,0.52225192859331049,3.7740505097102086
1,0.6416427384010881,0.67898102941263727,0.001,0.47031567660901774,1.8062888998901894
2,0.67810185884842078,0.64007701353308333,0.001,0.52639805608934187,1.6643274227894316
3,0.70420885597702887,0.60757052143552936,0.001,0.53437003926810933,1.9661482837780815
4,0.72695330210064979,0.58064345559883612,0.001,0.51779597293006929,1.6400065420937624
5,0.74542844189209612,0.55525836836306264,0.001,0.48858857604366834,1.4198409644104331
6,0.76787063623998786,0.52390512465998285,0.001,0.47901871501378562,2.0792867183622223
7,0.7919374338824241,0.48899232476467774,0.001,0.58764307795137438,1.2048016670028625
8,0.81313283965543293,0.45580600522986636,0.001,0.53554669006043387,3.2935337927399426
9,0.83330814568535594,0.42410099882904417,0.001,0.56620227253738831,1.5242286358439183
10,0.85136768928517459,0.39676589615731978,0.001,0.53494095858746205,2.0463118254559483
11,0.87218528033852194,0.36345870366571387,0.001,0.56112317932436573,2.5718925675592996
12,0.87879703793259789,0.3474142473864919,0.001,0.50830966106887232,1.5328389454990825
13,0.9392851745504005,0.22146683689941538,0.0001,0.61826732949007157,1.2237431479696128
14,0.95073296055614331,0.19036905020047518,0.0001,0.62504873701506669,1.3139559172286217
