epoch,acc,loss,lr,val_acc,val_loss
0,0.52241407263294426,7.7111037462447252,0.001,0.51848138539199395,7.7748723642026558
1,0.5222960921321248,7.7088728190744176,0.001,0.51856338101624333,7.7655847067958526
2,0.52249878383019144,7.7001683986107725,0.001,0.5184590597692269,7.7637764272951584
3,0.52180963193111873,7.7089329140101643,0.001,0.51845905977060869,7.762316591882918
4,0.52116101832333384,6.5394469260860149,0.001,0.51852281164593483,0.69723696647438527
5,0.57568509811247037,0.68035099040327263,0.001,0.55061897262516335,0.69502785171241188
6,0.59291389658479299,0.66839697437539991,0.001,0.48221323262963678,0.72527764243756365
7,0.60827793097097826,0.66048578804656943,0.001,0.48207413769003765,0.75492753504114973
8,0.61216961251137147,0.65510339023267816,0.001,0.53884226639509114,0.78348450640973688
9,0.62939841095469884,0.64181236755293158,0.001,0.53876692329972808,0.80620910464689266
10,0.63969515169074709,0.6325126043861411,0.001,0.49789618885487275,0.85681660096119616
11,0.64630290256513856,0.62340777800228908,0.001,0.47793606276422163,0.86677441882793116
12,0.67090968057713785,0.59801030899342911,0.000316228,0.49675445111181021,1.112703961137826
13,0.6864358683604368,0.57783026051169495,0.000316228,0.5388886313913086,1.0196529438730209
14,0.70463758719611136,0.55957345570508132,0.000316228,0.46795020407502391,1.1498054406917944
15,0.72186638563943872,0.53732607222384332,0.000316228,0.45330466437554234,1.2137307365389005
16,0.73986541268039563,0.5114868849743045,0.000316228,0.50370919887938204,1.146643270019895
17,0.7730663208167402,0.47340386145714519,0.0001,0.52064400971853331,1.0894493818924229
18,0.78105237559559315,0.45697628179825123,0.0001,0.50106639472093395,1.157170020068722
19,0.78538997893938856,0.44723692378329749,0.0001,0.55100148377348657,1.0745127262293364
20,0.79686233178518073,0.4300506578835982,0.0001,0.5118114800463246,1.1541990332681276
21,0.80492946329158577,0.42148126301511057,0.0001,0.52318828828489128,1.1627373738485203
22,0.81372628516232304,0.40422433976205413,3.16228e-05,0.52755818813652333,1.1324757131435619
23,0.81891519375397936,0.39587300833183575,3.16228e-05,0.52335056571776284,1.1473812494310895
24,0.82483379278728863,0.39081033483662286,3.16228e-05,0.5175946961648441,1.1786978484841557
25,0.82386087243360195,0.38677715274664037,3.16228e-05,0.542192136564842,1.1182940672137927
26,0.82523917628973797,0.38653543891117292,3.16228e-05,0.5522185646367842,1.1144521097826718
27,0.83115777529405199,0.37806986465395337,1e-05,0.53261197151654904,1.1531710910060904
28,0.83067131513170622,0.37534729097638347,1e-05,0.53390439546139201,1.1461682710299153
29,0.83075239183992822,0.37706340120409726,1e-05,0.52907084577332752,1.1669211528424273
30,0.8333063077768128,0.3738237835028308,1e-05,0.53196865735431853,1.1483748673381233
31,0.83452245827449556,0.37133251050118982,1e-05,0.53493601640061827,1.1602415685702214
32,0.83675206747514341,0.37057487319388344,3.16228e-06,0.534379636564842,1.1461139601470145
33,0.83946813691545774,0.36913662216198279,3.16228e-06,0.53415360725802596,1.1550790920994556
34,0.83496838014555341,0.36820262537621901,3.16228e-06,0.53326687693336106,1.1453593037994882
