epoch,acc,loss,lr,val_acc,val_loss
0,0.57287613488975353,7.0952987343111547,0.01,0.57106843160745069,6.2673777771447083
1,0.64046538032703704,5.3479513428442012,0.01,0.48238791790861452,5.3443039489492126
2,0.68493594943713543,4.063095434144615,0.01,0.52656010950886711,4.247540332792509
3,0.71529917302733981,3.1206449382556825,0.01,0.54518637866661945,3.1262808404063209
4,0.73970325927361691,2.4246119835087945,0.01,0.47223316958085676,2.9558393966063901
5,0.76041835579354855,1.9128203217283879,0.01,0.48305939359712008,4.5724009537422692
6,0.77716069404553489,1.5334498404837977,0.01,0.49968124079194681,6.985525097277911
7,0.79467326090481594,1.2476214599392876,0.01,0.52366932499075991,8.2688408464922922
8,0.80801037785607566,1.0415947513833934,0.01,0.47784333277455027,2.3301781570864981
9,0.8259688665960796,0.88365100002064589,0.01,0.5232694270061633,1.3185021301140063
10,0.84254905143162218,0.75631548413314864,0.01,0.5310819269978726,1.8031495536155224
11,0.85349440574645996,0.6676437132397598,0.01,0.54121267625050573,2.4061420540980309
12,0.86452083675018954,0.6008925160055747,0.01,0.4900373238738549,5.1141763601219976
13,0.87404734879195722,0.54850662657328086,0.01,0.4958909032590002,1.5338032719532708
14,0.88357386093037582,0.51278331091478579,0.01,0.51367767069637993,2.1857975514754875
15,0.89014107353280969,0.48178817111668371,0.01,0.51568295632817895,3.275016783297239
16,0.94977298528270127,0.34027859480643519,0.001,0.55541774859093684,2.4299832489009869
17,0.9629479487981869,0.30053409041955559,0.001,0.50604483499454245,5.5259236702336221
18,0.96878547109427904,0.28108967623931769,0.001,0.58420460877763192,2.6702706996097234
19,0.96979892980690929,0.27108952598786729,0.001,0.57949856276560341,2.5369952484047822
20,0.97393384141397765,0.25970256675076442,0.001,0.55129706056633809,2.1428555754629635
21,0.98208204961893952,0.23593185188918364,0.0001,0.62006212917684356,1.7558955089949093
22,0.98423058216935599,0.2308169551881144,0.0001,0.59667099412884395,2.015944925708923
23,0.98479811902059344,0.22704503314458746,0.0001,0.60776381684572212,2.0586992200209764
24,0.98662234473812227,0.22399927563850547,0.0001,0.60840713101209798,1.9769479803414878
25,0.98577103942260569,0.22255821511311297,0.0001,0.61919858129087069,1.8844225149842129
26,0.98678449813523594,0.22141344218755127,1e-05,0.62573604421408224,1.8476072152391165
27,0.9869061131830712,0.22077693159187442,1e-05,0.62284402826314555,1.8759922072269266
28,0.98698718988162804,0.22082924123026476,1e-05,0.62682562135989039,1.8380979576897021
29,0.98674395978595753,0.22069343752000442,1e-05,0.62574183986209975,1.8583844766871953
30,0.9849197340877589,0.22414857465656027,1e-05,0.62960172485897337,1.8314603503091531
31,0.98686557483379278,0.22106035437675936,1e-06,0.62803690660280631,1.849203431522833
32,0.98633857629317334,0.22200584543549648,1e-06,0.62617071597624119,1.8456267990553281
33,0.987352035044464,0.22022519830523113,1e-06,0.62458271522472897,1.8547558058025619
34,0.98516296426075023,0.22345892363745137,1e-06,0.62824554905814922,1.8255371276001813
35,0.98597373118832798,0.22275876987786508,1e-06,0.62991468851020671,1.8443332664911753
36,0.98670342143667911,0.22114033261786717,1e-07,0.62735881869617616,1.8397856490598101
37,0.98759526515946461,0.21987754844451657,1e-07,0.62992048415269719,1.8205522406536765
38,0.98775741853724819,0.2210309399388222,1e-07,0.62997844035927908,1.8300424391729895
39,0.98540619427909992,0.22405402554440426,1e-07,0.62977559354366286,1.8298837873885734
40,0.98714934329807191,0.21994854382976095,1e-07,0.62841362212522045,1.8334433311425171
41,0.98585211610183232,0.22302935213135691,1e-08,0.6276022348627559,1.8421571959523091
42,0.9860142695376064,0.22161514945213462,1e-08,0.62760803049142844,1.8410986241710425
43,0.98723041997729855,0.22091014939854903,1e-08,0.62378291920855511,1.8594865671908953
44,0.98560888602549201,0.22410467113603044,1e-08,0.62864544705241832,1.8382907717430672
45,0.98718988162802013,0.21957136816987732,1e-08,0.6232555175161415,1.8654141531710013
46,0.98613588456611145,0.22159260178435772,5e-09,0.63089414882316119,1.8277047748901281
47,0.98605480786755462,0.22133287682087896,5e-09,0.62888886320103476,1.833192057915872
48,0.98662234473812227,0.2212690575661759,5e-09,0.62662277457467352,1.8499281888286021
49,0.9869061131830712,0.22081722007910048,5e-09,0.62687778199998001,1.8462049887413352
