epoch,acc,loss,lr,val_acc,val_loss
0,0.62700502268308489,0.68255191438783702,0.001,0.48630557750162218,0.87859248562302161
1,0.70993356021059872,0.59306792139021813,0.001,0.49344515029025937,0.94580462910456009
2,0.75530708152960768,0.53390879189440732,0.001,0.51076247224733451,4.5785358578618895
3,0.79446199969522113,0.47511172913747751,0.001,0.52788274302990212,1.2025802194055182
4,0.82772241128821988,0.42535520894197876,0.001,0.47906620925961158,1.1962880961906486
5,0.85934208395067324,0.37810498709289203,0.001,0.54719955498457662,1.4102556776360384
6,0.87670150704910066,0.3490777980699819,0.001,0.44046735911677076,1.7611257444613941
7,0.91905687895958588,0.25767591999871786,0.000316228,0.60359676381799698,1.1708686261739063
8,0.93193971805529241,0.2316134804323994,0.000316228,0.58968147265141724,1.3401936684992131
9,0.93817857722566922,0.21445844796329394,0.000316228,0.60520794701787373,1.3288624964002242
10,0.94547075029324334,0.19919389886671401,0.000316228,0.54087653012327208,2.3649542895297713
11,0.9477596823853508,0.19111097919517891,0.000316228,0.59608563621464883,1.3463228582888178
12,0.96349862260884933,0.15957420100908459,0.0001,0.58962351640338184,1.4930281626082713
13,0.9646127045859666,0.15202894932668148,0.0001,0.56778560837216741,1.6979056731120681
14,0.96752957383231397,0.14627613888226729,0.0001,0.5605526707157249,1.734043218786842
15,0.96736752553226457,0.14473589709542634,0.0001,0.57207436950114565,1.6251092545428376
16,0.97004132232370843,0.13916923825541069,0.0001,0.54037231088336835,2.2661708549151434
17,0.97243153459731002,0.1318214792106859,3.16228e-05,0.61037184725424343,1.4249061284868672
18,0.97316075190406737,0.12992564989988856,3.16228e-05,0.53468680459431173,2.2256001598237618
19,0.97380894507528837,0.12832293519999255,3.16228e-05,0.58547385023542031,1.461042535699937
20,0.97470021068209511,0.12604485748701247,3.16228e-05,0.56611646895327272,1.7278280693219659
21,0.97508507537177269,0.12364453567984889,3.16228e-05,0.57241051566292389,1.6585462046455515
22,0.97628018149408524,0.12274706381063874,1e-05,0.59351237951045532,1.4774668245999147
23,0.97713093501863557,0.12067761481547158,1e-05,0.5860534125554876,1.55353759881109
24,0.97682709447415328,0.11932075080879695,1e-05,0.59536255744862188,1.485560621736201
25,0.97713093501863557,0.12084632499583864,1e-05,0.5874617489756746,1.5225367784052424
26,0.97757656781720947,0.12048885539678754,1e-05,0.58551441957947492,1.5149739986694575
27,0.97763733594542368,0.11910869041827524,3.16228e-06,0.58971045075747175,1.5010060748052216
28,0.97713093503795323,0.11883004036043977,3.16228e-06,0.58926998340671199,1.5295909417444946
29,0.97767784799870361,0.11780578760800572,3.16228e-06,0.58862087357850079,1.529296772963525
30,0.97690811861934856,0.11918741658032955,3.16228e-06,0.58892224602627874,1.5283099776299709
31,0.97832604116026578,0.11771129955012569,3.16228e-06,0.59770841068845204,1.4807043625788006
32,0.97903500243072439,0.11620200608783478,1e-06,0.59108980905916819,1.516864616835617
33,0.97858936965146803,0.11674957766373141,1e-06,0.58867882983620867,1.5267159332816962
34,0.97680683845717209,0.11881910837260701,1e-06,0.59097969220006064,1.5165419336297834
35,0.97769810403500246,0.11821171420886979,1e-06,0.589803180722271,1.5201468195335095
36,0.97889321017663267,0.11672092707602214,1e-06,0.59096810097173302,1.5103620325024474
37,0.9779411764705882,0.11810159330680216,5e-07,0.59164618888665377,1.5101849552912732
38,0.97682709449347094,0.11916197495925293,5e-07,0.59326316773316623,1.5031613660091949
39,0.97668530222006156,0.11966017416835778,5e-07,0.59215620372897615,1.5023874613713439
