epoch,loss,acc,val_loss,val_acc
1,0.7483,0.5185,0.6911,0.5003
2,0.6996,0.5849,0.7602,0.5876
3,0.6536,0.6387,0.6267,0.6395
4,0.6139,0.6644,0.6031,0.6382
5,0.6202,0.6810,0.7159,0.6840
6,0.5841,0.7007,0.5966,0.6444
7,0.5798,0.6967,0.6859,0.6328
8,0.5560,0.7251,0.6433,0.6468
9,0.5582,0.7238,0.6933,0.6172
10,0.5537,0.7316,0.5592,0.7129
11,0.5551,0.7311,0.5986,0.6814
12,0.5469,0.7403,0.6351,0.6672
13,0.5367,0.7378,0.5954,0.6783
14,0.6032,0.7528,0.5698,0.6972
15,0.5358,0.7423,0.6062,0.6717
16,0.5387,0.7396,0.5550,0.7154
17,0.5372,0.7495,0.5619,0.7003
18,0.4997,0.7706,0.6046,0.7011
19,0.5234,0.7580,0.5398,0.7156
20,0.4996,0.7665,0.5592,0.7140
21,0.5299,0.7568,0.6184,0.6571
22,0.4989,0.7721,0.8997,0.6615
23,0.5228,0.7532,0.5758,0.6962
24,0.5102,0.7594,0.5974,0.6616
25,0.5084,0.7714,0.7169,0.6977
26,0.4737,0.7868,0.5685,0.7314
27,0.4757,0.7906,0.5103,0.7485
28,0.5210,0.7532,0.5479,0.7051
29,0.4947,0.7781,1.5688,0.5364
30,0.4666,0.7878,0.5214,0.7176
31,0.4727,0.7955,0.5637,0.7345
32,0.4585,0.7911,0.6607,0.6217
33,0.4814,0.7809,0.7558,0.7254
34,0.4750,0.7876,0.6012,0.6985
35,0.4491,0.8035,0.6098,0.7225
36,0.4650,0.7950,0.8214,0.7153
37,0.4754,0.8031,0.6507,0.7195
38,0.4676,0.7975,0.5510,0.7313
39,0.4584,0.7980,0.7042,0.7235
40,0.4573,0.7990,0.6145,0.7289
41,0.4467,0.8015,0.6995,0.7250
42,0.5195,0.7530,0.6488,0.6399
43,0.5060,0.7883,0.5598,0.6955
44,0.4382,0.8016,0.6811,0.6709
45,0.4501,0.8083,0.7393,0.7005
46,0.4458,0.8038,0.5676,0.6919
47,0.4572,0.8105,0.6004,0.7271
48,0.4965,0.7739,0.7431,0.7096
49,0.4635,0.8045,1.1788,0.6197
50,0.4656,0.8083,0.5481,0.7436
51,0.4518,0.8095,0.5919,0.7070
52,0.4397,0.8110,0.6697,0.7386
53,0.5024,0.7848,0.7162,0.7392
54,0.4478,0.8055,0.5292,0.7258
55,0.4744,0.7821,0.7178,0.7012
56,0.4547,0.8122,0.9743,0.6865
57,1.0170,0.6432,0.6060,0.6313
58,0.5941,0.7157,0.5553,0.7103
59,0.5426,0.7453,0.7204,0.6379
60,0.5302,0.7605,0.5914,0.7044
61,0.5364,0.7604,0.5654,0.7340
62,0.5303,0.7535,0.5524,0.6917
63,0.5014,0.7794,1.0527,0.5569
64,0.5163,0.7726,0.6203,0.6679
65,0.5177,0.7647,0.7447,0.7132
66,0.5422,0.7635,0.6670,0.6836
67,0.5000,0.7782,0.6293,0.6703
68,0.5173,0.7731,0.5473,0.7209
69,0.5009,0.7789,0.5545,0.7360
70,0.4939,0.7894,0.7243,0.6775
71,0.4879,0.7853,0.7480,0.7026
72,0.4929,0.7899,0.5624,0.7306
73,0.4902,0.7851,0.5720,0.7245
74,0.4839,0.7874,0.7426,0.6788
75,0.5351,0.7824,0.6894,0.7190
76,0.5023,0.7806,0.5289,0.7220
77,0.4884,0.7849,0.7859,0.6509
78,0.5082,0.7903,0.5618,0.6920
79,0.4847,0.7873,0.7264,0.7166
80,0.5248,0.7808,1.1112,0.7130
81,0.5432,0.7558,0.5375,0.7473
82,0.4870,0.7923,0.7352,0.6624
83,0.5165,0.7818,0.6258,0.6780
84,0.5731,0.7759,0.9272,0.6660
85,0.5471,0.7741,0.5610,0.7625
86,0.5730,0.7388,0.9912,0.6944
87,0.5388,0.7639,0.5856,0.6711
88,0.5576,0.7784,3.0256,0.6125
89,0.5264,0.7767,0.6001,0.7141
90,0.5663,0.7667,0.5437,0.7118
91,0.5888,0.7428,0.6351,0.7354
92,0.7584,0.7485,0.6172,0.6281
93,0.5559,0.7575,0.8413,0.7219
94,0.6998,0.7463,0.6007,0.7378
95,0.5506,0.7557,0.6437,0.7455
96,0.5591,0.7517,0.5845,0.7343
97,0.5319,0.7690,0.7763,0.6550
98,1.0232,0.7167,0.7908,0.5495
99,0.8269,0.5917,0.6101,0.6621
100,0.6116,0.7055,0.5912,0.6674
101,0.5749,0.7609,0.6166,0.6276