Epoch 1/100
187/187 [==============================] - 378s - loss: 1.9550 - acc: 0.6349 - val_loss: 2.0203 - val_acc: 0.5094
Epoch 2/100
187/187 [==============================] - 370s - loss: 1.8593 - acc: 0.7176 - val_loss: 1.9110 - val_acc: 0.6970
Epoch 3/100
187/187 [==============================] - 369s - loss: 1.8299 - acc: 0.7361 - val_loss: 1.8640 - val_acc: 0.6886
Epoch 4/100
187/187 [==============================] - 367s - loss: 1.8021 - acc: 0.7572 - val_loss: 1.8667 - val_acc: 0.6844
Epoch 5/100
187/187 [==============================] - 367s - loss: 1.7833 - acc: 0.7769 - val_loss: 1.8514 - val_acc: 0.7057
Epoch 6/100
187/187 [==============================] - 367s - loss: 1.7665 - acc: 0.7828 - val_loss: 1.8952 - val_acc: 0.6811
Epoch 7/100
187/187 [==============================] - 367s - loss: 1.7538 - acc: 0.7931 - val_loss: 1.8480 - val_acc: 0.7159
Epoch 8/100
187/187 [==============================] - 367s - loss: 1.7418 - acc: 0.8050 - val_loss: 1.9083 - val_acc: 0.6859
Epoch 9/100
187/187 [==============================] - 367s - loss: 1.7331 - acc: 0.8085 - val_loss: 1.8240 - val_acc: 0.7444
Epoch 10/100
187/187 [==============================] - 367s - loss: 1.7236 - acc: 0.8102 - val_loss: 1.8014 - val_acc: 0.7571
Epoch 11/100
187/187 [==============================] - 367s - loss: 1.7154 - acc: 0.8172 - val_loss: 1.8708 - val_acc: 0.7117
Epoch 12/100
187/187 [==============================] - 367s - loss: 1.6997 - acc: 0.8247 - val_loss: 1.9718 - val_acc: 0.6886
Epoch 13/100
187/187 [==============================] - 367s - loss: 1.6986 - acc: 0.8275 - val_loss: 1.8612 - val_acc: 0.7245
Epoch 14/100
187/187 [==============================] - 367s - loss: 1.6778 - acc: 0.8411 - val_loss: 1.7955 - val_acc: 0.7642
Epoch 15/100
187/187 [==============================] - 367s - loss: 1.6776 - acc: 0.8347 - val_loss: 1.8279 - val_acc: 0.7397
Epoch 16/100
187/187 [==============================] - 367s - loss: 1.6713 - acc: 0.8454 - val_loss: 1.8561 - val_acc: 0.7489
Epoch 17/100
187/187 [==============================] - 367s - loss: 1.6579 - acc: 0.8483 - val_loss: 1.8579 - val_acc: 0.7329
Epoch 18/100
187/187 [==============================] - 367s - loss: 1.6488 - acc: 0.8570 - val_loss: 1.8247 - val_acc: 0.7606
Epoch 19/100
187/187 [==============================] - 367s - loss: 1.6487 - acc: 0.8544 - val_loss: 1.9647 - val_acc: 0.7085
Epoch 20/100
187/187 [==============================] - 368s - loss: 1.6377 - acc: 0.8640 - val_loss: 1.8617 - val_acc: 0.7459
Epoch 21/100
187/187 [==============================] - 367s - loss: 1.6239 - acc: 0.8673 - val_loss: 1.8138 - val_acc: 0.7608
Epoch 22/100
187/187 [==============================] - 367s - loss: 1.6233 - acc: 0.8723 - val_loss: 1.8546 - val_acc: 0.7553
Epoch 23/100
187/187 [==============================] - 367s - loss: 1.6128 - acc: 0.8757 - val_loss: 1.8615 - val_acc: 0.7540
Epoch 24/100
187/187 [==============================] - 367s - loss: 1.6155 - acc: 0.8738 - val_loss: 1.8137 - val_acc: 0.7712
Epoch 25/100
187/187 [==============================] - 367s - loss: 1.6114 - acc: 0.8780 - val_loss: 1.8155 - val_acc: 0.7628
Epoch 26/100
187/187 [==============================] - 367s - loss: 1.6084 - acc: 0.8827 - val_loss: 1.8297 - val_acc: 0.7655
Epoch 27/100
187/187 [==============================] - 367s - loss: 1.6109 - acc: 0.8790 - val_loss: 1.8405 - val_acc: 0.7606
Epoch 28/100
187/187 [==============================] - 367s - loss: 1.6070 - acc: 0.8830 - val_loss: 1.8481 - val_acc: 0.7582
Epoch 29/100
187/187 [==============================] - 367s - loss: 1.6005 - acc: 0.8827 - val_loss: 1.8293 - val_acc: 0.7641
Epoch 30/100
187/187 [==============================] - 367s - loss: 1.6053 - acc: 0.8810 - val_loss: 1.8770 - val_acc: 0.7475
Epoch 31/100
187/187 [==============================] - 367s - loss: 1.6028 - acc: 0.8859 - val_loss: 1.8365 - val_acc: 0.7634
Epoch 32/100
187/187 [==============================] - 367s - loss: 1.6030 - acc: 0.8820 - val_loss: 1.8312 - val_acc: 0.7651
Epoch 33/100
187/187 [==============================] - 367s - loss: 1.6051 - acc: 0.8785 - val_loss: 1.8332 - val_acc: 0.7657
Epoch 34/100
187/187 [==============================] - 367s - loss: 1.6057 - acc: 0.8812 - val_loss: 1.8353 - val_acc: 0.7637
Epoch 35/100
187/187 [==============================] - 367s - loss: 1.6010 - acc: 0.8910 - val_loss: 1.8407 - val_acc: 0.7590
Epoch 36/100
187/187 [==============================] - 367s - loss: 1.5997 - acc: 0.8840 - val_loss: 1.8390 - val_acc: 0.7617
Epoch 37/100
187/187 [==============================] - 367s - loss: 1.6084 - acc: 0.8787 - val_loss: 1.8372 - val_acc: 0.7622
Epoch 38/100
187/187 [==============================] - 367s - loss: 1.6049 - acc: 0.8790 - val_loss: 1.8354 - val_acc: 0.7640
Epoch 39/100
187/187 [==============================] - 367s - loss: 1.6019 - acc: 0.8837 - val_loss: 1.8374 - val_acc: 0.7648
Epoch 40/100
187/187 [==============================] - 367s - loss: 1.6040 - acc: 0.8829 - val_loss: 1.8373 - val_acc: 0.7644
Epoch 41/100
187/187 [==============================] - 367s - loss: 1.6022 - acc: 0.8837 - val_loss: 1.8379 - val_acc: 0.7631
Epoch 42/100
187/187 [==============================] - 367s - loss: 1.6002 - acc: 0.8844 - val_loss: 1.8357 - val_acc: 0.7636
Epoch 43/100
187/187 [==============================] - 367s - loss: 1.5988 - acc: 0.8844 - val_loss: 1.8346 - val_acc: 0.7642
Epoch 44/100
187/187 [==============================] - 367s - loss: 1.5911 - acc: 0.8884 - val_loss: 1.8383 - val_acc: 0.7641
Epoch 45/100
187/187 [==============================] - 367s - loss: 1.6083 - acc: 0.8812 - val_loss: 1.8338 - val_acc: 0.7633
Epoch 46/100
187/187 [==============================] - 367s - loss: 1.6023 - acc: 0.8819 - val_loss: 1.8359 - val_acc: 0.7654
Epoch 47/100
187/187 [==============================] - 367s - loss: 1.5966 - acc: 0.8842 - val_loss: 1.8372 - val_acc: 0.7643
Epoch 48/100
187/187 [==============================] - 367s - loss: 1.6097 - acc: 0.8792 - val_loss: 1.8336 - val_acc: 0.7645
Epoch 49/100
187/187 [==============================] - 367s - loss: 1.5991 - acc: 0.8857 - val_loss: 1.8355 - val_acc: 0.7644
Epoch 50/100
187/187 [==============================] - 367s - loss: 1.6034 - acc: 0.8824 - val_loss: 1.8366 - val_acc: 0.7651
Epoch 51/100
187/187 [==============================] - 367s - loss: 1.6012 - acc: 0.8829 - val_loss: 1.8348 - val_acc: 0.7650
Epoch 52/100
187/187 [==============================] - 367s - loss: 1.6041 - acc: 0.8800 - val_loss: 1.8365 - val_acc: 0.7629
Epoch 53/100
187/187 [==============================] - 367s - loss: 1.5932 - acc: 0.8890 - val_loss: 1.8365 - val_acc: 0.7645
Epoch 54/100
187/187 [==============================] - 367s - loss: 1.6104 - acc: 0.8747 - val_loss: 1.8348 - val_acc: 0.7658
Epoch 55/100
187/187 [==============================] - 367s - loss: 1.6033 - acc: 0.8812 - val_loss: 1.8369 - val_acc: 0.7639
Epoch 56/100
187/187 [==============================] - 367s - loss: 1.6038 - acc: 0.8802 - val_loss: 1.8366 - val_acc: 0.7650
Epoch 57/100
187/187 [==============================] - 367s - loss: 1.5972 - acc: 0.8839 - val_loss: 1.8376 - val_acc: 0.7647
Epoch 58/100
187/187 [==============================] - 367s - loss: 1.6002 - acc: 0.8832 - val_loss: 1.8374 - val_acc: 0.7642
Epoch 59/100
187/187 [==============================] - 367s - loss: 1.6008 - acc: 0.8825 - val_loss: 1.8358 - val_acc: 0.7645
Epoch 60/100
187/187 [==============================] - 367s - loss: 1.5963 - acc: 0.8844 - val_loss: 1.8385 - val_acc: 0.7645
Epoch 61/100
187/187 [==============================] - 367s - loss: 1.6002 - acc: 0.8889 - val_loss: 1.8351 - val_acc: 0.7655
Epoch 62/100
187/187 [==============================] - 367s - loss: 1.6010 - acc: 0.8835 - val_loss: 1.8347 - val_acc: 0.7644
Epoch 63/100
187/187 [==============================] - 367s - loss: 1.6046 - acc: 0.8857 - val_loss: 1.8370 - val_acc: 0.7660
Epoch 64/100
187/187 [==============================] - 367s - loss: 1.5996 - acc: 0.8859 - val_loss: 1.8338 - val_acc: 0.7630
Epoch 65/100
187/187 [==============================] - 367s - loss: 1.5977 - acc: 0.8822 - val_loss: 1.8341 - val_acc: 0.7637
Epoch 66/100
187/187 [==============================] - 367s - loss: 1.6055 - acc: 0.8802 - val_loss: 1.8371 - val_acc: 0.7660
Epoch 67/100
187/187 [==============================] - 367s - loss: 1.6097 - acc: 0.8790 - val_loss: 1.8410 - val_acc: 0.7622
Epoch 68/100
187/187 [==============================] - 367s - loss: 1.5953 - acc: 0.8867 - val_loss: 1.8355 - val_acc: 0.7651
Epoch 69/100
187/187 [==============================] - 367s - loss: 1.6071 - acc: 0.8830 - val_loss: 1.8371 - val_acc: 0.7654
Epoch 70/100
187/187 [==============================] - 367s - loss: 1.6030 - acc: 0.8819 - val_loss: 1.8395 - val_acc: 0.7636
Epoch 71/100
187/187 [==============================] - 367s - loss: 1.6041 - acc: 0.8790 - val_loss: 1.8338 - val_acc: 0.7638
Epoch 72/100
187/187 [==============================] - 367s - loss: 1.5974 - acc: 0.8897 - val_loss: 1.8352 - val_acc: 0.7646
Epoch 73/100
187/187 [==============================] - 367s - loss: 1.6016 - acc: 0.8810 - val_loss: 1.8364 - val_acc: 0.7645
Epoch 74/100
187/187 [==============================] - 367s - loss: 1.5998 - acc: 0.8854 - val_loss: 1.8337 - val_acc: 0.7652
Epoch 75/100
187/187 [==============================] - 367s - loss: 1.5977 - acc: 0.8877 - val_loss: 1.8346 - val_acc: 0.7634
Epoch 76/100
187/187 [==============================] - 367s - loss: 1.5989 - acc: 0.8835 - val_loss: 1.8328 - val_acc: 0.7640
Epoch 77/100
187/187 [==============================] - 367s - loss: 1.6058 - acc: 0.8793 - val_loss: 1.8361 - val_acc: 0.7651
Epoch 78/100
187/187 [==============================] - 367s - loss: 1.6023 - acc: 0.8860 - val_loss: 1.8348 - val_acc: 0.7641
Epoch 79/100
187/187 [==============================] - 367s - loss: 1.6035 - acc: 0.8803 - val_loss: 1.8344 - val_acc: 0.7655
Epoch 80/100
187/187 [==============================] - 367s - loss: 1.5956 - acc: 0.8842 - val_loss: 1.8355 - val_acc: 0.7632
Epoch 81/100
187/187 [==============================] - 367s - loss: 1.6091 - acc: 0.8797 - val_loss: 1.8366 - val_acc: 0.7651
Epoch 82/100
187/187 [==============================] - 367s - loss: 1.5952 - acc: 0.8842 - val_loss: 1.8389 - val_acc: 0.7640
Epoch 83/100
187/187 [==============================] - 367s - loss: 1.6036 - acc: 0.8812 - val_loss: 1.8398 - val_acc: 0.7653
Epoch 84/100
187/187 [==============================] - 367s - loss: 1.5977 - acc: 0.8845 - val_loss: 1.8358 - val_acc: 0.7651
Epoch 85/100
187/187 [==============================] - 367s - loss: 1.6084 - acc: 0.8807 - val_loss: 1.8352 - val_acc: 0.7631
Epoch 86/100
187/187 [==============================] - 367s - loss: 1.5967 - acc: 0.8825 - val_loss: 1.8353 - val_acc: 0.7639
Epoch 87/100
187/187 [==============================] - 367s - loss: 1.6008 - acc: 0.8810 - val_loss: 1.8372 - val_acc: 0.7650
Epoch 88/100
187/187 [==============================] - 367s - loss: 1.6064 - acc: 0.8817 - val_loss: 1.8368 - val_acc: 0.7641
Epoch 89/100
187/187 [==============================] - 367s - loss: 1.6004 - acc: 0.8807 - val_loss: 1.8376 - val_acc: 0.7650
Epoch 90/100
187/187 [==============================] - 367s - loss: 1.5975 - acc: 0.8872 - val_loss: 1.8350 - val_acc: 0.7643
Epoch 91/100
187/187 [==============================] - 367s - loss: 1.5948 - acc: 0.8874 - val_loss: 1.8363 - val_acc: 0.7654
Epoch 92/100
187/187 [==============================] - 367s - loss: 1.6054 - acc: 0.8812 - val_loss: 1.8372 - val_acc: 0.7656
Epoch 93/100
187/187 [==============================] - 367s - loss: 1.6064 - acc: 0.8824 - val_loss: 1.8337 - val_acc: 0.7626
Epoch 94/100
187/187 [==============================] - 367s - loss: 1.6047 - acc: 0.8840 - val_loss: 1.8353 - val_acc: 0.7635
Epoch 95/100
187/187 [==============================] - 367s - loss: 1.6012 - acc: 0.8822 - val_loss: 1.8415 - val_acc: 0.7635
Epoch 96/100
187/187 [==============================] - 367s - loss: 1.5963 - acc: 0.8859 - val_loss: 1.8360 - val_acc: 0.7652
Epoch 97/100
187/187 [==============================] - 367s - loss: 1.6002 - acc: 0.8832 - val_loss: 1.8356 - val_acc: 0.7650
Epoch 98/100
187/187 [==============================] - 367s - loss: 1.6063 - acc: 0.8808 - val_loss: 1.8361 - val_acc: 0.7651
Epoch 99/100
187/187 [==============================] - 367s - loss: 1.6011 - acc: 0.8849 - val_loss: 1.8372 - val_acc: 0.7639
Epoch 100/100
187/187 [==============================] - 367s - loss: 1.5996 - acc: 0.8839 - val_loss: 1.8359 - val_acc: 0.7643
