Bagging result of the following models:
['results_splitted_ds/rerun_9_16_resnet18_shuijing', 'results_splitted_ds/rerun_9_18_resnet18', 'results_splitted_ds/rerun_10_5_resnet50', 'results_splitted_ds/rerun_10_9_resnet50', 'results_splitted_ds/rerun_10_10_resnet50']

probabilities for 2 classes are:
('image name:', 'D15')
('true label:', 1)
('result of model', 0, ': ', [0, 150, 1])
[0, 150, 1]
('result of model', 1, ': ', [0, 150, 1])
[0, 150, 1]
('result of model', 2, ': ', [8, 142, 1])
[8, 142, 1]
('result of model', 3, ': ', [6, 144, 1])
[6, 144, 1]
('result of model', 4, ': ', [12, 138, 1])
[12, 138, 1]
('# of model votes positive:', 5, ', # of models vote negative: ', 0)
('image name:', 'K11')
('true label:', 1)
('result of model', 0, ': ', [0, 50, 1])
[0, 50, 1]
('result of model', 1, ': ', [2, 48, 1])
[2, 48, 1]
('result of model', 2, ': ', [5, 45, 1])
[5, 45, 1]
('result of model', 3, ': ', [5, 45, 1])
[5, 45, 1]
('result of model', 4, ': ', [5, 45, 1])
[5, 45, 1]
('# of model votes positive:', 5, ', # of models vote negative: ', 0)
('image name:', 'A18')
('true label:', 0)
('result of model', 0, ': ', [149, 1, 0])
[149, 1, 0]
('result of model', 1, ': ', [147, 3, 0])
[147, 3, 0]
('result of model', 2, ': ', [137, 13, 0])
[137, 13, 0]
('result of model', 3, ': ', [134, 16, 0])
[134, 16, 0]
('result of model', 4, ': ', [130, 20, 0])
[130, 20, 0]
('# of model votes positive:', 0, ', # of models vote negative: ', 5)
('image name:', 'D11')
('true label:', 1)
('result of model', 0, ': ', [0, 100, 1])
[0, 100, 1]
('result of model', 1, ': ', [0, 100, 1])
[0, 100, 1]
('result of model', 2, ': ', [0, 100, 1])
[0, 100, 1]
('result of model', 3, ': ', [1, 99, 1])
[1, 99, 1]
('result of model', 4, ': ', [3, 97, 1])
[3, 97, 1]
('# of model votes positive:', 5, ', # of models vote negative: ', 0)
('image name:', 'G7')
('true label:', 1)
('result of model', 0, ': ', [9, 141, 1])
[9, 141, 1]
('result of model', 1, ': ', [0, 150, 1])
[0, 150, 1]
('result of model', 2, ': ', [11, 139, 1])
[11, 139, 1]
('result of model', 3, ': ', [3, 147, 1])
[3, 147, 1]
('result of model', 4, ': ', [11, 139, 1])
[11, 139, 1]
('# of model votes positive:', 5, ', # of models vote negative: ', 0)
('image name:', 'G6')
('true label:', 0)
('result of model', 0, ': ', [145, 5, 0])
[145, 5, 0]
('result of model', 1, ': ', [148, 2, 0])
[148, 2, 0]
('result of model', 2, ': ', [135, 15, 0])
[135, 15, 0]
('result of model', 3, ': ', [136, 14, 0])
[136, 14, 0]
('result of model', 4, ': ', [129, 21, 0])
[129, 21, 0]
('# of model votes positive:', 0, ', # of models vote negative: ', 5)
('image name:', 'G5')
('true label:', 1)
('result of model', 0, ': ', [0, 100, 1])
[0, 100, 1]
('result of model', 1, ': ', [1, 99, 1])
[1, 99, 1]
('result of model', 2, ': ', [6, 94, 1])
[6, 94, 1]
('result of model', 3, ': ', [3, 97, 1])
[3, 97, 1]
('result of model', 4, ': ', [4, 96, 1])
[4, 96, 1]
('# of model votes positive:', 5, ', # of models vote negative: ', 0)
('image name:', 'G4')
('true label:', 0)
('result of model', 0, ': ', [150, 100, 0])
[150, 100, 0]
('result of model', 1, ': ', [150, 100, 0])
[150, 100, 0]
('result of model', 2, ': ', [137, 113, 0])
[137, 113, 0]
('result of model', 3, ': ', [148, 102, 0])
[148, 102, 0]
('result of model', 4, ': ', [146, 104, 0])
[146, 104, 0]
('# of model votes positive:', 0, ', # of models vote negative: ', 5)
('image name:', 'G3')
('true label:', 1)
('result of model', 0, ': ', [10, 140, 1])
[10, 140, 1]
('result of model', 1, ': ', [1, 149, 1])
[1, 149, 1]
('result of model', 2, ': ', [8, 142, 1])
[8, 142, 1]
('result of model', 3, ': ', [8, 142, 1])
[8, 142, 1]
('result of model', 4, ': ', [12, 138, 1])
[12, 138, 1]
('# of model votes positive:', 5, ', # of models vote negative: ', 0)
('image name:', 'G2')
('true label:', 1)
('result of model', 0, ': ', [2, 98, 1])
[2, 98, 1]
('result of model', 1, ': ', [0, 100, 1])
[0, 100, 1]
('result of model', 2, ': ', [5, 95, 1])
[5, 95, 1]
('result of model', 3, ': ', [5, 95, 1])
[5, 95, 1]
('result of model', 4, ': ', [6, 94, 1])
[6, 94, 1]
('# of model votes positive:', 5, ', # of models vote negative: ', 0)
('image name:', 'G1')
('true label:', 1)
('result of model', 0, ': ', [1, 149, 1])
[1, 149, 1]
('result of model', 1, ': ', [0, 150, 1])
[0, 150, 1]
('result of model', 2, ': ', [15, 135, 1])
[15, 135, 1]
('result of model', 3, ': ', [5, 145, 1])
[5, 145, 1]
('result of model', 4, ': ', [8, 142, 1])
[8, 142, 1]
('# of model votes positive:', 5, ', # of models vote negative: ', 0)
('image name:', 'D13')
('true label:', 1)
('result of model', 0, ': ', [0, 100, 1])
[0, 100, 1]
('result of model', 1, ': ', [2, 98, 1])
[2, 98, 1]
('result of model', 2, ': ', [10, 90, 1])
[10, 90, 1]
('result of model', 3, ': ', [6, 94, 1])
[6, 94, 1]
('result of model', 4, ': ', [10, 90, 1])
[10, 90, 1]
('# of model votes positive:', 5, ', # of models vote negative: ', 0)
('image name:', 'G9')
('true label:', 1)
('result of model', 0, ': ', [4, 146, 1])
[4, 146, 1]
('result of model', 1, ': ', [0, 150, 1])
[0, 150, 1]
('result of model', 2, ': ', [8, 142, 1])
[8, 142, 1]
('result of model', 3, ': ', [7, 143, 1])
[7, 143, 1]
('result of model', 4, ': ', [8, 142, 1])
[8, 142, 1]
('# of model votes positive:', 5, ', # of models vote negative: ', 0)
('image name:', 'G8')
('true label:', 1)
('result of model', 0, ': ', [0, 100, 1])
[0, 100, 1]
('result of model', 1, ': ', [0, 100, 1])
[0, 100, 1]
('result of model', 2, ': ', [4, 96, 1])
[4, 96, 1]
('result of model', 3, ': ', [4, 96, 1])
[4, 96, 1]
('result of model', 4, ': ', [5, 95, 1])
[5, 95, 1]
('# of model votes positive:', 5, ', # of models vote negative: ', 0)
('image name:', 'J8')
('true label:', 1)
('result of model', 0, ': ', [0, 150, 1])
[0, 150, 1]
('result of model', 1, ': ', [1, 149, 1])
[1, 149, 1]
('result of model', 2, ': ', [10, 140, 1])
[10, 140, 1]
('result of model', 3, ': ', [6, 144, 1])
[6, 144, 1]
('result of model', 4, ': ', [9, 141, 1])
[9, 141, 1]
('# of model votes positive:', 5, ', # of models vote negative: ', 0)
('image name:', 'J9')
('true label:', 1)
('result of model', 0, ': ', [0, 100, 1])
[0, 100, 1]
('result of model', 1, ': ', [1, 99, 1])
[1, 99, 1]
('result of model', 2, ': ', [15, 85, 1])
[15, 85, 1]
('result of model', 3, ': ', [6, 94, 1])
[6, 94, 1]
('result of model', 4, ': ', [6, 94, 1])
[6, 94, 1]
('# of model votes positive:', 5, ', # of models vote negative: ', 0)
('image name:', 'J5')
('true label:', 1)
('result of model', 0, ': ', [1, 149, 1])
[1, 149, 1]
('result of model', 1, ': ', [0, 150, 1])
[0, 150, 1]
('result of model', 2, ': ', [10, 140, 1])
[10, 140, 1]
('result of model', 3, ': ', [6, 144, 1])
[6, 144, 1]
('result of model', 4, ': ', [8, 142, 1])
[8, 142, 1]
('# of model votes positive:', 5, ', # of models vote negative: ', 0)
('image name:', 'J6')
('true label:', 1)
('result of model', 0, ': ', [0, 100, 1])
[0, 100, 1]
('result of model', 1, ': ', [0, 100, 1])
[0, 100, 1]
('result of model', 2, ': ', [5, 95, 1])
[5, 95, 1]
('result of model', 3, ': ', [5, 95, 1])
[5, 95, 1]
('result of model', 4, ': ', [8, 92, 1])
[8, 92, 1]
('# of model votes positive:', 5, ', # of models vote negative: ', 0)
('image name:', 'J7')
('true label:', 1)
('result of model', 0, ': ', [2, 198, 1])
[2, 198, 1]
('result of model', 1, ': ', [1, 199, 1])
[1, 199, 1]
('result of model', 2, ': ', [13, 187, 1])
[13, 187, 1]
('result of model', 3, ': ', [9, 191, 1])
[9, 191, 1]
('result of model', 4, ': ', [14, 186, 1])
[14, 186, 1]
('# of model votes positive:', 5, ', # of models vote negative: ', 0)
('image name:', 'J1')
('true label:', 1)
('result of model', 0, ': ', [1, 149, 1])
[1, 149, 1]
('result of model', 1, ': ', [0, 150, 1])
[0, 150, 1]
('result of model', 2, ': ', [10, 140, 1])
[10, 140, 1]
('result of model', 3, ': ', [6, 144, 1])
[6, 144, 1]
('result of model', 4, ': ', [12, 138, 1])
[12, 138, 1]
('# of model votes positive:', 5, ', # of models vote negative: ', 0)
('image name:', 'J2')
('true label:', 1)
('result of model', 0, ': ', [1, 149, 1])
[1, 149, 1]
('result of model', 1, ': ', [1, 149, 1])
[1, 149, 1]
('result of model', 2, ': ', [12, 138, 1])
[12, 138, 1]
('result of model', 3, ': ', [7, 143, 1])
[7, 143, 1]
('result of model', 4, ': ', [11, 139, 1])
[11, 139, 1]
('# of model votes positive:', 5, ', # of models vote negative: ', 0)
('image name:', 'J3')
('true label:', 1)
('result of model', 0, ': ', [3, 147, 1])
[3, 147, 1]
('result of model', 1, ': ', [1, 149, 1])
[1, 149, 1]
('result of model', 2, ': ', [10, 140, 1])
[10, 140, 1]
('result of model', 3, ': ', [6, 144, 1])
[6, 144, 1]
('result of model', 4, ': ', [8, 142, 1])
[8, 142, 1]
('# of model votes positive:', 5, ', # of models vote negative: ', 0)
('image name:', 'B4')
('true label:', 1)
('result of model', 0, ': ', [0, 100, 1])
[0, 100, 1]
('result of model', 1, ': ', [0, 100, 1])
[0, 100, 1]
('result of model', 2, ': ', [6, 94, 1])
[6, 94, 1]
('result of model', 3, ': ', [2, 98, 1])
[2, 98, 1]
('result of model', 4, ': ', [6, 94, 1])
[6, 94, 1]
('# of model votes positive:', 5, ', # of models vote negative: ', 0)
('image name:', 'B5')
('true label:', 1)
('result of model', 0, ': ', [1, 149, 1])
[1, 149, 1]
('result of model', 1, ': ', [1, 149, 1])
[1, 149, 1]
('result of model', 2, ': ', [13, 137, 1])
[13, 137, 1]
('result of model', 3, ': ', [6, 144, 1])
[6, 144, 1]
('result of model', 4, ': ', [11, 139, 1])
[11, 139, 1]
('# of model votes positive:', 5, ', # of models vote negative: ', 0)
('image name:', 'B6')
('true label:', 1)
('result of model', 0, ': ', [0, 100, 1])
[0, 100, 1]
('result of model', 1, ': ', [1, 99, 1])
[1, 99, 1]
('result of model', 2, ': ', [9, 91, 1])
[9, 91, 1]
('result of model', 3, ': ', [3, 97, 1])
[3, 97, 1]
('result of model', 4, ': ', [7, 93, 1])
[7, 93, 1]
('# of model votes positive:', 5, ', # of models vote negative: ', 0)
('image name:', 'B7')
('true label:', 1)
('result of model', 0, ': ', [2, 148, 1])
[2, 148, 1]
('result of model', 1, ': ', [0, 150, 1])
[0, 150, 1]
('result of model', 2, ': ', [3, 147, 1])
[3, 147, 1]
('result of model', 3, ': ', [3, 147, 1])
[3, 147, 1]
('result of model', 4, ': ', [8, 142, 1])
[8, 142, 1]
('# of model votes positive:', 5, ', # of models vote negative: ', 0)
('image name:', 'B1')
('true label:', 1)
('result of model', 0, ': ', [3, 147, 1])
[3, 147, 1]
('result of model', 1, ': ', [0, 150, 1])
[0, 150, 1]
('result of model', 2, ': ', [9, 141, 1])
[9, 141, 1]
('result of model', 3, ': ', [5, 145, 1])
[5, 145, 1]
('result of model', 4, ': ', [11, 139, 1])
[11, 139, 1]
('# of model votes positive:', 5, ', # of models vote negative: ', 0)
('image name:', 'B2')
('true label:', 0)
('result of model', 0, ': ', [137, 113, 0])
[137, 113, 0]
('result of model', 1, ': ', [148, 102, 0])
[148, 102, 0]
('result of model', 2, ': ', [146, 104, 0])
[146, 104, 0]
('result of model', 3, ': ', [143, 107, 0])
[143, 107, 0]
('result of model', 4, ': ', [138, 112, 0])
[138, 112, 0]
('# of model votes positive:', 0, ', # of models vote negative: ', 5)
('image name:', 'B12')
('true label:', 0)
('result of model', 0, ': ', [149, 101, 0])
[149, 101, 0]
('result of model', 1, ': ', [150, 100, 0])
[150, 100, 0]
('result of model', 2, ': ', [146, 104, 0])
[146, 104, 0]
('result of model', 3, ': ', [142, 108, 0])
[142, 108, 0]
('result of model', 4, ': ', [145, 105, 0])
[145, 105, 0]
('# of model votes positive:', 0, ', # of models vote negative: ', 5)
('image name:', 'B8')
('true label:', 0)
('result of model', 0, ': ', [148, 2, 0])
[148, 2, 0]
('result of model', 1, ': ', [148, 2, 0])
[148, 2, 0]
('result of model', 2, ': ', [134, 16, 0])
[134, 16, 0]
('result of model', 3, ': ', [144, 6, 0])
[144, 6, 0]
('result of model', 4, ': ', [142, 8, 0])
[142, 8, 0]
('# of model votes positive:', 0, ', # of models vote negative: ', 5)
('image name:', 'B9')
('true label:', 1)
('result of model', 0, ': ', [0, 150, 1])
[0, 150, 1]
('result of model', 1, ': ', [1, 149, 1])
[1, 149, 1]
('result of model', 2, ': ', [11, 139, 1])
[11, 139, 1]
('result of model', 3, ': ', [5, 145, 1])
[5, 145, 1]
('result of model', 4, ': ', [8, 142, 1])
[8, 142, 1]
('# of model votes positive:', 5, ', # of models vote negative: ', 0)
('image name:', 'L14')
('true label:', 0)
('result of model', 0, ': ', [296, 4, 0])
[296, 4, 0]
('result of model', 1, ': ', [297, 3, 0])
[297, 3, 0]
('result of model', 2, ': ', [278, 22, 0])
[278, 22, 0]
('result of model', 3, ': ', [274, 26, 0])
[274, 26, 0]
('result of model', 4, ': ', [267, 33, 0])
[267, 33, 0]
('# of model votes positive:', 0, ', # of models vote negative: ', 5)
('image name:', 'L15')
('true label:', 0)
('result of model', 0, ': ', [299, 1, 0])
[299, 1, 0]
('result of model', 1, ': ', [298, 2, 0])
[298, 2, 0]
('result of model', 2, ': ', [277, 23, 0])
[277, 23, 0]
('result of model', 3, ': ', [282, 18, 0])
[282, 18, 0]
('result of model', 4, ': ', [271, 29, 0])
[271, 29, 0]
('# of model votes positive:', 0, ', # of models vote negative: ', 5)
('image name:', 'G12')
('true label:', 1)
('result of model', 0, ': ', [0, 100, 1])
[0, 100, 1]
('result of model', 1, ': ', [1, 99, 1])
[1, 99, 1]
('result of model', 2, ': ', [11, 89, 1])
[11, 89, 1]
('result of model', 3, ': ', [5, 95, 1])
[5, 95, 1]
('result of model', 4, ': ', [7, 93, 1])
[7, 93, 1]
('# of model votes positive:', 5, ', # of models vote negative: ', 0)
('image name:', 'L12')
('true label:', 0)
('result of model', 0, ': ', [150, 0, 0])
[150, 0, 0]
('result of model', 1, ': ', [148, 2, 0])
[148, 2, 0]
('result of model', 2, ': ', [134, 16, 0])
[134, 16, 0]
('result of model', 3, ': ', [135, 15, 0])
[135, 15, 0]
('result of model', 4, ': ', [129, 21, 0])
[129, 21, 0]
('# of model votes positive:', 0, ', # of models vote negative: ', 5)
('image name:', 'L13')
('true label:', 0)
('result of model', 0, ': ', [299, 1, 0])
[299, 1, 0]
('result of model', 1, ': ', [295, 5, 0])
[295, 5, 0]
('result of model', 2, ': ', [270, 30, 0])
[270, 30, 0]
('result of model', 3, ': ', [280, 20, 0])
[280, 20, 0]
('result of model', 4, ': ', [267, 33, 0])
[267, 33, 0]
('# of model votes positive:', 0, ', # of models vote negative: ', 5)
('image name:', 'M7')
('true label:', 0)
('result of model', 0, ': ', [147, 3, 0])
[147, 3, 0]
('result of model', 1, ': ', [150, 0, 0])
[150, 0, 0]
('result of model', 2, ': ', [142, 8, 0])
[142, 8, 0]
('result of model', 3, ': ', [139, 11, 0])
[139, 11, 0]
('result of model', 4, ': ', [134, 16, 0])
[134, 16, 0]
('# of model votes positive:', 0, ', # of models vote negative: ', 5)
('image name:', 'M1')
('true label:', 0)
('result of model', 0, ': ', [150, 0, 0])
[150, 0, 0]
('result of model', 1, ': ', [150, 0, 0])
[150, 0, 0]
('result of model', 2, ': ', [136, 14, 0])
[136, 14, 0]
('result of model', 3, ': ', [140, 10, 0])
[140, 10, 0]
('result of model', 4, ': ', [135, 15, 0])
[135, 15, 0]
('# of model votes positive:', 0, ', # of models vote negative: ', 5)
('image name:', 'M3')
('true label:', 0)
('result of model', 0, ': ', [150, 0, 0])
[150, 0, 0]
('result of model', 1, ': ', [150, 0, 0])
[150, 0, 0]
('result of model', 2, ': ', [140, 10, 0])
[140, 10, 0]
('result of model', 3, ': ', [140, 10, 0])
[140, 10, 0]
('result of model', 4, ': ', [136, 14, 0])
[136, 14, 0]
('# of model votes positive:', 0, ', # of models vote negative: ', 5)
('image name:', 'M2')
('true label:', 0)
('result of model', 0, ': ', [145, 5, 0])
[145, 5, 0]
('result of model', 1, ': ', [149, 1, 0])
[149, 1, 0]
('result of model', 2, ': ', [140, 10, 0])
[140, 10, 0]
('result of model', 3, ': ', [144, 6, 0])
[144, 6, 0]
('result of model', 4, ': ', [137, 13, 0])
[137, 13, 0]
('# of model votes positive:', 0, ', # of models vote negative: ', 5)
('image name:', 'M9')
('true label:', 0)
('result of model', 0, ': ', [149, 1, 0])
[149, 1, 0]
('result of model', 1, ': ', [149, 1, 0])
[149, 1, 0]
('result of model', 2, ': ', [136, 14, 0])
[136, 14, 0]
('result of model', 3, ': ', [144, 6, 0])
[144, 6, 0]
('result of model', 4, ': ', [139, 11, 0])
[139, 11, 0]
('# of model votes positive:', 0, ', # of models vote negative: ', 5)
('image name:', 'M8')
('true label:', 0)
('result of model', 0, ': ', [150, 0, 0])
[150, 0, 0]
('result of model', 1, ': ', [149, 1, 0])
[149, 1, 0]
('result of model', 2, ': ', [134, 16, 0])
[134, 16, 0]
('result of model', 3, ': ', [139, 11, 0])
[139, 11, 0]
('result of model', 4, ': ', [131, 19, 0])
[131, 19, 0]
('# of model votes positive:', 0, ', # of models vote negative: ', 5)
('image name:', 'E8')
('true label:', 1)
('result of model', 0, ': ', [0, 100, 1])
[0, 100, 1]
('result of model', 1, ': ', [0, 100, 1])
[0, 100, 1]
('result of model', 2, ': ', [5, 95, 1])
[5, 95, 1]
('result of model', 3, ': ', [1, 99, 1])
[1, 99, 1]
('result of model', 4, ': ', [6, 94, 1])
[6, 94, 1]
('# of model votes positive:', 5, ', # of models vote negative: ', 0)
('image name:', 'E5')
('true label:', 1)
('result of model', 0, ': ', [10, 140, 1])
[10, 140, 1]
('result of model', 1, ': ', [0, 150, 1])
[0, 150, 1]
('result of model', 2, ': ', [6, 144, 1])
[6, 144, 1]
('result of model', 3, ': ', [5, 145, 1])
[5, 145, 1]
('result of model', 4, ': ', [10, 140, 1])
[10, 140, 1]
('# of model votes positive:', 5, ', # of models vote negative: ', 0)
('image name:', 'E4')
('true label:', 1)
('result of model', 0, ': ', [0, 100, 1])
[0, 100, 1]
('result of model', 1, ': ', [0, 100, 1])
[0, 100, 1]
('result of model', 2, ': ', [8, 92, 1])
[8, 92, 1]
('result of model', 3, ': ', [3, 97, 1])
[3, 97, 1]
('result of model', 4, ': ', [7, 93, 1])
[7, 93, 1]
('# of model votes positive:', 5, ', # of models vote negative: ', 0)
('image name:', 'E6')
('true label:', 1)
('result of model', 0, ': ', [0, 100, 1])
[0, 100, 1]
('result of model', 1, ': ', [1, 99, 1])
[1, 99, 1]
('result of model', 2, ': ', [10, 90, 1])
[10, 90, 1]
('result of model', 3, ': ', [5, 95, 1])
[5, 95, 1]
('result of model', 4, ': ', [8, 92, 1])
[8, 92, 1]
('# of model votes positive:', 5, ', # of models vote negative: ', 0)
('image name:', 'E1')
('true label:', 1)
('result of model', 0, ': ', [0, 100, 1])
[0, 100, 1]
('result of model', 1, ': ', [0, 100, 1])
[0, 100, 1]
('result of model', 2, ': ', [6, 94, 1])
[6, 94, 1]
('result of model', 3, ': ', [4, 96, 1])
[4, 96, 1]
('result of model', 4, ': ', [5, 95, 1])
[5, 95, 1]
('# of model votes positive:', 5, ', # of models vote negative: ', 0)
('image name:', 'E3')
('true label:', 1)
('result of model', 0, ': ', [1, 149, 1])
[1, 149, 1]
('result of model', 1, ': ', [0, 150, 1])
[0, 150, 1]
('result of model', 2, ': ', [11, 139, 1])
[11, 139, 1]
('result of model', 3, ': ', [5, 145, 1])
[5, 145, 1]
('result of model', 4, ': ', [10, 140, 1])
[10, 140, 1]
('# of model votes positive:', 5, ', # of models vote negative: ', 0)
('image name:', 'E2')
('true label:', 1)
('result of model', 0, ': ', [0, 100, 1])
[0, 100, 1]
('result of model', 1, ': ', [1, 99, 1])
[1, 99, 1]
('result of model', 2, ': ', [6, 94, 1])
[6, 94, 1]
('result of model', 3, ': ', [4, 96, 1])
[4, 96, 1]
('result of model', 4, ': ', [6, 94, 1])
[6, 94, 1]
('# of model votes positive:', 5, ', # of models vote negative: ', 0)
('image name:', 'H18')
('true label:', 0)
('result of model', 0, ': ', [144, 6, 0])
[144, 6, 0]
('result of model', 1, ': ', [150, 0, 0])
[150, 0, 0]
('result of model', 2, ': ', [144, 6, 0])
[144, 6, 0]
('result of model', 3, ': ', [141, 9, 0])
[141, 9, 0]
('result of model', 4, ': ', [133, 17, 0])
[133, 17, 0]
('# of model votes positive:', 0, ', # of models vote negative: ', 5)
('image name:', 'H10')
('true label:', 1)
('result of model', 0, ': ', [0, 100, 1])
[0, 100, 1]
('result of model', 1, ': ', [1, 99, 1])
[1, 99, 1]
('result of model', 2, ': ', [7, 93, 1])
[7, 93, 1]
('result of model', 3, ': ', [6, 94, 1])
[6, 94, 1]
('result of model', 4, ': ', [8, 92, 1])
[8, 92, 1]
('# of model votes positive:', 5, ', # of models vote negative: ', 0)
('image name:', 'H13')
('true label:', 1)
('result of model', 0, ': ', [5, 145, 1])
[5, 145, 1]
('result of model', 1, ': ', [1, 149, 1])
[1, 149, 1]
('result of model', 2, ': ', [13, 137, 1])
[13, 137, 1]
('result of model', 3, ': ', [7, 143, 1])
[7, 143, 1]
('result of model', 4, ': ', [9, 141, 1])
[9, 141, 1]
('# of model votes positive:', 5, ', # of models vote negative: ', 0)
('image name:', 'H14')
('true label:', 0)
('result of model', 0, ': ', [148, 2, 0])
[148, 2, 0]
('result of model', 1, ': ', [150, 0, 0])
[150, 0, 0]
('result of model', 2, ': ', [138, 12, 0])
[138, 12, 0]
('result of model', 3, ': ', [143, 7, 0])
[143, 7, 0]
('result of model', 4, ': ', [139, 11, 0])
[139, 11, 0]
('# of model votes positive:', 0, ', # of models vote negative: ', 5)
('image name:', 'H15')
('true label:', 1)
('result of model', 0, ': ', [0, 150, 1])
[0, 150, 1]
('result of model', 1, ': ', [1, 149, 1])
[1, 149, 1]
('result of model', 2, ': ', [14, 136, 1])
[14, 136, 1]
('result of model', 3, ': ', [6, 144, 1])
[6, 144, 1]
('result of model', 4, ': ', [12, 138, 1])
[12, 138, 1]
('# of model votes positive:', 5, ', # of models vote negative: ', 0)
('image name:', 'H17')
('true label:', 1)
('result of model', 0, ': ', [0, 50, 1])
[0, 50, 1]
('result of model', 1, ': ', [0, 50, 1])
[0, 50, 1]
('result of model', 2, ': ', [3, 47, 1])
[3, 47, 1]
('result of model', 3, ': ', [3, 47, 1])
[3, 47, 1]
('result of model', 4, ': ', [3, 47, 1])
[3, 47, 1]
('# of model votes positive:', 5, ', # of models vote negative: ', 0)
('image name:', 'F12')
('true label:', 1)
('result of model', 0, ': ', [0, 100, 1])
[0, 100, 1]
('result of model', 1, ': ', [1, 99, 1])
[1, 99, 1]
('result of model', 2, ': ', [11, 89, 1])
[11, 89, 1]
('result of model', 3, ': ', [4, 96, 1])
[4, 96, 1]
('result of model', 4, ': ', [7, 93, 1])
[7, 93, 1]
('# of model votes positive:', 5, ', # of models vote negative: ', 0)
('image name:', 'F13')
('true label:', 1)
('result of model', 0, ': ', [17, 133, 1])
[17, 133, 1]
('result of model', 1, ': ', [0, 150, 1])
[0, 150, 1]
('result of model', 2, ': ', [6, 144, 1])
[6, 144, 1]
('result of model', 3, ': ', [9, 141, 1])
[9, 141, 1]
('result of model', 4, ': ', [11, 139, 1])
[11, 139, 1]
('# of model votes positive:', 5, ', # of models vote negative: ', 0)
('image name:', 'F10')
('true label:', 0)
('result of model', 0, ': ', [154, 96, 0])
[154, 96, 0]
('result of model', 1, ': ', [149, 101, 0])
[149, 101, 0]
('result of model', 2, ': ', [145, 105, 0])
[145, 105, 0]
('result of model', 3, ': ', [142, 108, 0])
[142, 108, 0]
('result of model', 4, ': ', [141, 109, 0])
[141, 109, 0]
('# of model votes positive:', 0, ', # of models vote negative: ', 5)
('image name:', 'F11')
('true label:', 1)
('result of model', 0, ': ', [2, 148, 1])
[2, 148, 1]
('result of model', 1, ': ', [1, 149, 1])
[1, 149, 1]
('result of model', 2, ': ', [12, 138, 1])
[12, 138, 1]
('result of model', 3, ': ', [3, 147, 1])
[3, 147, 1]
('result of model', 4, ': ', [4, 146, 1])
[4, 146, 1]
('# of model votes positive:', 5, ', # of models vote negative: ', 0)
('image name:', 'F16')
('true label:', 1)
('result of model', 0, ': ', [0, 100, 1])
[0, 100, 1]
('result of model', 1, ': ', [0, 100, 1])
[0, 100, 1]
('result of model', 2, ': ', [7, 93, 1])
[7, 93, 1]
('result of model', 3, ': ', [4, 96, 1])
[4, 96, 1]
('result of model', 4, ': ', [6, 94, 1])
[6, 94, 1]
('# of model votes positive:', 5, ', # of models vote negative: ', 0)
('image name:', 'F17')
('true label:', 1)
('result of model', 0, ': ', [5, 45, 1])
[5, 45, 1]
('result of model', 1, ': ', [0, 50, 1])
[0, 50, 1]
('result of model', 2, ': ', [3, 47, 1])
[3, 47, 1]
('result of model', 3, ': ', [3, 47, 1])
[3, 47, 1]
('result of model', 4, ': ', [4, 46, 1])
[4, 46, 1]
('# of model votes positive:', 5, ', # of models vote negative: ', 0)
('image name:', 'F14')
('true label:', 1)
('result of model', 0, ': ', [0, 100, 1])
[0, 100, 1]
('result of model', 1, ': ', [1, 99, 1])
[1, 99, 1]
('result of model', 2, ': ', [8, 92, 1])
[8, 92, 1]
('result of model', 3, ': ', [9, 91, 1])
[9, 91, 1]
('result of model', 4, ': ', [12, 88, 1])
[12, 88, 1]
('# of model votes positive:', 5, ', # of models vote negative: ', 0)
('image name:', 'F15')
('true label:', 1)
('result of model', 0, ': ', [2, 148, 1])
[2, 148, 1]
('result of model', 1, ': ', [0, 150, 1])
[0, 150, 1]
('result of model', 2, ': ', [10, 140, 1])
[10, 140, 1]
('result of model', 3, ': ', [6, 144, 1])
[6, 144, 1]
('result of model', 4, ': ', [12, 138, 1])
[12, 138, 1]
('# of model votes positive:', 5, ', # of models vote negative: ', 0)
('image name:', 'H8')
('true label:', 1)
('result of model', 0, ': ', [0, 50, 1])
[0, 50, 1]
('result of model', 1, ': ', [0, 50, 1])
[0, 50, 1]
('result of model', 2, ': ', [3, 47, 1])
[3, 47, 1]
('result of model', 3, ': ', [3, 47, 1])
[3, 47, 1]
('result of model', 4, ': ', [3, 47, 1])
[3, 47, 1]
('# of model votes positive:', 5, ', # of models vote negative: ', 0)
('image name:', 'H9')
('true label:', 1)
('result of model', 0, ': ', [5, 145, 1])
[5, 145, 1]
('result of model', 1, ': ', [1, 149, 1])
[1, 149, 1]
('result of model', 2, ': ', [11, 139, 1])
[11, 139, 1]
('result of model', 3, ': ', [11, 139, 1])
[11, 139, 1]
('result of model', 4, ': ', [16, 134, 1])
[16, 134, 1]
('# of model votes positive:', 5, ', # of models vote negative: ', 0)
('image name:', 'H2')
('true label:', 0)
('result of model', 0, ': ', [149, 101, 0])
[149, 101, 0]
('result of model', 1, ': ', [149, 101, 0])
[149, 101, 0]
('result of model', 2, ': ', [139, 111, 0])
[139, 111, 0]
('result of model', 3, ': ', [143, 107, 0])
[143, 107, 0]
('result of model', 4, ': ', [135, 115, 0])
[135, 115, 0]
('# of model votes positive:', 0, ', # of models vote negative: ', 5)
('image name:', 'H3')
('true label:', 1)
('result of model', 0, ': ', [20, 180, 1])
[20, 180, 1]
('result of model', 1, ': ', [0, 200, 1])
[0, 200, 1]
('result of model', 2, ': ', [10, 190, 1])
[10, 190, 1]
('result of model', 3, ': ', [10, 190, 1])
[10, 190, 1]
('result of model', 4, ': ', [14, 186, 1])
[14, 186, 1]
('# of model votes positive:', 5, ', # of models vote negative: ', 0)
('image name:', 'H1')
('true label:', 1)
('result of model', 0, ': ', [0, 100, 1])
[0, 100, 1]
('result of model', 1, ': ', [0, 100, 1])
[0, 100, 1]
('result of model', 2, ': ', [5, 95, 1])
[5, 95, 1]
('result of model', 3, ': ', [2, 98, 1])
[2, 98, 1]
('result of model', 4, ': ', [5, 95, 1])
[5, 95, 1]
('# of model votes positive:', 5, ', # of models vote negative: ', 0)
('image name:', 'H7')
('true label:', 1)
('result of model', 0, ': ', [3, 97, 1])
[3, 97, 1]
('result of model', 1, ': ', [1, 99, 1])
[1, 99, 1]
('result of model', 2, ': ', [10, 90, 1])
[10, 90, 1]
('result of model', 3, ': ', [4, 96, 1])
[4, 96, 1]
('result of model', 4, ': ', [8, 92, 1])
[8, 92, 1]
('# of model votes positive:', 5, ', # of models vote negative: ', 0)
('image name:', 'H4')
('true label:', 0)
('result of model', 0, ': ', [150, 0, 0])
[150, 0, 0]
('result of model', 1, ': ', [149, 1, 0])
[149, 1, 0]
('result of model', 2, ': ', [139, 11, 0])
[139, 11, 0]
('result of model', 3, ': ', [141, 9, 0])
[141, 9, 0]
('result of model', 4, ': ', [131, 19, 0])
[131, 19, 0]
('# of model votes positive:', 0, ', # of models vote negative: ', 5)
('image name:', 'H5')
('true label:', 1)
('result of model', 0, ': ', [13, 187, 1])
[13, 187, 1]
('result of model', 1, ': ', [0, 200, 1])
[0, 200, 1]
('result of model', 2, ': ', [10, 190, 1])
[10, 190, 1]
('result of model', 3, ': ', [10, 190, 1])
[10, 190, 1]
('result of model', 4, ': ', [15, 185, 1])
[15, 185, 1]
('# of model votes positive:', 5, ', # of models vote negative: ', 0)
('image name:', 'K13')
('true label:', 1)
('result of model', 0, ': ', [0, 50, 1])
[0, 50, 1]
('result of model', 1, ': ', [0, 50, 1])
[0, 50, 1]
('result of model', 2, ': ', [2, 48, 1])
[2, 48, 1]
('result of model', 3, ': ', [0, 50, 1])
[0, 50, 1]
('result of model', 4, ': ', [1, 49, 1])
[1, 49, 1]
('# of model votes positive:', 5, ', # of models vote negative: ', 0)
('image name:', 'K12')
('true label:', 0)
('result of model', 0, ': ', [150, 0, 0])
[150, 0, 0]
('result of model', 1, ': ', [148, 2, 0])
[148, 2, 0]
('result of model', 2, ': ', [135, 15, 0])
[135, 15, 0]
('result of model', 3, ': ', [141, 9, 0])
[141, 9, 0]
('result of model', 4, ': ', [134, 16, 0])
[134, 16, 0]
('# of model votes positive:', 0, ', # of models vote negative: ', 5)
('image name:', 'D16')
('true label:', 1)
('result of model', 0, ': ', [0, 100, 1])
[0, 100, 1]
('result of model', 1, ': ', [1, 99, 1])
[1, 99, 1]
('result of model', 2, ': ', [5, 95, 1])
[5, 95, 1]
('result of model', 3, ': ', [1, 99, 1])
[1, 99, 1]
('result of model', 4, ': ', [4, 96, 1])
[4, 96, 1]
('# of model votes positive:', 5, ', # of models vote negative: ', 0)
('image name:', 'K10')
('true label:', 0)
('result of model', 0, ': ', [146, 54, 0])
[146, 54, 0]
('result of model', 1, ': ', [149, 51, 0])
[149, 51, 0]
('result of model', 2, ': ', [138, 62, 0])
[138, 62, 0]
('result of model', 3, ': ', [139, 61, 0])
[139, 61, 0]
('result of model', 4, ': ', [133, 67, 0])
[133, 67, 0]
('# of model votes positive:', 0, ', # of models vote negative: ', 5)
('image name:', 'D10')
('true label:', 0)
('result of model', 0, ': ', [149, 101, 0])
[149, 101, 0]
('result of model', 1, ': ', [149, 101, 0])
[149, 101, 0]
('result of model', 2, ': ', [148, 102, 0])
[148, 102, 0]
('result of model', 3, ': ', [144, 106, 0])
[144, 106, 0]
('result of model', 4, ': ', [142, 108, 0])
[142, 108, 0]
('# of model votes positive:', 0, ', # of models vote negative: ', 5)
('image name:', 'K16')
('true label:', 1)
('result of model', 0, ': ', [0, 50, 1])
[0, 50, 1]
('result of model', 1, ': ', [0, 50, 1])
[0, 50, 1]
('result of model', 2, ': ', [2, 48, 1])
[2, 48, 1]
('result of model', 3, ': ', [0, 50, 1])
[0, 50, 1]
('result of model', 4, ': ', [1, 49, 1])
[1, 49, 1]
('# of model votes positive:', 5, ', # of models vote negative: ', 0)
('image name:', 'K14')
('true label:', 0)
('result of model', 0, ': ', [150, 0, 0])
[150, 0, 0]
('result of model', 1, ': ', [149, 1, 0])
[149, 1, 0]
('result of model', 2, ': ', [137, 13, 0])
[137, 13, 0]
('result of model', 3, ': ', [142, 8, 0])
[142, 8, 0]
('result of model', 4, ': ', [134, 16, 0])
[134, 16, 0]
('# of model votes positive:', 0, ', # of models vote negative: ', 5)
('image name:', 'D18')
('true label:', 0)
('result of model', 0, ': ', [148, 2, 0])
[148, 2, 0]
('result of model', 1, ': ', [149, 1, 0])
[149, 1, 0]
('result of model', 2, ': ', [140, 10, 0])
[140, 10, 0]
('result of model', 3, ': ', [145, 5, 0])
[145, 5, 0]
('result of model', 4, ': ', [138, 12, 0])
[138, 12, 0]
('# of model votes positive:', 0, ', # of models vote negative: ', 5)
('image name:', 'K3')
('true label:', 0)
('result of model', 0, ': ', [150, 0, 0])
[150, 0, 0]
('result of model', 1, ': ', [148, 2, 0])
[148, 2, 0]
('result of model', 2, ': ', [139, 11, 0])
[139, 11, 0]
('result of model', 3, ': ', [137, 13, 0])
[137, 13, 0]
('result of model', 4, ': ', [129, 21, 0])
[129, 21, 0]
('# of model votes positive:', 0, ', # of models vote negative: ', 5)
('image name:', 'K2')
('true label:', 0)
('result of model', 0, ': ', [150, 0, 0])
[150, 0, 0]
('result of model', 1, ': ', [147, 3, 0])
[147, 3, 0]
('result of model', 2, ': ', [137, 13, 0])
[137, 13, 0]
('result of model', 3, ': ', [140, 10, 0])
[140, 10, 0]
('result of model', 4, ': ', [132, 18, 0])
[132, 18, 0]
('# of model votes positive:', 0, ', # of models vote negative: ', 5)
('image name:', 'K1')
('true label:', 0)
('result of model', 0, ': ', [150, 0, 0])
[150, 0, 0]
('result of model', 1, ': ', [148, 2, 0])
[148, 2, 0]
('result of model', 2, ': ', [137, 13, 0])
[137, 13, 0]
('result of model', 3, ': ', [143, 7, 0])
[143, 7, 0]
('result of model', 4, ': ', [138, 12, 0])
[138, 12, 0]
('# of model votes positive:', 0, ', # of models vote negative: ', 5)
('image name:', 'K7')
('true label:', 0)
('result of model', 0, ': ', [148, 2, 0])
[148, 2, 0]
('result of model', 1, ': ', [150, 0, 0])
[150, 0, 0]
('result of model', 2, ': ', [141, 9, 0])
[141, 9, 0]
('result of model', 3, ': ', [143, 7, 0])
[143, 7, 0]
('result of model', 4, ': ', [137, 13, 0])
[137, 13, 0]
('# of model votes positive:', 0, ', # of models vote negative: ', 5)
('image name:', 'B13')
('true label:', 1)
('result of model', 0, ': ', [3, 147, 1])
[3, 147, 1]
('result of model', 1, ': ', [1, 149, 1])
[1, 149, 1]
('result of model', 2, ': ', [12, 138, 1])
[12, 138, 1]
('result of model', 3, ': ', [4, 146, 1])
[4, 146, 1]
('result of model', 4, ': ', [8, 142, 1])
[8, 142, 1]
('# of model votes positive:', 5, ', # of models vote negative: ', 0)
('image name:', 'K5')
('true label:', 0)
('result of model', 0, ': ', [150, 50, 0])
[150, 50, 0]
('result of model', 1, ': ', [150, 50, 0])
[150, 50, 0]
('result of model', 2, ': ', [142, 58, 0])
[142, 58, 0]
('result of model', 3, ': ', [145, 55, 0])
[145, 55, 0]
('result of model', 4, ': ', [139, 61, 0])
[139, 61, 0]
('# of model votes positive:', 0, ', # of models vote negative: ', 5)
('image name:', 'K4')
('true label:', 0)
('result of model', 0, ': ', [150, 50, 0])
[150, 50, 0]
('result of model', 1, ': ', [150, 50, 0])
[150, 50, 0]
('result of model', 2, ': ', [144, 56, 0])
[144, 56, 0]
('result of model', 3, ': ', [146, 54, 0])
[146, 54, 0]
('result of model', 4, ': ', [140, 60, 0])
[140, 60, 0]
('# of model votes positive:', 0, ', # of models vote negative: ', 5)
('image name:', 'K9')
('true label:', 0)
('result of model', 0, ': ', [148, 52, 0])
[148, 52, 0]
('result of model', 1, ': ', [150, 50, 0])
[150, 50, 0]
('result of model', 2, ': ', [143, 57, 0])
[143, 57, 0]
('result of model', 3, ': ', [148, 52, 0])
[148, 52, 0]
('result of model', 4, ': ', [145, 55, 0])
[145, 55, 0]
('# of model votes positive:', 0, ', # of models vote negative: ', 5)
('image name:', 'K8')
('true label:', 0)
('result of model', 0, ': ', [150, 0, 0])
[150, 0, 0]
('result of model', 1, ': ', [150, 0, 0])
[150, 0, 0]
('result of model', 2, ': ', [141, 9, 0])
[141, 9, 0]
('result of model', 3, ': ', [139, 11, 0])
[139, 11, 0]
('result of model', 4, ': ', [135, 15, 0])
[135, 15, 0]
('# of model votes positive:', 0, ', # of models vote negative: ', 5)
('image name:', 'C9')
('true label:', 1)
('result of model', 0, ': ', [6, 144, 1])
[6, 144, 1]
('result of model', 1, ': ', [2, 148, 1])
[2, 148, 1]
('result of model', 2, ': ', [11, 139, 1])
[11, 139, 1]
('result of model', 3, ': ', [10, 140, 1])
[10, 140, 1]
('result of model', 4, ': ', [15, 135, 1])
[15, 135, 1]
('# of model votes positive:', 5, ', # of models vote negative: ', 0)
('image name:', 'C8')
('true label:', 0)
('result of model', 0, ': ', [147, 3, 0])
[147, 3, 0]
('result of model', 1, ': ', [150, 0, 0])
[150, 0, 0]
('result of model', 2, ': ', [136, 14, 0])
[136, 14, 0]
('result of model', 3, ': ', [136, 14, 0])
[136, 14, 0]
('result of model', 4, ': ', [128, 22, 0])
[128, 22, 0]
('# of model votes positive:', 0, ', # of models vote negative: ', 5)
('image name:', 'J18')
('true label:', 1)
('result of model', 0, ': ', [1, 49, 1])
[1, 49, 1]
('result of model', 1, ': ', [0, 50, 1])
[0, 50, 1]
('result of model', 2, ': ', [4, 46, 1])
[4, 46, 1]
('result of model', 3, ': ', [5, 45, 1])
[5, 45, 1]
('result of model', 4, ': ', [6, 44, 1])
[6, 44, 1]
('# of model votes positive:', 5, ', # of models vote negative: ', 0)
('image name:', 'C2')
('true label:', 1)
('result of model', 0, ': ', [0, 100, 1])
[0, 100, 1]
('result of model', 1, ': ', [1, 99, 1])
[1, 99, 1]
('result of model', 2, ': ', [9, 91, 1])
[9, 91, 1]
('result of model', 3, ': ', [5, 95, 1])
[5, 95, 1]
('result of model', 4, ': ', [6, 94, 1])
[6, 94, 1]
('# of model votes positive:', 5, ', # of models vote negative: ', 0)
('image name:', 'J14')
('true label:', 1)
('result of model', 0, ': ', [0, 100, 1])
[0, 100, 1]
('result of model', 1, ': ', [0, 100, 1])
[0, 100, 1]
('result of model', 2, ': ', [9, 91, 1])
[9, 91, 1]
('result of model', 3, ': ', [3, 97, 1])
[3, 97, 1]
('result of model', 4, ': ', [8, 92, 1])
[8, 92, 1]
('# of model votes positive:', 5, ', # of models vote negative: ', 0)
('image name:', 'J15')
('true label:', 1)
('result of model', 0, ': ', [0, 100, 1])
[0, 100, 1]
('result of model', 1, ': ', [0, 100, 1])
[0, 100, 1]
('result of model', 2, ': ', [8, 92, 1])
[8, 92, 1]
('result of model', 3, ': ', [4, 96, 1])
[4, 96, 1]
('result of model', 4, ': ', [7, 93, 1])
[7, 93, 1]
('# of model votes positive:', 5, ', # of models vote negative: ', 0)
('image name:', 'J12')
('true label:', 1)
('result of model', 0, ': ', [1, 149, 1])
[1, 149, 1]
('result of model', 1, ': ', [1, 149, 1])
[1, 149, 1]
('result of model', 2, ': ', [7, 143, 1])
[7, 143, 1]
('result of model', 3, ': ', [10, 140, 1])
[10, 140, 1]
('result of model', 4, ': ', [13, 137, 1])
[13, 137, 1]
('# of model votes positive:', 5, ', # of models vote negative: ', 0)
('image name:', 'J13')
('true label:', 1)
('result of model', 0, ': ', [0, 150, 1])
[0, 150, 1]
('result of model', 1, ': ', [3, 147, 1])
[3, 147, 1]
('result of model', 2, ': ', [11, 139, 1])
[11, 139, 1]
('result of model', 3, ': ', [11, 139, 1])
[11, 139, 1]
('result of model', 4, ': ', [15, 135, 1])
[15, 135, 1]
('# of model votes positive:', 5, ', # of models vote negative: ', 0)
('image name:', 'J10')
('true label:', 1)
('result of model', 0, ': ', [0, 150, 1])
[0, 150, 1]
('result of model', 1, ': ', [2, 148, 1])
[2, 148, 1]
('result of model', 2, ': ', [13, 137, 1])
[13, 137, 1]
('result of model', 3, ': ', [3, 147, 1])
[3, 147, 1]
('result of model', 4, ': ', [7, 143, 1])
[7, 143, 1]
('# of model votes positive:', 5, ', # of models vote negative: ', 0)
('image name:', 'C4')
('true label:', 0)
('result of model', 0, ': ', [147, 3, 0])
[147, 3, 0]
('result of model', 1, ': ', [149, 1, 0])
[149, 1, 0]
('result of model', 2, ': ', [137, 13, 0])
[137, 13, 0]
('result of model', 3, ': ', [142, 8, 0])
[142, 8, 0]
('result of model', 4, ': ', [138, 12, 0])
[138, 12, 0]
('# of model votes positive:', 0, ', # of models vote negative: ', 5)
('image name:', 'I15')
('true label:', 1)
('result of model', 0, ': ', [0, 100, 1])
[0, 100, 1]
('result of model', 1, ': ', [1, 99, 1])
[1, 99, 1]
('result of model', 2, ': ', [6, 94, 1])
[6, 94, 1]
('result of model', 3, ': ', [5, 95, 1])
[5, 95, 1]
('result of model', 4, ': ', [6, 94, 1])
[6, 94, 1]
('# of model votes positive:', 5, ', # of models vote negative: ', 0)
('image name:', 'I14')
('true label:', 0)
('result of model', 0, ': ', [150, 100, 0])
[150, 100, 0]
('result of model', 1, ': ', [149, 101, 0])
[149, 101, 0]
('result of model', 2, ': ', [143, 107, 0])
[143, 107, 0]
('result of model', 3, ': ', [138, 112, 0])
[138, 112, 0]
('result of model', 4, ': ', [140, 110, 0])
[140, 110, 0]
('# of model votes positive:', 0, ', # of models vote negative: ', 5)
('image name:', 'I16')
('true label:', 0)
('result of model', 0, ': ', [143, 7, 0])
[143, 7, 0]
('result of model', 1, ': ', [150, 0, 0])
[150, 0, 0]
('result of model', 2, ': ', [137, 13, 0])
[137, 13, 0]
('result of model', 3, ': ', [139, 11, 0])
[139, 11, 0]
('result of model', 4, ': ', [137, 13, 0])
[137, 13, 0]
('# of model votes positive:', 0, ', # of models vote negative: ', 5)
('image name:', 'I11')
('true label:', 1)
('result of model', 0, ': ', [0, 100, 1])
[0, 100, 1]
('result of model', 1, ': ', [0, 100, 1])
[0, 100, 1]
('result of model', 2, ': ', [7, 93, 1])
[7, 93, 1]
('result of model', 3, ': ', [1, 99, 1])
[1, 99, 1]
('result of model', 4, ': ', [2, 98, 1])
[2, 98, 1]
('# of model votes positive:', 5, ', # of models vote negative: ', 0)
('image name:', 'I12')
('true label:', 1)
('result of model', 0, ': ', [0, 100, 1])
[0, 100, 1]
('result of model', 1, ': ', [0, 100, 1])
[0, 100, 1]
('result of model', 2, ': ', [6, 94, 1])
[6, 94, 1]
('result of model', 3, ': ', [5, 95, 1])
[5, 95, 1]
('result of model', 4, ': ', [8, 92, 1])
[8, 92, 1]
('# of model votes positive:', 5, ', # of models vote negative: ', 0)
('image name:', 'G16')
('true label:', 0)
('result of model', 0, ': ', [140, 10, 0])
[140, 10, 0]
('result of model', 1, ': ', [149, 1, 0])
[149, 1, 0]
('result of model', 2, ': ', [132, 18, 0])
[132, 18, 0]
('result of model', 3, ': ', [132, 18, 0])
[132, 18, 0]
('result of model', 4, ': ', [131, 19, 0])
[131, 19, 0]
('# of model votes positive:', 0, ', # of models vote negative: ', 5)
('image name:', 'G15')
('true label:', 1)
('result of model', 0, ': ', [2, 98, 1])
[2, 98, 1]
('result of model', 1, ': ', [1, 99, 1])
[1, 99, 1]
('result of model', 2, ': ', [4, 96, 1])
[4, 96, 1]
('result of model', 3, ': ', [4, 96, 1])
[4, 96, 1]
('result of model', 4, ': ', [6, 94, 1])
[6, 94, 1]
('# of model votes positive:', 5, ', # of models vote negative: ', 0)
('image name:', 'G14')
('true label:', 1)
('result of model', 0, ': ', [0, 50, 1])
[0, 50, 1]
('result of model', 1, ': ', [0, 50, 1])
[0, 50, 1]
('result of model', 2, ': ', [3, 47, 1])
[3, 47, 1]
('result of model', 3, ': ', [2, 48, 1])
[2, 48, 1]
('result of model', 4, ': ', [2, 48, 1])
[2, 48, 1]
('# of model votes positive:', 5, ', # of models vote negative: ', 0)
('image name:', 'G13')
('true label:', 1)
('result of model', 0, ': ', [1, 99, 1])
[1, 99, 1]
('result of model', 1, ': ', [0, 100, 1])
[0, 100, 1]
('result of model', 2, ': ', [3, 97, 1])
[3, 97, 1]
('result of model', 3, ': ', [2, 98, 1])
[2, 98, 1]
('result of model', 4, ': ', [6, 94, 1])
[6, 94, 1]
('# of model votes positive:', 5, ', # of models vote negative: ', 0)
('image name:', 'C1')
('true label:', 1)
('result of model', 0, ': ', [0, 100, 1])
[0, 100, 1]
('result of model', 1, ': ', [0, 100, 1])
[0, 100, 1]
('result of model', 2, ': ', [6, 94, 1])
[6, 94, 1]
('result of model', 3, ': ', [6, 94, 1])
[6, 94, 1]
('result of model', 4, ': ', [7, 93, 1])
[7, 93, 1]
('# of model votes positive:', 5, ', # of models vote negative: ', 0)
('image name:', 'G11')
('true label:', 1)
('result of model', 0, ': ', [0, 100, 1])
[0, 100, 1]
('result of model', 1, ': ', [0, 100, 1])
[0, 100, 1]
('result of model', 2, ': ', [3, 97, 1])
[3, 97, 1]
('result of model', 3, ': ', [5, 95, 1])
[5, 95, 1]
('result of model', 4, ': ', [9, 91, 1])
[9, 91, 1]
('# of model votes positive:', 5, ', # of models vote negative: ', 0)
('image name:', 'F1')
('true label:', 1)
('result of model', 0, ': ', [3, 97, 1])
[3, 97, 1]
('result of model', 1, ': ', [0, 100, 1])
[0, 100, 1]
('result of model', 2, ': ', [6, 94, 1])
[6, 94, 1]
('result of model', 3, ': ', [6, 94, 1])
[6, 94, 1]
('result of model', 4, ': ', [9, 91, 1])
[9, 91, 1]
('# of model votes positive:', 5, ', # of models vote negative: ', 0)
('image name:', 'F2')
('true label:', 1)
('result of model', 0, ': ', [0, 100, 1])
[0, 100, 1]
('result of model', 1, ': ', [1, 99, 1])
[1, 99, 1]
('result of model', 2, ': ', [5, 95, 1])
[5, 95, 1]
('result of model', 3, ': ', [2, 98, 1])
[2, 98, 1]
('result of model', 4, ': ', [6, 94, 1])
[6, 94, 1]
('# of model votes positive:', 5, ', # of models vote negative: ', 0)
('image name:', 'F3')
('true label:', 1)
('result of model', 0, ': ', [3, 147, 1])
[3, 147, 1]
('result of model', 1, ': ', [1, 149, 1])
[1, 149, 1]
('result of model', 2, ': ', [14, 136, 1])
[14, 136, 1]
('result of model', 3, ': ', [8, 142, 1])
[8, 142, 1]
('result of model', 4, ': ', [10, 140, 1])
[10, 140, 1]
('# of model votes positive:', 5, ', # of models vote negative: ', 0)
('image name:', 'F4')
('true label:', 1)
('result of model', 0, ': ', [0, 100, 1])
[0, 100, 1]
('result of model', 1, ': ', [1, 99, 1])
[1, 99, 1]
('result of model', 2, ': ', [5, 95, 1])
[5, 95, 1]
('result of model', 3, ': ', [4, 96, 1])
[4, 96, 1]
('result of model', 4, ': ', [5, 95, 1])
[5, 95, 1]
('# of model votes positive:', 5, ', # of models vote negative: ', 0)
('image name:', 'F5')
('true label:', 1)
('result of model', 0, ': ', [0, 100, 1])
[0, 100, 1]
('result of model', 1, ': ', [1, 99, 1])
[1, 99, 1]
('result of model', 2, ': ', [2, 98, 1])
[2, 98, 1]
('result of model', 3, ': ', [4, 96, 1])
[4, 96, 1]
('result of model', 4, ': ', [7, 93, 1])
[7, 93, 1]
('# of model votes positive:', 5, ', # of models vote negative: ', 0)
('image name:', 'F6')
('true label:', 1)
('result of model', 0, ': ', [2, 98, 1])
[2, 98, 1]
('result of model', 1, ': ', [0, 100, 1])
[0, 100, 1]
('result of model', 2, ': ', [7, 93, 1])
[7, 93, 1]
('result of model', 3, ': ', [2, 98, 1])
[2, 98, 1]
('result of model', 4, ': ', [4, 96, 1])
[4, 96, 1]
('# of model votes positive:', 5, ', # of models vote negative: ', 0)
('image name:', 'F7')
('true label:', 1)
('result of model', 0, ': ', [0, 150, 1])
[0, 150, 1]
('result of model', 1, ': ', [0, 150, 1])
[0, 150, 1]
('result of model', 2, ': ', [8, 142, 1])
[8, 142, 1]
('result of model', 3, ': ', [3, 147, 1])
[3, 147, 1]
('result of model', 4, ': ', [8, 142, 1])
[8, 142, 1]
('# of model votes positive:', 5, ', # of models vote negative: ', 0)
('image name:', 'F8')
('true label:', 1)
('result of model', 0, ': ', [0, 100, 1])
[0, 100, 1]
('result of model', 1, ': ', [0, 100, 1])
[0, 100, 1]
('result of model', 2, ': ', [9, 91, 1])
[9, 91, 1]
('result of model', 3, ': ', [8, 92, 1])
[8, 92, 1]
('result of model', 4, ': ', [8, 92, 1])
[8, 92, 1]
('# of model votes positive:', 5, ', # of models vote negative: ', 0)
('image name:', 'F9')
('true label:', 1)
('result of model', 0, ': ', [2, 148, 1])
[2, 148, 1]
('result of model', 1, ': ', [1, 149, 1])
[1, 149, 1]
('result of model', 2, ': ', [8, 142, 1])
[8, 142, 1]
('result of model', 3, ': ', [7, 143, 1])
[7, 143, 1]
('result of model', 4, ': ', [11, 139, 1])
[11, 139, 1]
('# of model votes positive:', 5, ', # of models vote negative: ', 0)
('image name:', 'M11')
('true label:', 0)
('result of model', 0, ': ', [146, 4, 0])
[146, 4, 0]
('result of model', 1, ': ', [148, 2, 0])
[148, 2, 0]
('result of model', 2, ': ', [135, 15, 0])
[135, 15, 0]
('result of model', 3, ': ', [136, 14, 0])
[136, 14, 0]
('result of model', 4, ': ', [132, 18, 0])
[132, 18, 0]
('# of model votes positive:', 0, ', # of models vote negative: ', 5)
('image name:', 'M13')
('true label:', 0)
('result of model', 0, ': ', [150, 0, 0])
[150, 0, 0]
('result of model', 1, ': ', [150, 0, 0])
[150, 0, 0]
('result of model', 2, ': ', [135, 15, 0])
[135, 15, 0]
('result of model', 3, ': ', [141, 9, 0])
[141, 9, 0]
('result of model', 4, ': ', [136, 14, 0])
[136, 14, 0]
('# of model votes positive:', 0, ', # of models vote negative: ', 5)
('image name:', 'C5')
('true label:', 1)
('result of model', 0, ': ', [16, 84, 1])
[16, 84, 1]
('result of model', 1, ': ', [1, 99, 1])
[1, 99, 1]
('result of model', 2, ': ', [7, 93, 1])
[7, 93, 1]
('result of model', 3, ': ', [6, 94, 1])
[6, 94, 1]
('result of model', 4, ': ', [8, 92, 1])
[8, 92, 1]
('# of model votes positive:', 5, ', # of models vote negative: ', 0)
('image name:', 'M14')
('true label:', 0)
('result of model', 0, ': ', [150, 0, 0])
[150, 0, 0]
('result of model', 1, ': ', [150, 0, 0])
[150, 0, 0]
('result of model', 2, ': ', [145, 5, 0])
[145, 5, 0]
('result of model', 3, ': ', [141, 9, 0])
[141, 9, 0]
('result of model', 4, ': ', [131, 19, 0])
[131, 19, 0]
('# of model votes positive:', 0, ', # of models vote negative: ', 5)
('image name:', 'M16')
('true label:', 0)
('result of model', 0, ': ', [147, 3, 0])
[147, 3, 0]
('result of model', 1, ': ', [150, 0, 0])
[150, 0, 0]
('result of model', 2, ': ', [138, 12, 0])
[138, 12, 0]
('result of model', 3, ': ', [137, 13, 0])
[137, 13, 0]
('result of model', 4, ': ', [131, 19, 0])
[131, 19, 0]
('# of model votes positive:', 0, ', # of models vote negative: ', 5)
('image name:', 'J11')
('true label:', 1)
('result of model', 0, ': ', [4, 146, 1])
[4, 146, 1]
('result of model', 1, ': ', [1, 149, 1])
[1, 149, 1]
('result of model', 2, ': ', [13, 137, 1])
[13, 137, 1]
('result of model', 3, ': ', [7, 143, 1])
[7, 143, 1]
('result of model', 4, ': ', [12, 138, 1])
[12, 138, 1]
('# of model votes positive:', 5, ', # of models vote negative: ', 0)
('image name:', 'E13')
('true label:', 1)
('result of model', 0, ': ', [2, 98, 1])
[2, 98, 1]
('result of model', 1, ': ', [1, 99, 1])
[1, 99, 1]
('result of model', 2, ': ', [7, 93, 1])
[7, 93, 1]
('result of model', 3, ': ', [5, 95, 1])
[5, 95, 1]
('result of model', 4, ': ', [9, 91, 1])
[9, 91, 1]
('# of model votes positive:', 5, ', # of models vote negative: ', 0)
('image name:', 'E12')
('true label:', 1)
('result of model', 0, ': ', [0, 100, 1])
[0, 100, 1]
('result of model', 1, ': ', [0, 100, 1])
[0, 100, 1]
('result of model', 2, ': ', [9, 91, 1])
[9, 91, 1]
('result of model', 3, ': ', [3, 97, 1])
[3, 97, 1]
('result of model', 4, ': ', [4, 96, 1])
[4, 96, 1]
('# of model votes positive:', 5, ', # of models vote negative: ', 0)
('image name:', 'E14')
('true label:', 0)
('result of model', 0, ': ', [144, 106, 0])
[144, 106, 0]
('result of model', 1, ': ', [151, 99, 0])
[151, 99, 0]
('result of model', 2, ': ', [144, 106, 0])
[144, 106, 0]
('result of model', 3, ': ', [142, 108, 0])
[142, 108, 0]
('result of model', 4, ': ', [147, 103, 0])
[147, 103, 0]
('# of model votes positive:', 0, ', # of models vote negative: ', 5)
('image name:', 'E16')
('true label:', 1)
('result of model', 0, ': ', [0, 100, 1])
[0, 100, 1]
('result of model', 1, ': ', [1, 99, 1])
[1, 99, 1]
('result of model', 2, ': ', [7, 93, 1])
[7, 93, 1]
('result of model', 3, ': ', [1, 99, 1])
[1, 99, 1]
('result of model', 4, ': ', [2, 98, 1])
[2, 98, 1]
('# of model votes positive:', 5, ', # of models vote negative: ', 0)
('image name:', 'C12')
('true label:', 0)
('result of model', 0, ': ', [150, 0, 0])
[150, 0, 0]
('result of model', 1, ': ', [148, 2, 0])
[148, 2, 0]
('result of model', 2, ': ', [131, 19, 0])
[131, 19, 0]
('result of model', 3, ': ', [141, 9, 0])
[141, 9, 0]
('result of model', 4, ': ', [137, 13, 0])
[137, 13, 0]
('# of model votes positive:', 0, ', # of models vote negative: ', 5)
('image name:', 'C11')
('true label:', 1)
('result of model', 0, ': ', [8, 142, 1])
[8, 142, 1]
('result of model', 1, ': ', [0, 150, 1])
[0, 150, 1]
('result of model', 2, ': ', [13, 137, 1])
[13, 137, 1]
('result of model', 3, ': ', [6, 144, 1])
[6, 144, 1]
('result of model', 4, ': ', [11, 139, 1])
[11, 139, 1]
('# of model votes positive:', 5, ', # of models vote negative: ', 0)
('image name:', 'C10')
('true label:', 0)
('result of model', 0, ': ', [140, 10, 0])
[140, 10, 0]
('result of model', 1, ': ', [148, 2, 0])
[148, 2, 0]
('result of model', 2, ': ', [136, 14, 0])
[136, 14, 0]
('result of model', 3, ': ', [139, 11, 0])
[139, 11, 0]
('result of model', 4, ': ', [132, 18, 0])
[132, 18, 0]
('# of model votes positive:', 0, ', # of models vote negative: ', 5)
('image name:', 'C17')
('true label:', 1)
('result of model', 0, ': ', [0, 50, 1])
[0, 50, 1]
('result of model', 1, ': ', [0, 50, 1])
[0, 50, 1]
('result of model', 2, ': ', [2, 48, 1])
[2, 48, 1]
('result of model', 3, ': ', [3, 47, 1])
[3, 47, 1]
('result of model', 4, ': ', [4, 46, 1])
[4, 46, 1]
('# of model votes positive:', 5, ', # of models vote negative: ', 0)
('image name:', 'C15')
('true label:', 1)
('result of model', 0, ': ', [1, 99, 1])
[1, 99, 1]
('result of model', 1, ': ', [2, 98, 1])
[2, 98, 1]
('result of model', 2, ': ', [6, 94, 1])
[6, 94, 1]
('result of model', 3, ': ', [7, 93, 1])
[7, 93, 1]
('result of model', 4, ': ', [9, 91, 1])
[9, 91, 1]
('# of model votes positive:', 5, ', # of models vote negative: ', 0)
('image name:', 'I9')
('true label:', 1)
('result of model', 0, ': ', [0, 150, 1])
[0, 150, 1]
('result of model', 1, ': ', [1, 149, 1])
[1, 149, 1]
('result of model', 2, ': ', [12, 138, 1])
[12, 138, 1]
('result of model', 3, ': ', [5, 145, 1])
[5, 145, 1]
('result of model', 4, ': ', [7, 143, 1])
[7, 143, 1]
('# of model votes positive:', 5, ', # of models vote negative: ', 0)
('image name:', 'I8')
('true label:', 1)
('result of model', 0, ': ', [0, 100, 1])
[0, 100, 1]
('result of model', 1, ': ', [1, 99, 1])
[1, 99, 1]
('result of model', 2, ': ', [6, 94, 1])
[6, 94, 1]
('result of model', 3, ': ', [4, 96, 1])
[4, 96, 1]
('result of model', 4, ': ', [8, 92, 1])
[8, 92, 1]
('# of model votes positive:', 5, ', # of models vote negative: ', 0)
('image name:', 'A16')
('true label:', 1)
('result of model', 0, ': ', [2, 98, 1])
[2, 98, 1]
('result of model', 1, ': ', [1, 99, 1])
[1, 99, 1]
('result of model', 2, ': ', [6, 94, 1])
[6, 94, 1]
('result of model', 3, ': ', [5, 95, 1])
[5, 95, 1]
('result of model', 4, ': ', [9, 91, 1])
[9, 91, 1]
('# of model votes positive:', 5, ', # of models vote negative: ', 0)
('image name:', 'A10')
('true label:', 0)
('result of model', 0, ': ', [148, 102, 0])
[148, 102, 0]
('result of model', 1, ': ', [151, 99, 0])
[151, 99, 0]
('result of model', 2, ': ', [141, 109, 0])
[141, 109, 0]
('result of model', 3, ': ', [147, 103, 0])
[147, 103, 0]
('result of model', 4, ': ', [144, 106, 0])
[144, 106, 0]
('# of model votes positive:', 0, ', # of models vote negative: ', 5)
('image name:', 'A12')
('true label:', 1)
('result of model', 0, ': ', [0, 100, 1])
[0, 100, 1]
('result of model', 1, ': ', [1, 99, 1])
[1, 99, 1]
('result of model', 2, ': ', [10, 90, 1])
[10, 90, 1]
('result of model', 3, ': ', [7, 93, 1])
[7, 93, 1]
('result of model', 4, ': ', [10, 90, 1])
[10, 90, 1]
('# of model votes positive:', 5, ', # of models vote negative: ', 0)
('image name:', 'I3')
('true label:', 1)
('result of model', 0, ': ', [3, 147, 1])
[3, 147, 1]
('result of model', 1, ': ', [0, 150, 1])
[0, 150, 1]
('result of model', 2, ': ', [15, 135, 1])
[15, 135, 1]
('result of model', 3, ': ', [10, 140, 1])
[10, 140, 1]
('result of model', 4, ': ', [14, 136, 1])
[14, 136, 1]
('# of model votes positive:', 5, ', # of models vote negative: ', 0)
('image name:', 'I2')
('true label:', 0)
('result of model', 0, ': ', [144, 6, 0])
[144, 6, 0]
('result of model', 1, ': ', [149, 1, 0])
[149, 1, 0]
('result of model', 2, ': ', [136, 14, 0])
[136, 14, 0]
('result of model', 3, ': ', [142, 8, 0])
[142, 8, 0]
('result of model', 4, ': ', [137, 13, 0])
[137, 13, 0]
('# of model votes positive:', 0, ', # of models vote negative: ', 5)
('image name:', 'I5')
('true label:', 1)
('result of model', 0, ': ', [0, 150, 1])
[0, 150, 1]
('result of model', 1, ': ', [0, 150, 1])
[0, 150, 1]
('result of model', 2, ': ', [8, 142, 1])
[8, 142, 1]
('result of model', 3, ': ', [3, 147, 1])
[3, 147, 1]
('result of model', 4, ': ', [7, 143, 1])
[7, 143, 1]
('# of model votes positive:', 5, ', # of models vote negative: ', 0)
('image name:', 'I4')
('true label:', 0)
('result of model', 0, ': ', [296, 104, 0])
[296, 104, 0]
('result of model', 1, ': ', [299, 101, 0])
[299, 101, 0]
('result of model', 2, ': ', [279, 121, 0])
[279, 121, 0]
('result of model', 3, ': ', [290, 110, 0])
[290, 110, 0]
('result of model', 4, ': ', [276, 124, 0])
[276, 124, 0]
('# of model votes positive:', 0, ', # of models vote negative: ', 5)
('image name:', 'I7')
('true label:', 1)
('result of model', 0, ': ', [1, 149, 1])
[1, 149, 1]
('result of model', 1, ': ', [1, 149, 1])
[1, 149, 1]
('result of model', 2, ': ', [7, 143, 1])
[7, 143, 1]
('result of model', 3, ': ', [8, 142, 1])
[8, 142, 1]
('result of model', 4, ': ', [11, 139, 1])
[11, 139, 1]
('# of model votes positive:', 5, ', # of models vote negative: ', 0)
('image name:', 'I6')
('true label:', 1)
('result of model', 0, ': ', [0, 100, 1])
[0, 100, 1]
('result of model', 1, ': ', [1, 99, 1])
[1, 99, 1]
('result of model', 2, ': ', [10, 90, 1])
[10, 90, 1]
('result of model', 3, ': ', [6, 94, 1])
[6, 94, 1]
('result of model', 4, ': ', [12, 88, 1])
[12, 88, 1]
('# of model votes positive:', 5, ', # of models vote negative: ', 0)
('image name:', 'A1')
('true label:', 1)
('result of model', 0, ': ', [2, 98, 1])
[2, 98, 1]
('result of model', 1, ': ', [1, 99, 1])
[1, 99, 1]
('result of model', 2, ': ', [10, 90, 1])
[10, 90, 1]
('result of model', 3, ': ', [9, 91, 1])
[9, 91, 1]
('result of model', 4, ': ', [13, 87, 1])
[13, 87, 1]
('# of model votes positive:', 5, ', # of models vote negative: ', 0)
('image name:', 'A2')
('true label:', 0)
('result of model', 0, ': ', [147, 103, 0])
[147, 103, 0]
('result of model', 1, ': ', [147, 103, 0])
[147, 103, 0]
('result of model', 2, ': ', [145, 105, 0])
[145, 105, 0]
('result of model', 3, ': ', [138, 112, 0])
[138, 112, 0]
('result of model', 4, ': ', [134, 116, 0])
[134, 116, 0]
('# of model votes positive:', 0, ', # of models vote negative: ', 5)
('image name:', 'A5')
('true label:', 1)
('result of model', 0, ': ', [4, 146, 1])
[4, 146, 1]
('result of model', 1, ': ', [0, 150, 1])
[0, 150, 1]
('result of model', 2, ': ', [5, 145, 1])
[5, 145, 1]
('result of model', 3, ': ', [4, 146, 1])
[4, 146, 1]
('result of model', 4, ': ', [9, 141, 1])
[9, 141, 1]
('# of model votes positive:', 5, ', # of models vote negative: ', 0)
('image name:', 'A4')
('true label:', 0)
('result of model', 0, ': ', [144, 106, 0])
[144, 106, 0]
('result of model', 1, ': ', [148, 102, 0])
[148, 102, 0]
('result of model', 2, ': ', [139, 111, 0])
[139, 111, 0]
('result of model', 3, ': ', [150, 100, 0])
[150, 100, 0]
('result of model', 4, ': ', [148, 102, 0])
[148, 102, 0]
('# of model votes positive:', 0, ', # of models vote negative: ', 5)
('image name:', 'A7')
('true label:', 1)
('result of model', 0, ': ', [10, 140, 1])
[10, 140, 1]
('result of model', 1, ': ', [1, 149, 1])
[1, 149, 1]
('result of model', 2, ': ', [10, 140, 1])
[10, 140, 1]
('result of model', 3, ': ', [7, 143, 1])
[7, 143, 1]
('result of model', 4, ': ', [13, 137, 1])
[13, 137, 1]
('# of model votes positive:', 5, ', # of models vote negative: ', 0)
('image name:', 'A6')
('true label:', 1)
('result of model', 0, ': ', [1, 99, 1])
[1, 99, 1]
('result of model', 1, ': ', [0, 100, 1])
[0, 100, 1]
('result of model', 2, ': ', [8, 92, 1])
[8, 92, 1]
('result of model', 3, ': ', [2, 98, 1])
[2, 98, 1]
('result of model', 4, ': ', [8, 92, 1])
[8, 92, 1]
('# of model votes positive:', 5, ', # of models vote negative: ', 0)
('image name:', 'A8')
('true label:', 1)
('result of model', 0, ': ', [0, 100, 1])
[0, 100, 1]
('result of model', 1, ': ', [0, 100, 1])
[0, 100, 1]
('result of model', 2, ': ', [4, 96, 1])
[4, 96, 1]
('result of model', 3, ': ', [5, 95, 1])
[5, 95, 1]
('result of model', 4, ': ', [7, 93, 1])
[7, 93, 1]
('# of model votes positive:', 5, ', # of models vote negative: ', 0)
('image name:', 'A15')
('true label:', 1)
('result of model', 0, ': ', [0, 100, 1])
[0, 100, 1]
('result of model', 1, ': ', [0, 100, 1])
[0, 100, 1]
('result of model', 2, ': ', [7, 93, 1])
[7, 93, 1]
('result of model', 3, ': ', [2, 98, 1])
[2, 98, 1]
('result of model', 4, ': ', [4, 96, 1])
[4, 96, 1]
('# of model votes positive:', 5, ', # of models vote negative: ', 0)
('image name:', 'L6')
('true label:', 0)
('result of model', 0, ': ', [147, 53, 0])
[147, 53, 0]
('result of model', 1, ': ', [149, 51, 0])
[149, 51, 0]
('result of model', 2, ': ', [153, 47, 0])
[153, 47, 0]
('result of model', 3, ': ', [146, 54, 0])
[146, 54, 0]
('result of model', 4, ': ', [140, 60, 0])
[140, 60, 0]
('# of model votes positive:', 0, ', # of models vote negative: ', 5)
('image name:', 'L4')
('true label:', 0)
('result of model', 0, ': ', [148, 52, 0])
[148, 52, 0]
('result of model', 1, ': ', [150, 50, 0])
[150, 50, 0]
('result of model', 2, ': ', [143, 57, 0])
[143, 57, 0]
('result of model', 3, ': ', [147, 53, 0])
[147, 53, 0]
('result of model', 4, ': ', [140, 60, 0])
[140, 60, 0]
('# of model votes positive:', 0, ', # of models vote negative: ', 5)
('image name:', 'L2')
('true label:', 1)
('result of model', 0, ': ', [0, 50, 1])
[0, 50, 1]
('result of model', 1, ': ', [0, 50, 1])
[0, 50, 1]
('result of model', 2, ': ', [2, 48, 1])
[2, 48, 1]
('result of model', 3, ': ', [1, 49, 1])
[1, 49, 1]
('result of model', 4, ': ', [3, 47, 1])
[3, 47, 1]
('# of model votes positive:', 5, ', # of models vote negative: ', 0)
('image name:', 'L3')
('true label:', 0)
('result of model', 0, ': ', [150, 50, 0])
[150, 50, 0]
('result of model', 1, ': ', [149, 51, 0])
[149, 51, 0]
('result of model', 2, ': ', [138, 62, 0])
[138, 62, 0]
('result of model', 3, ': ', [138, 62, 0])
[138, 62, 0]
('result of model', 4, ': ', [134, 66, 0])
[134, 66, 0]
('# of model votes positive:', 0, ', # of models vote negative: ', 5)
('image name:', 'L1')
('true label:', 0)
('result of model', 0, ': ', [150, 0, 0])
[150, 0, 0]
('result of model', 1, ': ', [149, 1, 0])
[149, 1, 0]
('result of model', 2, ': ', [137, 13, 0])
[137, 13, 0]
('result of model', 3, ': ', [143, 7, 0])
[143, 7, 0]
('result of model', 4, ': ', [133, 17, 0])
[133, 17, 0]
('# of model votes positive:', 0, ', # of models vote negative: ', 5)
('image name:', 'L8')
('true label:', 0)
('result of model', 0, ': ', [150, 0, 0])
[150, 0, 0]
('result of model', 1, ': ', [147, 3, 0])
[147, 3, 0]
('result of model', 2, ': ', [137, 13, 0])
[137, 13, 0]
('result of model', 3, ': ', [138, 12, 0])
[138, 12, 0]
('result of model', 4, ': ', [135, 15, 0])
[135, 15, 0]
('# of model votes positive:', 0, ', # of models vote negative: ', 5)
('image name:', 'L9')
('true label:', 0)
('result of model', 0, ': ', [150, 0, 0])
[150, 0, 0]
('result of model', 1, ': ', [148, 2, 0])
[148, 2, 0]
('result of model', 2, ': ', [139, 11, 0])
[139, 11, 0]
('result of model', 3, ': ', [141, 9, 0])
[141, 9, 0]
('result of model', 4, ': ', [137, 13, 0])
[137, 13, 0]
('# of model votes positive:', 0, ', # of models vote negative: ', 5)
('image name:', 'D8')
('true label:', 1)
('result of model', 0, ': ', [0, 50, 1])
[0, 50, 1]
('result of model', 1, ': ', [0, 50, 1])
[0, 50, 1]
('result of model', 2, ': ', [1, 49, 1])
[1, 49, 1]
('result of model', 3, ': ', [4, 46, 1])
[4, 46, 1]
('result of model', 4, ': ', [9, 41, 1])
[9, 41, 1]
('# of model votes positive:', 5, ', # of models vote negative: ', 0)
('image name:', 'D6')
('true label:', 1)
('result of model', 0, ': ', [0, 100, 1])
[0, 100, 1]
('result of model', 1, ': ', [2, 98, 1])
[2, 98, 1]
('result of model', 2, ': ', [8, 92, 1])
[8, 92, 1]
('result of model', 3, ': ', [10, 90, 1])
[10, 90, 1]
('result of model', 4, ': ', [11, 89, 1])
[11, 89, 1]
('# of model votes positive:', 5, ', # of models vote negative: ', 0)
('image name:', 'D4')
('true label:', 1)
('result of model', 0, ': ', [0, 100, 1])
[0, 100, 1]
('result of model', 1, ': ', [1, 99, 1])
[1, 99, 1]
('result of model', 2, ': ', [11, 89, 1])
[11, 89, 1]
('result of model', 3, ': ', [6, 94, 1])
[6, 94, 1]
('result of model', 4, ': ', [6, 94, 1])
[6, 94, 1]
('# of model votes positive:', 5, ', # of models vote negative: ', 0)
('image name:', 'D5')
('true label:', 1)
('result of model', 0, ': ', [1, 149, 1])
[1, 149, 1]
('result of model', 1, ': ', [0, 150, 1])
[0, 150, 1]
('result of model', 2, ': ', [10, 140, 1])
[10, 140, 1]
('result of model', 3, ': ', [8, 142, 1])
[8, 142, 1]
('result of model', 4, ': ', [10, 140, 1])
[10, 140, 1]
('# of model votes positive:', 5, ', # of models vote negative: ', 0)
('image name:', 'D2')
('true label:', 0)
('result of model', 0, ': ', [149, 1, 0])
[149, 1, 0]
('result of model', 1, ': ', [150, 0, 0])
[150, 0, 0]
('result of model', 2, ': ', [139, 11, 0])
[139, 11, 0]
('result of model', 3, ': ', [143, 7, 0])
[143, 7, 0]
('result of model', 4, ': ', [139, 11, 0])
[139, 11, 0]
('# of model votes positive:', 0, ', # of models vote negative: ', 5)
('image name:', 'D3')
('true label:', 1)
('result of model', 0, ': ', [2, 148, 1])
[2, 148, 1]
('result of model', 1, ': ', [0, 150, 1])
[0, 150, 1]
('result of model', 2, ': ', [8, 142, 1])
[8, 142, 1]
('result of model', 3, ': ', [3, 147, 1])
[3, 147, 1]
('result of model', 4, ': ', [7, 143, 1])
[7, 143, 1]
('# of model votes positive:', 5, ', # of models vote negative: ', 0)
('image name:', 'D1')
('true label:', 1)
('result of model', 0, ': ', [0, 150, 1])
[0, 150, 1]
('result of model', 1, ': ', [0, 150, 1])
[0, 150, 1]
('result of model', 2, ': ', [9, 141, 1])
[9, 141, 1]
('result of model', 3, ': ', [8, 142, 1])
[8, 142, 1]
('result of model', 4, ': ', [13, 137, 1])
[13, 137, 1]
('# of model votes positive:', 5, ', # of models vote negative: ', 0)
Average Patch-wide accuracy is: 0.953978678038
Average Image-wide accuracy given by majority vote is: 1.0
('correct_bagging:', 166)
Bagging accuracy given by input models is: 1.0
