\relax 
\citation{nguyen2012prostate}
\citation{lopez2012exploration}
\@writefile{toc}{\contentsline {section}{\numberline {1}Prostate Cancer (Automated) Detection}{1}}
\citation{albarqouni2016aggnet}
\citation{irshad2015crowdsourcing}
\citation{epstein2010update}
\bibstyle{abbrv}
\bibdata{report1}
\bibcite{albarqouni2016aggnet}{1}
\@writefile{toc}{\contentsline {section}{\numberline {2}The Modified Gleason Grade}{2}}
\bibcite{epstein2010update}{2}
\bibcite{irshad2015crowdsourcing}{3}
\bibcite{lopez2012exploration}{4}
\bibcite{nguyen2012prostate}{5}
\@writefile{toc}{\contentsline {section}{\numberline {3}Algorithms for Sorting}{3}}
\newlabel{previous work}{{3}{3}}
\@writefile{toc}{\contentsline {section}{\numberline {4}Appendix}{3}}
\@writefile{lof}{\contentsline {figure}{\numberline {1}{\ignorespaces Selected CAD Systems for PCa Detection}}{4}}
\newlabel{fig:table3}{{1}{4}}
\@writefile{lof}{\contentsline {figure}{\numberline {2}{\ignorespaces Selected CAD Systems for PCa Detection (cont.)}}{5}}
\newlabel{fig:table4}{{2}{5}}
\@writefile{lof}{\contentsline {figure}{\numberline {3}{\ignorespaces Comparison of Old and New Gleason Indices}}{6}}
\newlabel{fig:newvsold}{{3}{6}}
