epoch,acc,loss,lr,val_acc,val_loss
0,0.75179303278688525,0.55554636926110323,0.001,0.62849889955824656,4.4695566648333909
1,0.8256469383035312,0.4411287413774338,0.001,0.64306936044505147,2.7373307087726717
2,0.85075582892596036,0.40042684281887392,0.001,0.61965211757596395,4.1255410884039323
3,0.86702536518521434,0.36054194060079731,0.001,0.5540730337467038,1.699487650851488
4,0.88073276969999426,0.33886544261207568,0.001,0.64938958516495759,3.4719680018888828
5,0.89247587333624301,0.3116475630146564,0.001,0.60653224938879935,0.84962183868113261
6,0.90251088909533117,0.2935987845418272,0.001,0.66245831030758773,1.7170345619275398
7,0.91070971047911864,0.27960567210321086,0.001,0.75546267290189928,0.69457336580107121
8,0.92091553505850199,0.25901921285312052,0.001,0.66132103505422812,2.3979874695711603
9,0.92783329070240539,0.24548113215274048,0.001,0.62379807696010448,4.1470072445722881
10,0.94043043823651051,0.22570245789416635,0.001,0.41308340538363958,5.4770036575335332
11,0.94239473912522265,0.21836374753646923,0.001,0.59300723858459392,1.7045192461398042
12,0.95413784268511403,0.19818757058783268,0.001,0.62342669622684432,3.7318375325031647
13,0.95699888974293279,0.19136350855863779,0.001,0.60391714716238043,1.4244425897481792
14,0.98326073963764904,0.13382302327845932,0.000316228,0.75420673079861134,1.1300458862229315
15,0.98778717226065416,0.1181490824895325,0.000316228,0.74195116684251272,1.6116761251830864
16,0.990861730292937,0.10707409790098968,0.000316228,0.75884561367693548,1.3987073999138946
17,0.99120334785207964,0.10374969517235794,0.000316228,0.79534896284055256,0.95768392987135964
18,0.99171577419079338,0.1001486760016204,0.000316228,0.59632940798198564,2.5161891262223679
19,0.99752327269621655,0.084085237340140534,0.0001,0.78062878133827307,1.3869661658264973
20,0.99765137928089509,0.081094088708446255,0.0001,0.79140280049444278,0.99222815067015036
21,0.9976086770860022,0.07891381653743984,0.0001,0.80660517502080264,0.91498995144509809
22,0.99837731662970641,0.076257251598210077,0.0001,0.77488250866075115,1.4085810128495768
23,0.99850542317875135,0.073772895552115511,0.0001,0.79231039327613573,1.0874415190803699
24,0.99914595610214363,0.071031468753139093,3.16228e-05,0.78228311368257009,1.2248730509824264
25,0.99940216927150061,0.069343647222594673,3.16228e-05,0.79324897367896818,1.3155430406750588
26,0.9990178495174652,0.069131312360679251,3.16228e-05,0.81357362792024657,0.90239252875727671
27,0.99957297805107181,0.067098814716982758,3.16228e-05,0.81121808289837705,0.95098425717507395
28,0.99923136049192929,0.067123914405211038,3.16228e-05,0.81641637857088956,1.0368318817879709
29,0.99957297805107181,0.065884733207199939,1e-05,0.81160193388636059,0.97971867963546111
30,0.99935946707660772,0.065756551797286747,1e-05,0.79983254107215995,1.0427187577475792
31,0.99957297805107181,0.064972189422329352,1e-05,0.80723989845552158,1.0041298308441344
32,0.99965838244085747,0.064788869869172983,1e-05,0.801601663808996,1.0521280152750159
33,0.99970108463575025,0.064264076706939899,1e-05,0.80958297321461814,1.0068247539072572
34,0.99961568024596459,0.064452000723041206,3.16228e-06,0.79897784201338029,1.0818068996387911
35,0.99961568024596459,0.063883469781344973,3.16228e-06,0.80430936690036758,1.0266366875786801
36,0.99957297805107181,0.064091054064242606,3.16228e-06,0.80194603501720063,1.0606828048680776
37,0.99957297805107181,0.063972105061097212,3.16228e-06,0.79766502811041373,1.099382897595957
38,0.99944487146639338,0.0640532417772154,3.16228e-06,0.80191902552434313,1.0436072120093438
39,0.99965838244085747,0.063748606597978139,1e-06,0.80087915947298582,1.0649891968359912
